\relax 
\providecommand\hyper@newdestlabel[2]{}
\providecommand\BKM@entry[2]{}
\providecommand\HyperFirstAtBeginDocument{\AtBeginDocument}
\HyperFirstAtBeginDocument{\ifx\hyper@anchor\@undefined
\global\let\oldcontentsline\contentsline
\gdef\contentsline#1#2#3#4{\oldcontentsline{#1}{#2}{#3}}
\global\let\oldnewlabel\newlabel
\gdef\newlabel#1#2{\newlabelxx{#1}#2}
\gdef\newlabelxx#1#2#3#4#5#6{\oldnewlabel{#1}{{#2}{#3}}}
\AtEndDocument{\ifx\hyper@anchor\@undefined
\let\contentsline\oldcontentsline
\let\newlabel\oldnewlabel
\fi}
\fi}
\global\let\hyper@last\relax 
\gdef\HyperFirstAtBeginDocument#1{#1}
\providecommand\HyField@AuxAddToFields[1]{}
\providecommand\HyField@AuxAddToCoFields[2]{}
\bibstyle{WileyNJD-AMA}
\BKM@entry{id=1,open,dest={446F632D5374617274},srcline={46}}{41203344206D697865642066696E69746520656C656D656E7420666F72206C617267652073747261696E20656C61737469636974792077697468207765616B207374726573732073796D6D65747279}
\BKM@entry{id=2,open,dest={446F632D5374617274},srcline={46}}{4162737472616374}
\BKM@entry{id=3,open,dest={73656374696F6E2E31},srcline={51}}{496E74726F64756374696F6E}
\citation{Nedelec1980}
\citation{Stenberg1988}
\citation{Morley1989}
\citation{Sussman1987}
\citation{Bathe1996}
\citation{Falk1980}
\citation{Douglas1985}
\citation{Lovadina2006}
\citation{}
\@writefile{toc}{\contentsline {chapter}{A 3D mixed finite element for large strain elasticity with weak stress symmetry\thanks {}}{1}{Doc-Start}}
\Newlabel{1}{1}
\@writefile{toc}{\contentsline {section}{Abstract}{1}{Doc-Start}}
\@writefile{toc}{\contentsline {section}{\numberline {1}Introduction}{1}{section.1}}
\newlabel{sec1}{{1}{1}{Introduction}{section.1}{}}
\newlabel{strong_form_small_strain}{{1}{1}{Introduction}{equation.1.1}{}}
\newlabel{original_functional}{{2}{1}{Introduction}{equation.1.2}{}}
\BKM@entry{id=4,open,dest={73656374696F6E2E32},srcline={177}}{5468656F7265746963616C206672616D65776F726B}
\BKM@entry{id=5,open,dest={73756273656374696F6E2E322E31},srcline={181}}{4B696E656D6174696373}
\BKM@entry{id=6,open,dest={73656374696F6E2E33},srcline={185}}{53616D706C6520666F72206E657874206669727374206C6576656C2068656164}
\BKM@entry{id=7,open,dest={73756273656374696F6E2E332E31},srcline={187}}{4578616D706C6520666F7220616E6F74686572207365636F6E64206C6576656C2068656164}
\newlabel{Original_weak}{{3}{2}{Introduction}{equation.1.3}{}}
\newlabel{modified_functional}{{4}{2}{Introduction}{equation.1.4}{}}
\newlabel{modified_weak}{{5}{2}{Introduction}{equation.1.5}{}}
\BKM@entry{id=8,open,dest={73756273656374696F6E2E332E32},srcline={200}}{5365636F6E64206C6576656C20686561642074657874}
\BKM@entry{id=9,open,dest={73756273756273656374696F6E2E332E322E31},srcline={209}}{5468697264206C6576656C20686561642074657874}
\BKM@entry{id=10,open,dest={73756273756273656374696F6E2E332E322E31},srcline={235}}{4578616D706C65206F6620426F7874657874}
\@writefile{toc}{\contentsline {section}{\numberline {2}Theoretical framework}{3}{section.2}}
\newlabel{sec2}{{2}{3}{Theoretical framework}{section.2}{}}
\@writefile{toc}{\contentsline {subsection}{\numberline {2.1}Kinematics}{3}{subsection.2.1}}
\@writefile{toc}{\contentsline {section}{\numberline {3}Sample for next first level head}{3}{section.3}}
\newlabel{sec3}{{3}{3}{Sample for next first level head}{section.3}{}}
\@writefile{toc}{\contentsline {subsection}{\numberline {3.1}Example for another second level head}{3}{subsection.3.1}}
\@writefile{toc}{\contentsline {subsection}{\numberline {3.2}Second level head text}{3}{subsection.3.2}}
\@writefile{toc}{\contentsline {subsubsection}{\numberline {3.2.1}Third level head text}{3}{subsubsection.3.2.1}}
\@writefile{toc}{\contentsline {section}{Example of Boxtext}{4}{subsubsection.3.2.1}}
\@writefile{toc}{\contentsline {paragraph}{Fourth level head text}{4}{subsubsection.3.2.1}}
\citation{Liska2010,Kucharik2003,Blanchard2015}
\citation{Lauritzen2011}
\citation{Klima2017}
\citation{Dukowicz2000}
\@writefile{lot}{\contentsline {table}{\numberline {1}{\ignorespaces This is sample table caption.\relax }}{5}{table.caption.1}}
\providecommand*\caption@xref[2]{\@setref\relax\@undefined{#1}}
\newlabel{tab1}{{1}{5}{This is sample table caption.\relax }{table.caption.1}{}}
\@writefile{lot}{\contentsline {table}{\numberline {2}{\ignorespaces This is sample table caption.\relax }}{5}{table.caption.2}}
\newlabel{tab2}{{2}{5}{This is sample table caption.\relax }{table.caption.2}{}}
\citation{Kucharik2011,Kucharik2014,Loubere2005}
\citation{Caramana1998}
\citation{Hoch2009}
\citation{Shashkov1996,Knupp1999,Knupp1999}
\citation{Kamm2000}
\citation{Taylor1937}
\BKM@entry{id=11,open,dest={73656374696F6E2E34},srcline={421}}{4578616D706C657320666F7220656E756E63696174696F6E73}
\@writefile{toc}{\contentsline {section}{\numberline {4}Examples for enunciations}{7}{section.4}}
\newlabel{sec4}{{4}{7}{Examples for enunciations}{section.4}{}}
\newlabel{thm1}{{1}{7}{Theorem subhead}{theorem.1}{}}
\citation{Kucharik2012}
\citation{Hirt1974}
\citation{Benson1992}
\citation{Margolin2003}
\citation{Hirt1974,Benson1992}
\citation{Benson1992}
\newlabel{eq23}{{7}{8}{Examples for enunciations}{equation.4.7}{}}
\newlabel{RF1}{9}
\@writefile{lot}{\contentsline {table}{\numberline {3}{\ignorespaces Sideways table caption. For decimal alignment refer column 4 to 9 in tabular* preamble.\relax }}{9}{table.caption.3}}
\newlabel{tab3}{{3}{9}{Sideways table caption. For decimal alignment refer column 4 to 9 in tabular* preamble.\relax }{table.caption.3}{}}
\newlabel{RF2}{10}
\@writefile{lof}{\contentsline {figure}{\numberline {1}{\ignorespaces Sideways figure caption. Sideways figure caption. Sideways figure caption. Sideways figure caption. Sideways figure caption. Sideways figure caption.\relax }}{10}{figure.caption.4}}
\newlabel{fig3}{{1}{10}{Sideways figure caption. Sideways figure caption. Sideways figure caption. Sideways figure caption. Sideways figure caption. Sideways figure caption.\relax }{figure.caption.4}{}}
\@writefile{loa}{\contentsline {algorithm}{\numberline {1}{\ignorespaces Pseudocode for our algorithm\relax }}{11}{algorithm.1}}
\newlabel{alg1}{{1}{11}{Pseudocode for our algorithm\relax }{algorithm.1}{}}
\newlabel{eq24}{{8}{11}{Examples for enunciations}{equation.4.8}{}}
\BKM@entry{id=12,open,dest={73656374696F6E2E35},srcline={638}}{436F6E636C7573696F6E73}
\BKM@entry{id=13,open,dest={73656374696F6E2E35},srcline={657}}{41636B6E6F776C6564676D656E7473}
\citation{Kenamond2013}
\BKM@entry{id=14,open,dest={73656374696F6E2E35},srcline={673}}{537570706F7274696E6720696E666F726D6174696F6E}
\@writefile{toc}{\contentsline {section}{\numberline {5}Conclusions}{12}{section.5}}
\newlabel{sec5}{{5}{12}{Conclusions}{section.5}{}}
\@writefile{toc}{\contentsline {section}{Acknowledgments}{12}{section.5}}
\@writefile{toc}{\contentsline {section}{Supporting information}{12}{section.5}}
\BKM@entry{id=15,open,dest={73656374696F6E2E35},srcline={686}}{417070656E646978}
\BKM@entry{id=16,open,dest={417070656E6469782E312E41},srcline={688}}{53656374696F6E207469746C65206F6620666972737420617070656E646978}
\BKM@entry{id=17,open,dest={73756273656374696F6E2E312E412E31},srcline={703}}{53756273656374696F6E207469746C65206F6620666972737420617070656E646978}
\BKM@entry{id=18,open,dest={73756273756273656374696F6E2E312E412E312E31},srcline={719}}{53756273656374696F6E207469746C65206F6620666972737420617070656E646978}
\@writefile{toc}{\contentsline {section}{Appendix}{13}{section.5}}
\newlabel{APP1}{{A}{13}{Section title of first appendix}{Appendix.1.A}{}}
\@writefile{toc}{\contentsline {section}{\numberline {A}Section title of first appendix}{13}{Appendix.1.A}}
\newlabel{DescriptiveLabel}{{1}{13}{Descriptive Caption Text}{lstlisting.0.0.1}{}}
\@writefile{lol}{\contentsline {lstlisting}{\numberline {1}Descriptive Caption Text}{13}{lstlisting.0.0.1}}
\newlabel{app1.1a}{{A.1}{13}{Subsection title of first appendix}{subsection.1.A.1}{}}
\@writefile{toc}{\contentsline {subsection}{\numberline {A.1}Subsection title of first appendix}{13}{subsection.1.A.1}}
\newlabel{app1.1.1a}{{A.1.1}{13}{Subsection title of first appendix}{subsubsection.1.A.1.1}{}}
\@writefile{toc}{\contentsline {subsubsection}{\numberline {A.1.1}Subsection title of first appendix}{13}{subsubsection.1.A.1.1}}
\BKM@entry{id=19,open,dest={417070656E6469782E312E42},srcline={742}}{53656374696F6E207469746C65206F66207365636F6E6420617070656E646978}
\BKM@entry{id=20,open,dest={73756273656374696F6E2E312E422E31},srcline={764}}{53756273656374696F6E207469746C65206F66207365636F6E6420617070656E646978}
\BKM@entry{id=21,open,dest={73756273756273656374696F6E2E312E422E312E31},srcline={780}}{53756273656374696F6E207469746C65206F66207365636F6E6420617070656E646978}
\@writefile{lof}{\contentsline {figure}{\numberline {B1}{\ignorespaces This is an example for appendix figure.\relax }}{14}{figure.caption.5}}
\newlabel{fig5}{{B1}{14}{This is an example for appendix figure.\relax }{figure.caption.5}{}}
\newlabel{APP2}{{B}{14}{Section title of second appendix}{Appendix.1.B}{}}
\@writefile{toc}{\contentsline {section}{\numberline {B}Section title of second appendix}{14}{Appendix.1.B}}
\newlabel{app2.1a}{{B.1}{14}{Subsection title of second appendix}{subsection.1.B.1}{}}
\@writefile{toc}{\contentsline {subsection}{\numberline {B.1}Subsection title of second appendix}{14}{subsection.1.B.1}}
\BKM@entry{id=22,open,dest={417070656E6469782E312E43},srcline={819}}{4578616D706C65206F6620616E6F7468657220617070656E6469782073656374696F6E}
\newlabel{app2.1.1a}{{B.1.1}{15}{Subsection title of second appendix}{subsubsection.1.B.1.1}{}}
\@writefile{toc}{\contentsline {subsubsection}{\numberline {B.1.1}Subsection title of second appendix}{15}{subsubsection.1.B.1.1}}
\newlabel{eq25}{{B1}{15}{Subsection title of second appendix}{equation.1.B.1}{}}
\newlabel{APP3}{{C}{15}{Example of another appendix section}{Appendix.1.C}{}}
\@writefile{toc}{\contentsline {section}{\numberline {C}Example of another appendix section}{15}{Appendix.1.C}}
\@writefile{lot}{\contentsline {table}{\numberline {B1}{\ignorespaces This is an example of Appendix table showing food requirements of army, navy and airforce.\relax }}{15}{table.caption.6}}
\newlabel{tab4}{{B1}{15}{This is an example of Appendix table showing food requirements of army, navy and airforce.\relax }{table.caption.6}{}}
\citation{*}
\bibdata{wileyNJD-AMA}
\BKM@entry{id=23,open,dest={6571756174696F6E2E312E432E32},srcline={1}}{5265666572656E636573}
\bibcite{Nedelec1980}{{1}{}{{}}{{}}}
\bibcite{Stenberg1988}{{2}{}{{}}{{}}}
\bibcite{Morley1989}{{3}{}{{}}{{}}}
\bibcite{Sussman1987}{{4}{}{{}}{{}}}
\bibcite{Bathe1996}{{5}{}{{}}{{}}}
\bibcite{Falk1980}{{6}{}{{}}{{}}}
\bibcite{Douglas1985}{{7}{}{{}}{{}}}
\bibcite{Lovadina2006}{{8}{}{{}}{{}}}
\newlabel{eq26}{{C2}{16}{Example of another appendix section}{equation.1.C.2}{}}
\@writefile{toc}{\contentsline {section}{References\begingroup \let \let \let \let \@unexpandable@protect \xdef {\MakeUppercase  {References}}{\MakeUppercase  {References}}{{\MakeUppercase  {References}}{\MakeUppercase  {References}}}\@temptokena {{\MakeUppercase  {References}}{\MakeUppercase  {References}}}\mark {\thm@preskip 6.0pt\thm@postskip 6.0pt\relax \thm@headfont {\bfseries  }\thm@headpunct {.}}\endgroup }{16}{equation.1.C.2}}
\bibcite{Liska2010}{{9}{}{{}}{{}}}
\bibcite{Kucharik2003}{{10}{}{{}}{{}}}
\bibcite{Blanchard2015}{{11}{}{{}}{{}}}
\bibcite{Lauritzen2011}{{12}{}{{}}{{}}}
\bibcite{Klima2017}{{13}{}{{}}{{}}}
\bibcite{Dukowicz2000}{{14}{}{{}}{{}}}
\bibcite{Kucharik2011}{{15}{}{{}}{{}}}
\bibcite{Kucharik2014}{{16}{}{{}}{{}}}
\bibcite{Loubere2005}{{17}{}{{}}{{}}}
\bibcite{Caramana1998}{{18}{}{{}}{{}}}
\bibcite{Hoch2009}{{19}{}{{}}{{}}}
\bibcite{Shashkov1996}{{20}{}{{}}{{}}}
\bibcite{Knupp1999}{{21}{}{{}}{{}}}
\bibcite{Kamm2000}{{22}{}{{}}{{}}}
\bibcite{Taylor1937}{{23}{}{{}}{{}}}
\bibcite{Kucharik2012}{{24}{}{{}}{{}}}
\bibcite{Hirt1974}{{25}{}{{}}{{}}}
\bibcite{Benson1992}{{26}{}{{}}{{}}}
\bibcite{Margolin2003}{{27}{}{{}}{{}}}
\bibcite{Kenamond2013}{{28}{}{{}}{{}}}
\bibcite{Dukowicz1984}{{29}{}{{}}{{}}}
\bibcite{Burton2013}{{30}{}{{}}{{}}}
\bibcite{Berndt2011}{{31}{}{{}}{{}}}
\bibcite{Breil2015}{{32}{}{{}}{{}}}
\bibcite{Barth1997}{{33}{}{{}}{{}}}
\bibcite{Margolin2002}{{34}{}{{}}{{}}}
\bibcite{Mavriplis2003}{{35}{}{{}}{{}}}
\bibcite{Scovazzi2008}{{36}{}{{}}{{}}}
\BKM@entry{id=24,open,dest={6571756174696F6E2E312E432E32},srcline={898}}{417574686F722042696F677261706879}
\FirstPg{0}\LastPg{18}
\providecommand\NAT@force@numbers{}\NAT@force@numbers
\@writefile{toc}{\contentsline {section}{Author Biography}{19}{equation.1.C.2}}
