\relax 
\providecommand\hyper@newdestlabel[2]{}
\@writefile{toc}{\contentsline {chapter}{\numberline {2}Mixed Finite Element Formulation}{9}{chapter.84}}
\@writefile{lof}{\addvspace {10\p@ }}
\@writefile{lot}{\addvspace {10\p@ }}
\newlabel{Chapter2}{{2}{9}{Mixed Finite Element Formulation}{chapter.84}{}}
\newlabel{Chapter2@cref}{{[chapter][2][]2}{[1][9][]9}}
\@writefile{toc}{\contentsline {section}{\numberline {2.1}Motivation for Mixed Formulation}{9}{section.85}}
\@writefile{toc}{\contentsline {section}{\numberline {2.2}Results from functional analysis}{9}{section.86}}
\@writefile{thm}{\contentsline {theo}{{Theorem}{2.{1}}{}}{9}{theo.87}}
\@writefile{thm}{\contentsline {theo}{{Theorem}{2.{2}}{Closed Range theorem}}{9}{theo.88}}
\global\def\markiitheoi{\ensuremath {\square }}
\@writefile{toc}{\contentsline {section}{\numberline {2.3}The Mixed formulation for the Poisson problem}{9}{section.89}}
\@writefile{toc}{\contentsline {section}{\numberline {2.4}Small strain elasticity}{9}{section.90}}
\@writefile{toc}{\contentsline {subsection}{\numberline {2.4.1}Definitions from functional analysis}{9}{subsection.91}}
\@writefile{thm}{\contentsline {theo}{{Theorem}{2.{3}}{}}{10}{theo.94}}
\@writefile{thm}{\contentsline {theo}{{Theorem}{2.{4}}{Green's Identity in $\Hdiv $}}{10}{theo.96}}
\global\def\markivtheo{\ensuremath {\square }}
\@writefile{thm}{\contentsline {theo}{{Theorem}{2.{5}}{}}{10}{theo.98}}
\global\def\markvtheo{\ensuremath {\square }}
\@writefile{toc}{\contentsline {subsection}{\numberline {2.4.2}Classical form of the mixed problem}{10}{subsection.102}}
\@writefile{thm}{\contentsline {pro}{{Problem}{2.{1}}{Classical Mixed Formulation}}{10}{pro.103}}
\newlabel{Classical_mixed_problem}{{2.8}{10}{Classical form of the mixed problem}{equation.104}{}}
\newlabel{Classical_mixed_problem@cref}{{[equation][8][2]2.8}{[1][10][]10}}
\global\def\markipro{\ensuremath {\square }}
\@writefile{thm}{\contentsline {pro}{{Problem}{2.{2}}{}}{11}{pro.107}}
\newlabel{matrix_representation}{{2.11}{11}{Classical form of the mixed problem}{equation.108}{}}
\newlabel{matrix_representation@cref}{{[equation][11][2]2.11}{[1][11][]11}}
\@writefile{toc}{\contentsline {subsection}{\numberline {2.4.3}Stability results}{11}{subsection.109}}
\@writefile{thm}{\contentsline {dfn}{{Definition}{2.{1}}{Inf-sup condition}}{11}{dfn.110}}
\newlabel{LBB}{{2.{1}}{11}{Stability results}{equation.111}{}}
\newlabel{LBB@cref}{{[dfn][1][2]2.{1}}{[1][11][]11}}
\@writefile{thm}{\contentsline {lem}{{Lemma}{2.{1}}{}}{11}{lem.112}}
\global\def\markilemi{\ensuremath {\square }}
\@writefile{thm}{\contentsline {theo}{{Theorem}{2.{6}}{}}{11}{theo.117}}
\global\def\markvitheoi{\ensuremath {\square }}
\@writefile{thm}{\contentsline {theo}{{Theorem}{2.{7}}{}}{12}{theo.121}}
\@setckpt{Chapters/Chapter2/Chapter2}{
\setcounter{page}{13}
\setcounter{equation}{14}
\setcounter{enumi}{2}
\setcounter{enumii}{0}
\setcounter{enumiii}{0}
\setcounter{enumiv}{0}
\setcounter{footnote}{0}
\setcounter{mpfootnote}{0}
\setcounter{part}{0}
\setcounter{chapter}{2}
\setcounter{section}{4}
\setcounter{subsection}{3}
\setcounter{subsubsection}{0}
\setcounter{paragraph}{0}
\setcounter{subparagraph}{0}
\setcounter{figure}{0}
\setcounter{table}{0}
\setcounter{LT@tables}{3}
\setcounter{LT@chunks}{1}
\setcounter{ContinuedFloat}{0}
\setcounter{Item}{8}
\setcounter{Hfootnote}{3}
\setcounter{bookmark@seq@number}{22}
\setcounter{endNonectr}{13}
\setcounter{currNonectr}{0}
\setcounter{proof}{0}
\setcounter{currproofctr}{0}
\setcounter{endproofctr}{0}
\setcounter{parentequation}{0}
\setcounter{subfigure}{0}
\setcounter{subtable}{0}
\setcounter{currtheoctr}{7}
\setcounter{endtheoctr}{1}
\setcounter{theo}{7}
\setcounter{currdfnctr}{1}
\setcounter{enddfnctr}{0}
\setcounter{dfn}{1}
\setcounter{currcoroctr}{0}
\setcounter{endcoroctr}{0}
\setcounter{coro}{0}
\setcounter{currprimctr}{0}
\setcounter{endprimctr}{0}
\setcounter{prim}{0}
\setcounter{currproctr}{2}
\setcounter{endproctr}{0}
\setcounter{pro}{2}
\setcounter{currlemctr}{1}
\setcounter{endlemctr}{1}
\setcounter{lem}{1}
\setcounter{tabx@nest}{0}
\setcounter{listtotal}{0}
\setcounter{listcount}{0}
\setcounter{liststart}{0}
\setcounter{liststop}{0}
\setcounter{citecount}{0}
\setcounter{citetotal}{0}
\setcounter{multicitecount}{0}
\setcounter{multicitetotal}{0}
\setcounter{instcount}{1}
\setcounter{maxnames}{1}
\setcounter{minnames}{1}
\setcounter{maxitems}{3}
\setcounter{minitems}{1}
\setcounter{citecounter}{0}
\setcounter{savedcitecounter}{0}
\setcounter{uniquelist}{0}
\setcounter{uniquename}{0}
\setcounter{refsection}{0}
\setcounter{refsegment}{0}
\setcounter{maxextratitle}{0}
\setcounter{maxextratitleyear}{0}
\setcounter{maxextradate}{0}
\setcounter{maxextraalpha}{0}
\setcounter{abbrvpenalty}{50}
\setcounter{highnamepenalty}{50}
\setcounter{lownamepenalty}{25}
\setcounter{maxparens}{3}
\setcounter{parenlevel}{0}
\setcounter{mincomprange}{10}
\setcounter{maxcomprange}{100000}
\setcounter{mincompwidth}{1}
\setcounter{afterword}{0}
\setcounter{savedafterword}{0}
\setcounter{annotator}{0}
\setcounter{savedannotator}{0}
\setcounter{author}{0}
\setcounter{savedauthor}{0}
\setcounter{bookauthor}{0}
\setcounter{savedbookauthor}{0}
\setcounter{commentator}{0}
\setcounter{savedcommentator}{0}
\setcounter{editor}{0}
\setcounter{savededitor}{0}
\setcounter{editora}{0}
\setcounter{savededitora}{0}
\setcounter{editorb}{0}
\setcounter{savededitorb}{0}
\setcounter{editorc}{0}
\setcounter{savededitorc}{0}
\setcounter{foreword}{0}
\setcounter{savedforeword}{0}
\setcounter{holder}{0}
\setcounter{savedholder}{0}
\setcounter{introduction}{0}
\setcounter{savedintroduction}{0}
\setcounter{namea}{0}
\setcounter{savednamea}{0}
\setcounter{nameb}{0}
\setcounter{savednameb}{0}
\setcounter{namec}{0}
\setcounter{savednamec}{0}
\setcounter{translator}{0}
\setcounter{savedtranslator}{0}
\setcounter{shortauthor}{0}
\setcounter{savedshortauthor}{0}
\setcounter{shorteditor}{0}
\setcounter{savedshorteditor}{0}
\setcounter{labelname}{0}
\setcounter{savedlabelname}{0}
\setcounter{institution}{0}
\setcounter{savedinstitution}{0}
\setcounter{lista}{0}
\setcounter{savedlista}{0}
\setcounter{listb}{0}
\setcounter{savedlistb}{0}
\setcounter{listc}{0}
\setcounter{savedlistc}{0}
\setcounter{listd}{0}
\setcounter{savedlistd}{0}
\setcounter{liste}{0}
\setcounter{savedliste}{0}
\setcounter{listf}{0}
\setcounter{savedlistf}{0}
\setcounter{location}{0}
\setcounter{savedlocation}{0}
\setcounter{organization}{0}
\setcounter{savedorganization}{0}
\setcounter{origlocation}{0}
\setcounter{savedoriglocation}{0}
\setcounter{origpublisher}{0}
\setcounter{savedorigpublisher}{0}
\setcounter{publisher}{0}
\setcounter{savedpublisher}{0}
\setcounter{language}{0}
\setcounter{savedlanguage}{0}
\setcounter{origlanguage}{0}
\setcounter{savedoriglanguage}{0}
\setcounter{pageref}{0}
\setcounter{savedpageref}{0}
\setcounter{textcitecount}{0}
\setcounter{textcitetotal}{0}
\setcounter{textcitemaxnames}{0}
\setcounter{biburlnumpenalty}{0}
\setcounter{biburlucpenalty}{0}
\setcounter{biburllcpenalty}{0}
\setcounter{smartand}{1}
\setcounter{bbx:relatedcount}{0}
\setcounter{bbx:relatedtotal}{0}
\setcounter{section@level}{2}
}
