0 0 0
0.6 -0.37366 0.6
1.2 -0.702035 1.2
1.8 -0.972548 1.8
2.4 -1.18183 2.4
3 -1.33229 3
3.6 -1.42972 3.6
4.2 -1.48159 4.2
4.8 -1.49578 4.8
5.4 -1.47986 5.4
6 -1.44066 6
6.6 -1.38407 6.6
7.2 -1.31504 7.2
7.8 -1.23762 7.8
8.4 -1.15505 8.4
9 -1.06994 9
