0 0
-0.611208 -0.364092
-1.34248 -0.667447
-2.07214 -0.907288
-2.77005 -1.08762
-3.43035 -1.21456
-4.05379 -1.29504
-4.64305 -1.33621
-5.20146 -1.34492
-5.73254 -1.32747
-6.23989 -1.28935
-6.72731 -1.23529
-7.19876 -1.16941
-7.65838 -1.09558
-8.1096 -1.01755
-8.55406 -0.938342
