\relax 
\providecommand\hyper@newdestlabel[2]{}
\@writefile{toc}{\contentsline {chapter}{\numberline {1}Mixed Finite Formulation Theory}{1}{chapter.14}}
\@writefile{lof}{\addvspace {10\p@ }}
\@writefile{lot}{\addvspace {10\p@ }}
\newlabel{Chapter1}{{1}{1}{Mixed Finite Formulation Theory}{chapter.14}{}}
\newlabel{Chapter1@cref}{{[chapter][1][]1}{[1][1][]1}}
\@writefile{toc}{\contentsline {section}{\numberline {1.1}Motivation for Mixed Formulation}{1}{section.15}}
\@writefile{toc}{\contentsline {section}{\numberline {1.2}Results from functional analysis}{1}{section.16}}
\@writefile{thm}{\contentsline {theo}{{Theorem}{1.{1}}{}}{1}{theo.17}}
\@writefile{thm}{\contentsline {theo}{{Theorem}{1.{2}}{Closed Range theorem}}{1}{theo.18}}
\global\def\markiitheoi{\ensuremath {\square }}
\@writefile{toc}{\contentsline {section}{\numberline {1.3}Small strain elasticity}{1}{section.19}}
\@writefile{toc}{\contentsline {subsection}{\numberline {1.3.1}Definitions from functional analysis}{1}{subsection.20}}
\@writefile{thm}{\contentsline {theo}{{Theorem}{1.{3}}{}}{2}{theo.23}}
\@writefile{thm}{\contentsline {theo}{{Theorem}{1.{4}}{Green's Identity in $\Hdiv $}}{2}{theo.25}}
\global\def\markivtheo{\ensuremath {\square }}
\@writefile{thm}{\contentsline {theo}{{Theorem}{1.{5}}{}}{2}{theo.27}}
\global\def\markvtheo{\ensuremath {\square }}
\@writefile{toc}{\contentsline {subsection}{\numberline {1.3.2}Classical form of the mixed problem}{2}{subsection.31}}
\@writefile{thm}{\contentsline {pro}{{Problem}{1.{1}}{Classical Mixed Formulation}}{2}{pro.32}}
\newlabel{Classical_mixed_problem}{{1.8}{2}{Classical form of the mixed problem}{equation.33}{}}
\newlabel{Classical_mixed_problem@cref}{{[equation][8][1]1.8}{[1][2][]2}}
\global\def\markipro{\ensuremath {\square }}
\@writefile{thm}{\contentsline {pro}{{Problem}{1.{2}}{}}{3}{pro.36}}
\newlabel{matrix_representation}{{1.11}{3}{Classical form of the mixed problem}{equation.37}{}}
\newlabel{matrix_representation@cref}{{[equation][11][1]1.11}{[1][3][]3}}
\@writefile{toc}{\contentsline {subsection}{\numberline {1.3.3}Stability results}{3}{subsection.38}}
\@writefile{thm}{\contentsline {dfn}{{Definition}{1.{1}}{Inf-sup condition}}{3}{dfn.39}}
\newlabel{LBB}{{1.{1}}{3}{Stability results}{equation.40}{}}
\newlabel{LBB@cref}{{[dfn][1][1]1.{1}}{[1][3][]3}}
\@writefile{thm}{\contentsline {lem}{{Lemma}{1.{1}}{}}{3}{lem.41}}
\global\def\markilemi{\ensuremath {\square }}
\@writefile{thm}{\contentsline {theo}{{Theorem}{1.{6}}{}}{3}{theo.46}}
\global\def\markvitheoi{\ensuremath {\square }}
\@writefile{thm}{\contentsline {theo}{{Theorem}{1.{7}}{}}{4}{theo.50}}
\@writefile{toc}{\contentsline {section}{\numberline {1.4}Discretisation}{4}{section.54}}
\@writefile{toc}{\contentsline {subsection}{\numberline {1.4.1}Galerkin scheme}{4}{subsection.55}}
\newlabel{discrete_mixed}{{1.15}{4}{Galerkin scheme}{equation.56}{}}
\newlabel{discrete_mixed@cref}{{[equation][15][1]1.15}{[1][4][]4}}
\@writefile{thm}{\contentsline {theo}{{Theorem}{1.{8}}{}}{4}{theo.57}}
\global\def\markviiitheoi{\ensuremath {\square }}
\@writefile{thm}{\contentsline {theo}{{Theorem}{1.{9}}{Cea's estimate}}{4}{theo.61}}
\global\def\markixtheo{\ensuremath {\square }}
\@writefile{thm}{\contentsline {theo}{{Theorem}{1.{10}}{Fortin's lemma}}{5}{theo.63}}
\@writefile{toc}{\contentsline {subsection}{\numberline {1.4.2}Spaces of polynomials}{5}{subsection.64}}
\@writefile{thm}{\contentsline {dfn}{{Definition}{1.{2}}{}}{5}{dfn.65}}
\global\def\markiidfn{\ensuremath {\square }}
\@writefile{thm}{\contentsline {dfn}{{Definition}{1.{3}}{Raviart-Thomas spaces}}{5}{dfn.68}}
\global\def\markiiidfn{\ensuremath {\square }}
\@writefile{toc}{\contentsline {subsection}{\numberline {1.4.3}Local and Global Interpolation Operators}{5}{subsection.69}}
\@writefile{thm}{\contentsline {theo}{{Theorem}{1.{11}}{}}{5}{theo.70}}
\global\def\markxitheo{\ensuremath {\square }}
\@writefile{thm}{\contentsline {lem}{{Lemma}{1.{2}}{}}{5}{lem.71}}
\global\def\markiilemi{\ensuremath {\square }}
\@writefile{thm}{\contentsline {dfn}{{Definition}{1.{4}}{Global Raviart-Thomas spaces}}{5}{dfn.74}}
\global\def\markivdfn{\ensuremath {\square }}
\@writefile{thm}{\contentsline {dfn}{{Definition}{1.{5}}{F-moments}}{6}{dfn.75}}
\@writefile{thm}{\contentsline {dfn}{{Definition}{1.{6}}{K-moments}}{6}{dfn.76}}
\@writefile{thm}{\contentsline {dfn}{{Definition}{1.{7}}{interpolating function}}{6}{dfn.77}}
\global\def\markviidfn{\ensuremath {\square }}
\@writefile{thm}{\contentsline {dfn}{{Definition}{1.{8}}{Global interpolation operator}}{6}{dfn.78}}
\global\def\markviiidfn{\ensuremath {\square }}
\@writefile{thm}{\contentsline {dfn}{{Definition}{1.{9}}{Local moments}}{6}{dfn.79}}
\@writefile{thm}{\contentsline {dfn}{{Definition}{1.{10}}{Local interpolation operator}}{6}{dfn.80}}
\global\def\markxdfn{\ensuremath {\square }}
\@writefile{thm}{\contentsline {dfn}{{Definition}{1.{11}}{Orthogonal Projector}}{6}{dfn.81}}
\@writefile{thm}{\contentsline {lem}{{Lemma}{1.{3}}{}}{6}{lem.82}}
\global\def\markiiilem{\ensuremath {\square }}
\@writefile{toc}{\contentsline {subsection}{\numberline {1.4.4}Global interpolation error and local estimates}{7}{subsection.86}}
\@writefile{thm}{\contentsline {lem}{{Lemma}{1.{4}}{}}{7}{lem.87}}
\global\def\markivlem{\ensuremath {\square }}
\@writefile{thm}{\contentsline {lem}{{Lemma}{1.{5}}{Local Interpolation Error}}{7}{lem.89}}
\global\def\markvlem{\ensuremath {\square }}
\@writefile{thm}{\contentsline {lem}{{Lemma}{1.{6}}{Local Interpolation Error}}{7}{lem.91}}
\global\def\markvilem{\ensuremath {\square }}
\@writefile{thm}{\contentsline {theo}{{Theorem}{1.{12}}{Global Interpolation Error}}{7}{theo.94}}
\@writefile{thm}{\contentsline {lem}{{Lemma}{1.{7}}{Local interpolation error for normal components}}{7}{lem.96}}
\global\def\markviilem{\ensuremath {\square }}
\@writefile{thm}{\contentsline {lem}{{Lemma}{1.{8}}{Local Interpolation Error with Fractional Order}}{7}{lem.98}}
\global\def\markviiilem{\ensuremath {\square }}
\@writefile{toc}{\contentsline {section}{\numberline {1.5}Application to Small Strains Elasticity}{8}{section.100}}
\@writefile{toc}{\contentsline {subsection}{\numberline {1.5.1}Strong form}{8}{subsection.101}}
\newlabel{Strong_form_elasticity_small}{{1.30}{8}{Strong form}{equation.102}{}}
\newlabel{Strong_form_elasticity_small@cref}{{[equation][30][1]1.30}{[1][8][]8}}
\newlabel{Alternative_strong_small}{{1.31}{8}{Strong form}{equation.103}{}}
\newlabel{Alternative_strong_small@cref}{{[equation][31][1]1.31}{[1][8][]8}}
\newlabel{eqn:weakformulation}{{1.32}{8}{Strong form}{equation.104}{}}
\newlabel{eqn:weakformulation@cref}{{[equation][32][1]1.32}{[1][8][]8}}
\newlabel{discretized_weak}{{1.33}{8}{Strong form}{equation.105}{}}
\newlabel{discretized_weak@cref}{{[equation][33][1]1.33}{[1][8][]8}}
\newlabel{eqn:weakformulation}{{1.34}{8}{Strong form}{equation.106}{}}
\newlabel{eqn:weakformulation@cref}{{[equation][34][1]1.34}{[1][8][]8}}
\newlabel{local_spaces}{{1.35}{8}{Strong form}{equation.107}{}}
\newlabel{local_spaces@cref}{{[equation][35][1]1.35}{[1][8][]8}}
\@writefile{toc}{\contentsline {subsection}{\numberline {1.5.2}Mixed Formulation}{9}{subsection.108}}
\@writefile{toc}{\contentsline {section}{\numberline {1.6}Discretisation and link with deRham cohomology}{9}{section.109}}
\@writefile{toc}{\contentsline {section}{\numberline {1.7}Results obtained with MoFEM}{9}{section.110}}
\@setckpt{Chapters/Chapter1}{
\setcounter{page}{10}
\setcounter{equation}{35}
\setcounter{enumi}{2}
\setcounter{enumii}{0}
\setcounter{enumiii}{0}
\setcounter{enumiv}{0}
\setcounter{footnote}{0}
\setcounter{mpfootnote}{0}
\setcounter{part}{0}
\setcounter{chapter}{1}
\setcounter{section}{7}
\setcounter{subsection}{0}
\setcounter{subsubsection}{0}
\setcounter{paragraph}{0}
\setcounter{subparagraph}{0}
\setcounter{figure}{0}
\setcounter{table}{0}
\setcounter{LT@tables}{3}
\setcounter{LT@chunks}{1}
\setcounter{ContinuedFloat}{0}
\setcounter{Item}{12}
\setcounter{Hfootnote}{0}
\setcounter{bookmark@seq@number}{20}
\setcounter{endNonectr}{35}
\setcounter{currNonectr}{0}
\setcounter{proof}{0}
\setcounter{currproofctr}{0}
\setcounter{endproofctr}{0}
\setcounter{parentequation}{0}
\setcounter{subfigure}{0}
\setcounter{subtable}{0}
\setcounter{currtheoctr}{12}
\setcounter{endtheoctr}{0}
\setcounter{theo}{12}
\setcounter{currdfnctr}{11}
\setcounter{enddfnctr}{0}
\setcounter{dfn}{11}
\setcounter{currcoroctr}{0}
\setcounter{endcoroctr}{0}
\setcounter{coro}{0}
\setcounter{currprimctr}{0}
\setcounter{endprimctr}{0}
\setcounter{prim}{0}
\setcounter{currproctr}{2}
\setcounter{endproctr}{0}
\setcounter{pro}{2}
\setcounter{currlemctr}{8}
\setcounter{endlemctr}{0}
\setcounter{lem}{8}
\setcounter{tabx@nest}{0}
\setcounter{listtotal}{0}
\setcounter{listcount}{0}
\setcounter{liststart}{0}
\setcounter{liststop}{0}
\setcounter{citecount}{0}
\setcounter{citetotal}{0}
\setcounter{multicitecount}{0}
\setcounter{multicitetotal}{0}
\setcounter{instcount}{0}
\setcounter{maxnames}{1}
\setcounter{minnames}{1}
\setcounter{maxitems}{3}
\setcounter{minitems}{1}
\setcounter{citecounter}{0}
\setcounter{savedcitecounter}{0}
\setcounter{uniquelist}{0}
\setcounter{uniquename}{0}
\setcounter{refsection}{0}
\setcounter{refsegment}{0}
\setcounter{maxextratitle}{0}
\setcounter{maxextratitleyear}{0}
\setcounter{maxextradate}{0}
\setcounter{maxextraalpha}{0}
\setcounter{abbrvpenalty}{50}
\setcounter{highnamepenalty}{50}
\setcounter{lownamepenalty}{25}
\setcounter{maxparens}{3}
\setcounter{parenlevel}{0}
\setcounter{mincomprange}{10}
\setcounter{maxcomprange}{100000}
\setcounter{mincompwidth}{1}
\setcounter{afterword}{0}
\setcounter{savedafterword}{0}
\setcounter{annotator}{0}
\setcounter{savedannotator}{0}
\setcounter{author}{0}
\setcounter{savedauthor}{0}
\setcounter{bookauthor}{0}
\setcounter{savedbookauthor}{0}
\setcounter{commentator}{0}
\setcounter{savedcommentator}{0}
\setcounter{editor}{0}
\setcounter{savededitor}{0}
\setcounter{editora}{0}
\setcounter{savededitora}{0}
\setcounter{editorb}{0}
\setcounter{savededitorb}{0}
\setcounter{editorc}{0}
\setcounter{savededitorc}{0}
\setcounter{foreword}{0}
\setcounter{savedforeword}{0}
\setcounter{holder}{0}
\setcounter{savedholder}{0}
\setcounter{introduction}{0}
\setcounter{savedintroduction}{0}
\setcounter{namea}{0}
\setcounter{savednamea}{0}
\setcounter{nameb}{0}
\setcounter{savednameb}{0}
\setcounter{namec}{0}
\setcounter{savednamec}{0}
\setcounter{translator}{0}
\setcounter{savedtranslator}{0}
\setcounter{shortauthor}{0}
\setcounter{savedshortauthor}{0}
\setcounter{shorteditor}{0}
\setcounter{savedshorteditor}{0}
\setcounter{labelname}{0}
\setcounter{savedlabelname}{0}
\setcounter{institution}{0}
\setcounter{savedinstitution}{0}
\setcounter{lista}{0}
\setcounter{savedlista}{0}
\setcounter{listb}{0}
\setcounter{savedlistb}{0}
\setcounter{listc}{0}
\setcounter{savedlistc}{0}
\setcounter{listd}{0}
\setcounter{savedlistd}{0}
\setcounter{liste}{0}
\setcounter{savedliste}{0}
\setcounter{listf}{0}
\setcounter{savedlistf}{0}
\setcounter{location}{0}
\setcounter{savedlocation}{0}
\setcounter{organization}{0}
\setcounter{savedorganization}{0}
\setcounter{origlocation}{0}
\setcounter{savedoriglocation}{0}
\setcounter{origpublisher}{0}
\setcounter{savedorigpublisher}{0}
\setcounter{publisher}{0}
\setcounter{savedpublisher}{0}
\setcounter{language}{0}
\setcounter{savedlanguage}{0}
\setcounter{origlanguage}{0}
\setcounter{savedoriglanguage}{0}
\setcounter{pageref}{0}
\setcounter{savedpageref}{0}
\setcounter{textcitecount}{0}
\setcounter{textcitetotal}{0}
\setcounter{textcitemaxnames}{0}
\setcounter{biburlnumpenalty}{0}
\setcounter{biburlucpenalty}{0}
\setcounter{biburllcpenalty}{0}
\setcounter{smartand}{1}
\setcounter{bbx:relatedcount}{0}
\setcounter{bbx:relatedtotal}{0}
\setcounter{section@level}{1}
}
