\relax 
\providecommand\hyper@newdestlabel[2]{}
\bibstyle{abbrvnat}
\providecommand\HyperFirstAtBeginDocument{\AtBeginDocument}
\HyperFirstAtBeginDocument{\ifx\hyper@anchor\@undefined
\global\let\oldcontentsline\contentsline
\gdef\contentsline#1#2#3#4{\oldcontentsline{#1}{#2}{#3}}
\global\let\oldnewlabel\newlabel
\gdef\newlabel#1#2{\newlabelxx{#1}#2}
\gdef\newlabelxx#1#2#3#4#5#6{\oldnewlabel{#1}{{#2}{#3}}}
\AtEndDocument{\ifx\hyper@anchor\@undefined
\let\contentsline\oldcontentsline
\let\newlabel\oldnewlabel
\fi}
\fi}
\global\let\hyper@last\relax 
\gdef\HyperFirstAtBeginDocument#1{#1}
\providecommand\HyField@AuxAddToFields[1]{}
\providecommand\HyField@AuxAddToCoFields[2]{}
\@writefile{toc}{\contentsline {section}{\numberline {1}Elements of Continuum mechanics and Mathematical theory for nonlinear and non-dissipative elliptic problems}{2}{section.1}}
\@writefile{toc}{\contentsline {subsection}{\numberline {1.1}Thermodynamics Principles}{2}{subsection.1.1}}
\newlabel{Thermo_Principles}{{1.1}{2}{Thermodynamics Principles}{subsection.1.1}{}}
\newlabel{Thermo_Principles@cref}{{[subsection][1][1]1.1}{[1][2][]2}}
\@writefile{toc}{\contentsline {subsubsection}{\numberline {1.1.1}The first law of thermodynamics}{2}{subsubsection.1.1.1}}
\newlabel{law1}{{1.1}{2}{The first law of thermodynamics}{equation.1.1}{}}
\newlabel{law1@cref}{{[equation][1][1]1.1}{[1][2][]2}}
\newlabel{energy}{{1.2}{3}{The first law of thermodynamics}{equation.1.2}{}}
\newlabel{energy@cref}{{[equation][2][1]1.2}{[1][2][]3}}
\newlabel{ext_forces}{{1.3}{3}{The first law of thermodynamics}{equation.1.3}{}}
\newlabel{ext_forces@cref}{{[equation][3][1]1.3}{[1][3][]3}}
\newlabel{ext_load}{{1.6}{3}{The first law of thermodynamics}{equation.1.6}{}}
\newlabel{ext_load@cref}{{[equation][6][1]1.6}{[1][3][]3}}
\newlabel{heat}{{1.7}{3}{The first law of thermodynamics}{equation.1.7}{}}
\newlabel{heat@cref}{{[equation][7][1]1.7}{[1][3][]3}}
\newlabel{first_law}{{1.9}{3}{The first law of thermodynamics}{equation.1.9}{}}
\newlabel{first_law@cref}{{[equation][9][1]1.9}{[1][3][]3}}
\@writefile{toc}{\contentsline {subsubsection}{\numberline {1.1.2}The second law of thermodynamics}{4}{subsubsection.1.1.2}}
\newlabel{thermo_inequality}{{1.15}{4}{The second law of thermodynamics}{equation.1.15}{}}
\newlabel{thermo_inequality@cref}{{[equation][15][1]1.15}{[1][4][]4}}
\newlabel{Helmoltz}{{1.16}{4}{The second law of thermodynamics}{equation.1.16}{}}
\newlabel{Helmoltz@cref}{{[equation][16][1]1.16}{[1][4][]4}}
\newlabel{Clausius_first}{{1.17}{4}{The second law of thermodynamics}{equation.1.17}{}}
\newlabel{Clausius_first@cref}{{[equation][17][1]1.17}{[1][4][]4}}
\newlabel{Clausius-Duhem}{{1.18}{5}{The second law of thermodynamics}{equation.1.18}{}}
\newlabel{Clausius-Duhem@cref}{{[equation][18][1]1.18}{[1][4][]5}}
\@writefile{toc}{\contentsline {subsection}{\numberline {1.2}Thermodynamics with internal variables}{5}{subsection.1.2}}
\newlabel{set_var}{{1.19}{5}{Thermodynamics with internal variables}{equation.1.19}{}}
\newlabel{set_var@cref}{{[equation][19][1]1.19}{[1][5][]5}}
\newlabel{material_psi}{{1.21}{5}{Thermodynamics with internal variables}{equation.1.21}{}}
\newlabel{material_psi@cref}{{[equation][21][1]1.21}{[1][5][]5}}
\newlabel{thermo_var1}{{1.24}{5}{Thermodynamics with internal variables}{equation.1.24}{}}
\newlabel{thermo_var1@cref}{{[equation][24][1]1.24}{[1][5][]5}}
\newlabel{const_eq}{{1.28}{6}{Thermodynamics with internal variables}{equation.1.28}{}}
\newlabel{const_eq@cref}{{[equation][28][1]1.28}{[1][6][]6}}
\@writefile{toc}{\contentsline {subsection}{\numberline {1.3}Theory of hyperelasticity}{6}{subsection.1.3}}
\@writefile{toc}{\contentsline {subsubsection}{\numberline {1.3.1}Overview}{6}{subsubsection.1.3.1}}
\newlabel{const_Piola}{{1.30}{6}{Overview}{equation.1.30}{}}
\newlabel{const_Piola@cref}{{[equation][30][1]1.30}{[1][6][]6}}
\newlabel{const_Kirchhoff}{{1.31}{7}{Overview}{equation.1.31}{}}
\newlabel{const_Kirchhoff@cref}{{[equation][31][1]1.31}{[1][7][]7}}
\newlabel{material}{{1.41}{8}{Overview}{equation.1.41}{}}
\newlabel{material@cref}{{[equation][41][1]1.41}{[1][8][]8}}
\newlabel{First_law}{{1.44}{8}{Overview}{equation.1.44}{}}
\newlabel{First_law@cref}{{[equation][44][1]1.44}{[1][8][]8}}
\@writefile{toc}{\contentsline {subsubsection}{\numberline {1.3.2}Logarithmic strains}{10}{subsubsection.1.3.2}}
\@writefile{toc}{\contentsline {subsection}{\numberline {1.4}Different types of functionals}{10}{subsection.1.4}}
\@writefile{toc}{\contentsline {subsubsection}{\numberline {1.4.1}Gibbs}{10}{subsubsection.1.4.1}}
\@writefile{toc}{\contentsline {subsubsection}{\numberline {1.4.2}Castigliano}{10}{subsubsection.1.4.2}}
\@writefile{toc}{\contentsline {subsubsection}{\numberline {1.4.3}Hashin-Strikman}{10}{subsubsection.1.4.3}}
\@writefile{toc}{\contentsline {subsubsection}{\numberline {1.4.4}Rayleigh's principle (dynamics)}{10}{subsubsection.1.4.4}}
\@writefile{toc}{\contentsline {subsubsection}{\numberline {1.4.5}Classical Lagrangian}{10}{subsubsection.1.4.5}}
\@writefile{toc}{\contentsline {subsubsection}{\numberline {1.4.6}Hellinger-Reissner}{10}{subsubsection.1.4.6}}
\@writefile{toc}{\contentsline {subsubsection}{\numberline {1.4.7}Modified Hellinger-Reissner}{10}{subsubsection.1.4.7}}
\@writefile{toc}{\contentsline {subsubsection}{\numberline {1.4.8}Hu-Washizu}{11}{subsubsection.1.4.8}}
\@writefile{toc}{\contentsline {subsection}{\numberline {1.5}Spaces}{11}{subsection.1.5}}
\@writefile{toc}{\contentsline {subsubsection}{\numberline {1.5.1}$L^2$}{11}{subsubsection.1.5.1}}
\@writefile{toc}{\contentsline {subsubsection}{\numberline {1.5.2}Sobolev space $H^1$}{11}{subsubsection.1.5.2}}
\@writefile{toc}{\contentsline {subsubsection}{\numberline {1.5.3}$H_\mathrm  {div}$}{11}{subsubsection.1.5.3}}
\@writefile{toc}{\contentsline {subsection}{\numberline {1.6}Approximation of infinite dimensional spaces on Finite Element}{11}{subsection.1.6}}
\@writefile{toc}{\contentsline {section}{\numberline {2}Results from functional analysis}{11}{section.2}}
\@writefile{thm}{\contentsline {theo}{{Theorem}{2.1}{}}{11}{theo.2.1}}
\@writefile{thm}{\contentsline {theo}{{Theorem}{2.2}{Closed Range theorem}}{11}{theo.2.2}}
\global\def\markiitheoi{\ensuremath {\square }}
\@writefile{toc}{\contentsline {section}{\numberline {3}The Mixed formulation for the Poisson problem}{12}{section.3}}
\@writefile{toc}{\contentsline {section}{\numberline {4}Small strain elasticity}{12}{section.4}}
\@writefile{toc}{\contentsline {subsection}{\numberline {4.1}Definitions from functional analysis}{12}{subsection.4.1}}
\@writefile{thm}{\contentsline {theo}{{Theorem}{4.1}{}}{12}{theo.4.1}}
\@writefile{thm}{\contentsline {theo}{{Theorem}{4.2}{Green's Identity in $\Hdiv $}}{12}{theo.4.2}}
\global\def\markivtheo{\ensuremath {\square }}
\@writefile{thm}{\contentsline {theo}{{Theorem}{4.3}{}}{12}{theo.4.3}}
\global\def\markvtheo{\ensuremath {\square }}
\@writefile{toc}{\contentsline {subsection}{\numberline {4.2}Classical form of the mixed problem}{13}{subsection.4.2}}
\@writefile{thm}{\contentsline {pro}{{Problem}{4.{1}}{Classical Mixed Formulation}}{13}{pro.4.1}}
\newlabel{Classical_mixed_problem}{{4.8}{13}{Classical form of the mixed problem}{equation.4.8}{}}
\newlabel{Classical_mixed_problem@cref}{{[equation][8][4]4.8}{[1][13][]13}}
\global\def\markipro{\ensuremath {\square }}
\@writefile{thm}{\contentsline {pro}{{Problem}{4.{2}}{}}{13}{pro.4.2}}
\newlabel{matrix_representation}{{4.11}{13}{Classical form of the mixed problem}{equation.4.11}{}}
\newlabel{matrix_representation@cref}{{[equation][11][4]4.11}{[1][13][]13}}
\@writefile{toc}{\contentsline {subsection}{\numberline {4.3}Stability results}{14}{subsection.4.3}}
\@writefile{thm}{\contentsline {dfn}{{Definition}{4.1}{Inf-sup condition}}{14}{dfn.4.1}}
\newlabel{LBB}{{4.1}{14}{Stability results}{equation.4.12}{}}
\newlabel{LBB@cref}{{[dfn][1][4]4.1}{[1][14][]14}}
\@writefile{thm}{\contentsline {lem}{{Lemma}{4.{1}}{}}{14}{lem.4.1}}
\global\def\markilemi{\ensuremath {\square }}
\@writefile{thm}{\contentsline {theo}{{Theorem}{4.4}{}}{14}{theo.4.4}}
\global\def\markvitheoi{\ensuremath {\square }}
\@writefile{thm}{\contentsline {theo}{{Theorem}{4.5}{}}{15}{theo.4.5}}
\@writefile{toc}{\contentsline {subsection}{\numberline {4.4}Possible applications}{15}{subsection.4.4}}
\@writefile{toc}{\contentsline {section}{\numberline {5}My element (Mixed finite element formulation)}{15}{section.5}}
\@writefile{toc}{\contentsline {subsection}{\numberline {5.1}From the modified Hellinger-Reissner principle to the discretized problem}{15}{subsection.5.1}}
\@writefile{toc}{\contentsline {subsection}{\numberline {5.2}Discretization}{15}{subsection.5.2}}
\@writefile{toc}{\contentsline {subsection}{\numberline {5.3}Description of the element}{15}{subsection.5.3}}
\@writefile{toc}{\contentsline {subsection}{\numberline {5.4}Algebra}{15}{subsection.5.4}}
\@writefile{toc}{\contentsline {subsubsection}{\numberline {5.4.1}Representation of rotations}{15}{subsubsection.5.4.1}}
\@writefile{toc}{\contentsline {subsubsection}{\numberline {5.4.2}Schur Complement}{15}{subsubsection.5.4.2}}
