0 0 0
20 0.269928 20
40 0.52155 40
60 0.747907 60
80 0.946183 80
100 1.11637 100
120 1.26014 120
140 1.38 140
160 1.47864 160
180 1.55885 180
200 1.6232 200
220 1.67355 220
240 1.71087 240
260 1.73554 260
280 1.7478 280
280 1.7478 280
