\relax 
\providecommand\hyper@newdestlabel[2]{}
\@writefile{toc}{\contentsline {chapter}{\numberline {1}Mixed Finite Formulation Theory}{1}{chapter.14}}
\@writefile{lof}{\addvspace {10\p@ }}
\@writefile{lot}{\addvspace {10\p@ }}
\newlabel{Chapter1}{{1}{1}{Mixed Finite Formulation Theory}{chapter.14}{}}
\newlabel{Chapter1@cref}{{[chapter][1][]1}{[1][1][]1}}
\@writefile{toc}{\contentsline {section}{\numberline {1.1}Elasticity in Large strains with classical formulation}{1}{section.15}}
\@writefile{toc}{\contentsline {subsection}{\numberline {1.1.1}Overview of the theory}{1}{subsection.16}}
\newlabel{const_Piola}{{1.2}{1}{Overview of the theory}{equation.18}{}}
\newlabel{const_Piola@cref}{{[equation][2][1]1.2}{[1][1][]1}}
\newlabel{const_Kirchhoff}{{1.3}{1}{Overview of the theory}{equation.19}{}}
\newlabel{const_Kirchhoff@cref}{{[equation][3][1]1.3}{[1][1][]1}}
\newlabel{material}{{1.13}{2}{Overview of the theory}{equation.29}{}}
\newlabel{material@cref}{{[equation][13][1]1.13}{[1][2][]2}}
\newlabel{First_law}{{1.16}{2}{Overview of the theory}{equation.32}{}}
\newlabel{First_law@cref}{{[equation][16][1]1.16}{[1][2][]2}}
\@writefile{toc}{\contentsline {subsection}{\numberline {1.1.2}Possible applications}{4}{subsection.45}}
\@writefile{toc}{\contentsline {section}{\numberline {1.2}Motivation for Mixed Formulation}{4}{section.46}}
\@writefile{toc}{\contentsline {section}{\numberline {1.3}Results from functional analysis}{4}{section.47}}
\@writefile{thm}{\contentsline {theo}{{Theorem}{1.{1}}{}}{4}{theo.48}}
\@writefile{thm}{\contentsline {theo}{{Theorem}{1.{2}}{Closed Range theorem}}{4}{theo.49}}
\global\def\markiitheoi{\ensuremath {\square }}
\@writefile{toc}{\contentsline {section}{\numberline {1.4}Small strain elasticity}{5}{section.50}}
\@writefile{toc}{\contentsline {subsection}{\numberline {1.4.1}Definitions from functional analysis}{5}{subsection.51}}
\@writefile{thm}{\contentsline {theo}{{Theorem}{1.{3}}{}}{5}{theo.54}}
\@writefile{thm}{\contentsline {theo}{{Theorem}{1.{4}}{Green's Identity in $\Hdiv $}}{5}{theo.56}}
\global\def\markivtheo{\ensuremath {\square }}
\@writefile{thm}{\contentsline {theo}{{Theorem}{1.{5}}{}}{5}{theo.58}}
\global\def\markvtheo{\ensuremath {\square }}
\@writefile{toc}{\contentsline {subsection}{\numberline {1.4.2}Classical form of the mixed problem}{5}{subsection.62}}
\@writefile{thm}{\contentsline {pro}{{Problem}{1.{1}}{Classical Mixed Formulation}}{6}{pro.63}}
\newlabel{Classical_mixed_problem}{{1.36}{6}{Classical form of the mixed problem}{equation.64}{}}
\newlabel{Classical_mixed_problem@cref}{{[equation][36][1]1.36}{[1][5][]6}}
\global\def\markipro{\ensuremath {\square }}
\@writefile{thm}{\contentsline {pro}{{Problem}{1.{2}}{}}{6}{pro.67}}
\newlabel{matrix_representation}{{1.39}{6}{Classical form of the mixed problem}{equation.68}{}}
\newlabel{matrix_representation@cref}{{[equation][39][1]1.39}{[1][6][]6}}
\@writefile{toc}{\contentsline {subsection}{\numberline {1.4.3}Stability results}{6}{subsection.69}}
\@writefile{thm}{\contentsline {dfn}{{Definition}{1.{1}}{Inf-sup condition}}{6}{dfn.70}}
\newlabel{LBB}{{1.{1}}{6}{Stability results}{equation.71}{}}
\newlabel{LBB@cref}{{[dfn][1][1]1.{1}}{[1][6][]6}}
\@writefile{thm}{\contentsline {lem}{{Lemma}{1.{1}}{}}{6}{lem.72}}
\global\def\markilemi{\ensuremath {\square }}
\@writefile{thm}{\contentsline {theo}{{Theorem}{1.{6}}{}}{7}{theo.77}}
\global\def\markvitheoi{\ensuremath {\square }}
\@writefile{thm}{\contentsline {theo}{{Theorem}{1.{7}}{}}{7}{theo.81}}
\@writefile{toc}{\contentsline {section}{\numberline {1.5}Discretisation}{7}{section.85}}
\@writefile{toc}{\contentsline {subsection}{\numberline {1.5.1}Galerkin scheme}{7}{subsection.86}}
\newlabel{discrete_mixed}{{1.43}{7}{Galerkin scheme}{equation.87}{}}
\newlabel{discrete_mixed@cref}{{[equation][43][1]1.43}{[1][7][]7}}
\@writefile{thm}{\contentsline {theo}{{Theorem}{1.{8}}{}}{7}{theo.88}}
\global\def\markviiitheoi{\ensuremath {\square }}
\@writefile{thm}{\contentsline {theo}{{Theorem}{1.{9}}{Cea's estimate}}{8}{theo.92}}
\global\def\markixtheo{\ensuremath {\square }}
\@writefile{thm}{\contentsline {theo}{{Theorem}{1.{10}}{Fortin's lemma}}{8}{theo.94}}
\@writefile{toc}{\contentsline {subsection}{\numberline {1.5.2}Spaces of polynomials}{8}{subsection.95}}
\@writefile{thm}{\contentsline {dfn}{{Definition}{1.{2}}{}}{8}{dfn.96}}
\global\def\markiidfn{\ensuremath {\square }}
\@writefile{thm}{\contentsline {dfn}{{Definition}{1.{3}}{Raviart-Thomas spaces}}{8}{dfn.99}}
\global\def\markiiidfn{\ensuremath {\square }}
\@writefile{toc}{\contentsline {subsection}{\numberline {1.5.3}Local and Global Interpolation Operators}{8}{subsection.100}}
\@writefile{thm}{\contentsline {theo}{{Theorem}{1.{11}}{}}{8}{theo.101}}
\global\def\markxitheo{\ensuremath {\square }}
\@writefile{thm}{\contentsline {lem}{{Lemma}{1.{2}}{}}{9}{lem.102}}
\global\def\markiilemi{\ensuremath {\square }}
\@writefile{thm}{\contentsline {dfn}{{Definition}{1.{4}}{Global Raviart-Thomas spaces}}{9}{dfn.105}}
\global\def\markivdfn{\ensuremath {\square }}
\@writefile{thm}{\contentsline {dfn}{{Definition}{1.{5}}{F-moments}}{9}{dfn.106}}
\@writefile{thm}{\contentsline {dfn}{{Definition}{1.{6}}{K-moments}}{9}{dfn.107}}
\@writefile{thm}{\contentsline {dfn}{{Definition}{1.{7}}{interpolating function}}{9}{dfn.108}}
\global\def\markviidfn{\ensuremath {\square }}
\@writefile{thm}{\contentsline {dfn}{{Definition}{1.{8}}{Global interpolation operator}}{9}{dfn.109}}
\global\def\markviiidfn{\ensuremath {\square }}
\@writefile{thm}{\contentsline {dfn}{{Definition}{1.{9}}{Local moments}}{9}{dfn.110}}
\@writefile{thm}{\contentsline {dfn}{{Definition}{1.{10}}{Local interpolation operator}}{9}{dfn.111}}
\global\def\markxdfn{\ensuremath {\square }}
\@writefile{thm}{\contentsline {dfn}{{Definition}{1.{11}}{Orthogonal Projector}}{10}{dfn.112}}
\@writefile{thm}{\contentsline {lem}{{Lemma}{1.{3}}{}}{10}{lem.113}}
\global\def\markiiilem{\ensuremath {\square }}
\@writefile{toc}{\contentsline {subsection}{\numberline {1.5.4}Global interpolation error and local estimates}{10}{subsection.117}}
\@writefile{thm}{\contentsline {lem}{{Lemma}{1.{4}}{}}{10}{lem.118}}
\global\def\markivlem{\ensuremath {\square }}
\@writefile{thm}{\contentsline {lem}{{Lemma}{1.{5}}{Local Interpolation Error}}{10}{lem.120}}
\global\def\markvlem{\ensuremath {\square }}
\@writefile{thm}{\contentsline {lem}{{Lemma}{1.{6}}{Local Interpolation Error}}{10}{lem.122}}
\global\def\markvilem{\ensuremath {\square }}
\@writefile{thm}{\contentsline {theo}{{Theorem}{1.{12}}{Global Interpolation Error}}{11}{theo.125}}
\@writefile{thm}{\contentsline {lem}{{Lemma}{1.{7}}{Local interpolation error for normal components}}{11}{lem.127}}
\global\def\markviilem{\ensuremath {\square }}
\@writefile{thm}{\contentsline {lem}{{Lemma}{1.{8}}{Local Interpolation Error with Fractional Order}}{11}{lem.129}}
\global\def\markviiilem{\ensuremath {\square }}
\@writefile{toc}{\contentsline {section}{\numberline {1.6}Application to Small Strains Elasticity}{11}{section.131}}
\@writefile{toc}{\contentsline {subsection}{\numberline {1.6.1}Strong form}{11}{subsection.132}}
\newlabel{Strong_form_elasticity_small}{{1.58}{11}{Strong form}{equation.133}{}}
\newlabel{Strong_form_elasticity_small@cref}{{[equation][58][1]1.58}{[1][11][]11}}
\newlabel{Alternative_strong_small}{{1.59}{11}{Strong form}{equation.134}{}}
\newlabel{Alternative_strong_small@cref}{{[equation][59][1]1.59}{[1][11][]11}}
\newlabel{eqn:weakformulation}{{1.60}{11}{Strong form}{equation.135}{}}
\newlabel{eqn:weakformulation@cref}{{[equation][60][1]1.60}{[1][11][]11}}
\newlabel{discretized_weak}{{1.61}{12}{Strong form}{equation.136}{}}
\newlabel{discretized_weak@cref}{{[equation][61][1]1.61}{[1][11][]12}}
\newlabel{eqn:weakformulation}{{1.62}{12}{Strong form}{equation.137}{}}
\newlabel{eqn:weakformulation@cref}{{[equation][62][1]1.62}{[1][12][]12}}
\newlabel{local_spaces}{{1.63}{12}{Strong form}{equation.138}{}}
\newlabel{local_spaces@cref}{{[equation][63][1]1.63}{[1][12][]12}}
\@writefile{toc}{\contentsline {subsection}{\numberline {1.6.2}Mixed Formulation}{12}{subsection.139}}
\@writefile{toc}{\contentsline {section}{\numberline {1.7}Discretisation and link with deRham cohomology}{12}{section.140}}
\@writefile{toc}{\contentsline {section}{\numberline {1.8}Results obtained with MoFEM}{12}{section.141}}
\@setckpt{Chapters/Chapter1}{
\setcounter{page}{13}
\setcounter{equation}{63}
\setcounter{enumi}{2}
\setcounter{enumii}{0}
\setcounter{enumiii}{0}
\setcounter{enumiv}{0}
\setcounter{footnote}{0}
\setcounter{mpfootnote}{0}
\setcounter{part}{0}
\setcounter{chapter}{1}
\setcounter{section}{8}
\setcounter{subsection}{0}
\setcounter{subsubsection}{0}
\setcounter{paragraph}{0}
\setcounter{subparagraph}{0}
\setcounter{figure}{0}
\setcounter{table}{0}
\setcounter{LT@tables}{3}
\setcounter{LT@chunks}{1}
\setcounter{ContinuedFloat}{0}
\setcounter{Item}{12}
\setcounter{Hfootnote}{0}
\setcounter{bookmark@seq@number}{23}
\setcounter{endNonectr}{35}
\setcounter{currNonectr}{0}
\setcounter{proof}{0}
\setcounter{currproofctr}{0}
\setcounter{endproofctr}{0}
\setcounter{parentequation}{0}
\setcounter{subfigure}{0}
\setcounter{subtable}{0}
\setcounter{currtheoctr}{12}
\setcounter{endtheoctr}{0}
\setcounter{theo}{12}
\setcounter{currdfnctr}{11}
\setcounter{enddfnctr}{0}
\setcounter{dfn}{11}
\setcounter{currcoroctr}{0}
\setcounter{endcoroctr}{0}
\setcounter{coro}{0}
\setcounter{currprimctr}{0}
\setcounter{endprimctr}{0}
\setcounter{prim}{0}
\setcounter{currproctr}{2}
\setcounter{endproctr}{0}
\setcounter{pro}{2}
\setcounter{currlemctr}{8}
\setcounter{endlemctr}{0}
\setcounter{lem}{8}
\setcounter{tabx@nest}{0}
\setcounter{listtotal}{0}
\setcounter{listcount}{0}
\setcounter{liststart}{0}
\setcounter{liststop}{0}
\setcounter{citecount}{0}
\setcounter{citetotal}{0}
\setcounter{multicitecount}{0}
\setcounter{multicitetotal}{0}
\setcounter{instcount}{4}
\setcounter{maxnames}{1}
\setcounter{minnames}{1}
\setcounter{maxitems}{3}
\setcounter{minitems}{1}
\setcounter{citecounter}{0}
\setcounter{savedcitecounter}{0}
\setcounter{uniquelist}{0}
\setcounter{uniquename}{0}
\setcounter{refsection}{0}
\setcounter{refsegment}{0}
\setcounter{maxextratitle}{0}
\setcounter{maxextratitleyear}{0}
\setcounter{maxextradate}{0}
\setcounter{maxextraalpha}{0}
\setcounter{abbrvpenalty}{50}
\setcounter{highnamepenalty}{50}
\setcounter{lownamepenalty}{25}
\setcounter{maxparens}{3}
\setcounter{parenlevel}{0}
\setcounter{mincomprange}{10}
\setcounter{maxcomprange}{100000}
\setcounter{mincompwidth}{1}
\setcounter{afterword}{0}
\setcounter{savedafterword}{0}
\setcounter{annotator}{0}
\setcounter{savedannotator}{0}
\setcounter{author}{0}
\setcounter{savedauthor}{0}
\setcounter{bookauthor}{0}
\setcounter{savedbookauthor}{0}
\setcounter{commentator}{0}
\setcounter{savedcommentator}{0}
\setcounter{editor}{0}
\setcounter{savededitor}{0}
\setcounter{editora}{0}
\setcounter{savededitora}{0}
\setcounter{editorb}{0}
\setcounter{savededitorb}{0}
\setcounter{editorc}{0}
\setcounter{savededitorc}{0}
\setcounter{foreword}{0}
\setcounter{savedforeword}{0}
\setcounter{holder}{0}
\setcounter{savedholder}{0}
\setcounter{introduction}{0}
\setcounter{savedintroduction}{0}
\setcounter{namea}{0}
\setcounter{savednamea}{0}
\setcounter{nameb}{0}
\setcounter{savednameb}{0}
\setcounter{namec}{0}
\setcounter{savednamec}{0}
\setcounter{translator}{0}
\setcounter{savedtranslator}{0}
\setcounter{shortauthor}{0}
\setcounter{savedshortauthor}{0}
\setcounter{shorteditor}{0}
\setcounter{savedshorteditor}{0}
\setcounter{labelname}{0}
\setcounter{savedlabelname}{0}
\setcounter{institution}{0}
\setcounter{savedinstitution}{0}
\setcounter{lista}{0}
\setcounter{savedlista}{0}
\setcounter{listb}{0}
\setcounter{savedlistb}{0}
\setcounter{listc}{0}
\setcounter{savedlistc}{0}
\setcounter{listd}{0}
\setcounter{savedlistd}{0}
\setcounter{liste}{0}
\setcounter{savedliste}{0}
\setcounter{listf}{0}
\setcounter{savedlistf}{0}
\setcounter{location}{0}
\setcounter{savedlocation}{0}
\setcounter{organization}{0}
\setcounter{savedorganization}{0}
\setcounter{origlocation}{0}
\setcounter{savedoriglocation}{0}
\setcounter{origpublisher}{0}
\setcounter{savedorigpublisher}{0}
\setcounter{publisher}{0}
\setcounter{savedpublisher}{0}
\setcounter{language}{0}
\setcounter{savedlanguage}{0}
\setcounter{origlanguage}{0}
\setcounter{savedoriglanguage}{0}
\setcounter{pageref}{0}
\setcounter{savedpageref}{0}
\setcounter{textcitecount}{0}
\setcounter{textcitetotal}{0}
\setcounter{textcitemaxnames}{0}
\setcounter{biburlnumpenalty}{0}
\setcounter{biburlucpenalty}{0}
\setcounter{biburllcpenalty}{0}
\setcounter{smartand}{1}
\setcounter{bbx:relatedcount}{0}
\setcounter{bbx:relatedtotal}{0}
\setcounter{section@level}{1}
}
