\relax 
\providecommand\hyper@newdestlabel[2]{}
\providecommand\HyperFirstAtBeginDocument{\AtBeginDocument}
\HyperFirstAtBeginDocument{\ifx\hyper@anchor\@undefined
\global\let\oldcontentsline\contentsline
\gdef\contentsline#1#2#3#4{\oldcontentsline{#1}{#2}{#3}}
\global\let\oldnewlabel\newlabel
\gdef\newlabel#1#2{\newlabelxx{#1}#2}
\gdef\newlabelxx#1#2#3#4#5#6{\oldnewlabel{#1}{{#2}{#3}}}
\AtEndDocument{\ifx\hyper@anchor\@undefined
\let\contentsline\oldcontentsline
\let\newlabel\oldnewlabel
\fi}
\fi}
\global\let\hyper@last\relax 
\gdef\HyperFirstAtBeginDocument#1{#1}
\providecommand\HyField@AuxAddToFields[1]{}
\providecommand\HyField@AuxAddToCoFields[2]{}
\bibstyle{biblatex}
\bibdata{Mixed_Finite_Element_Method-blx,Citation_Mixed}
\citation{biblatex-control}
\abx@aux@refcontext{nyt/global//global/global}
\@writefile{toc}{\boolfalse {citerequest}\boolfalse {citetracker}\boolfalse {pagetracker}\boolfalse {backtracker}\relax }
\@writefile{lof}{\boolfalse {citerequest}\boolfalse {citetracker}\boolfalse {pagetracker}\boolfalse {backtracker}\relax }
\@writefile{lot}{\boolfalse {citerequest}\boolfalse {citetracker}\boolfalse {pagetracker}\boolfalse {backtracker}\relax }
\babel@aux{english}{}
\@writefile{toc}{\contentsline {chapter}{Declaration of Authorship}{iii}{section*.1}}
\@writefile{toc}{\contentsline {chapter}{Abstract}{vii}{section*.2}}
\@writefile{toc}{\contentsline {chapter}{Acknowledgements}{ix}{section*.3}}
\gdef \LT@i {\LT@entry 
    {1}{39.7285pt}\LT@entry 
    {1}{129.90208pt}}
\gdef \LT@ii {\LT@entry 
    {1}{81.41339pt}\LT@entry 
    {1}{30.08867pt}\LT@entry 
    {1}{156.7001pt}}
\gdef \LT@iii {\LT@entry 
    {1}{20.5509pt}\LT@entry 
    {1}{96.99112pt}\LT@entry 
    {1}{58.63933pt}}
\@input{Chapters/Chapter1.aux}
\@input{Chapters/Chapter2/Chapter2.aux}
\citation{Guzman2010}
\abx@aux@cite{Guzman2010}
\abx@aux@segm{0}{0}{Guzman2010}
\abx@aux@page{1}{9}
\@input{Chapters/Chapter3/Chapter3.aux}
\citation{Cockburn2010}
\abx@aux@cite{Cockburn2010}
\abx@aux@segm{0}{0}{Cockburn2010}
\citation{Douglas2007}
\abx@aux@cite{Douglas2007}
\abx@aux@segm{0}{0}{Douglas2007}
\citation{bubbleMat}
\abx@aux@cite{bubbleMat}
\abx@aux@segm{0}{0}{bubbleMat}
\abx@aux@page{2}{17}
\abx@aux@page{3}{17}
\abx@aux@page{4}{17}
\@input{Chapters/Chapter4/Chapter4.aux}
\@input{Appendices/AppendixA.aux}
\citation{DeSouzaMathematical}
\abx@aux@cite{DeSouzaMathematical}
\abx@aux@segm{0}{0}{DeSouzaMathematical}
\citation{DeSouzaNumerics}
\abx@aux@cite{DeSouzaNumerics}
\abx@aux@segm{0}{0}{DeSouzaNumerics}
\citation{Simo1998Theory}
\abx@aux@cite{Simo1998Theory}
\abx@aux@segm{0}{0}{Simo1998Theory}
\citation{Simo1998Numerics1}
\abx@aux@cite{Simo1998Numerics1}
\abx@aux@segm{0}{0}{Simo1998Numerics1}
\abx@aux@refcontextdefaultsdone
\abx@aux@defaultrefcontext{0}{Douglas2007}{nyt/global//global/global}
\abx@aux@defaultrefcontext{0}{Cockburn2010}{nyt/global//global/global}
\abx@aux@defaultrefcontext{0}{bubbleMat}{nyt/global//global/global}
\abx@aux@defaultrefcontext{0}{Guzman2010}{nyt/global//global/global}
\@writefile{toc}{\contentsline {chapter}{References}{33}{appendix*.223}}
\abx@aux@page{5}{33}
\abx@aux@page{6}{33}
\abx@aux@page{7}{33}
\abx@aux@page{8}{33}
