\relax 
\bibstyle{abbrvnat}
\catcode `:\active 
\catcode `;\active 
\catcode `!\active 
\catcode `?\active 
\babel@aux{english}{}
\babel@aux{english}{}
\@writefile{toc}{\contentsline {section}{\numberline {1}Motivations}{2}}
\@writefile{toc}{\contentsline {section}{\numberline {2}Elasticity in Large strains with classical formulation}{3}}
\@writefile{toc}{\contentsline {subsection}{\numberline {2.1}Overview of the theory}{3}}
\newlabel{const_Piola}{{2.2}{3}}
\newlabel{const_Kirchhoff}{{2.3}{3}}
\newlabel{material}{{2.13}{5}}
\newlabel{First_law}{{2.16}{5}}
\citation{Nedelec1980}
\citation{Stenberg1988}
\citation{Morley1989}
\citation{Sussman1987}
\citation{Bathe1996}
\citation{Falk1980}
\citation{Douglas1985}
\citation{Lovadina2006}
\citation{}
\@writefile{toc}{\contentsline {subsection}{\numberline {2.2}Possible applications}{7}}
\@writefile{toc}{\contentsline {section}{\numberline {3}Elasticity in Large strains with mixed formulation }{7}}
\@writefile{toc}{\contentsline {subsection}{\numberline {3.1}Theory of mixed elements applied for elasticity problems (small strains)}{7}}
\newlabel{strong_form_small_strain}{{3.1}{7}}
\newlabel{original_functional}{{3.2}{8}}
\newlabel{Original_weak}{{3.3}{8}}
\newlabel{modified_functional}{{3.4}{8}}
\newlabel{modified_weak}{{3.5}{9}}
\@writefile{toc}{\contentsline {subsection}{\numberline {3.2}Extension to large strains}{9}}
\newlabel{Large_strains}{{3.2}{9}}
\@writefile{toc}{\contentsline {subsection}{\numberline {3.3}Body}{10}}
\@writefile{toc}{\contentsline {subsection}{\numberline {3.4}Kinematics}{11}}
\@writefile{lof}{\contentsline {figure}{\numberline {3.1}{\ignorespaces The three configurations for Eshelbian mechanics framework\relax }}{11}}
\providecommand*\caption@xref[2]{\@setref\relax\@undefined{#1}}
\newlabel{three_bodies}{{3.1}{11}}
\newlabel{eq:grad_def_direvative}{{3.16}{12}}
\@writefile{toc}{\contentsline {subsection}{\numberline {3.5}Equilibrium}{12}}
\newlabel{eq:rate_psi}{{3.19}{13}}
\@writefile{toc}{\contentsline {subsubsection}{\numberline {3.5.1}Equations in weak form: Spatial problem}{13}}
\@writefile{toc}{\contentsline {paragraph}{Kinematics}{13}}
\@writefile{toc}{\contentsline {paragraph}{Consistency equation}{14}}
\@writefile{toc}{\contentsline {paragraph}{Physical equation}{15}}
\@writefile{toc}{\contentsline {paragraph}{Angular momentum equation}{15}}
\@writefile{toc}{\contentsline {paragraph}{Linear momentum equation}{16}}
\@writefile{toc}{\contentsline {paragraph}{Element equations}{16}}
\@writefile{toc}{\contentsline {paragraph}{Spaces}{16}}
\@writefile{toc}{\contentsline {subsubsection}{\numberline {3.5.2}Equations in strong form}{16}}
\@writefile{toc}{\contentsline {paragraph}{Approximation of logarithmic stretch}{17}}
\@writefile{toc}{\contentsline {subsection}{\numberline {3.6}Practical Construction of local polynomial base for H-div space}{17}}
\citation{Wriggers}
\citation{Gil}
\citation{Wriggers}
\citation{Gil}
\@writefile{toc}{\contentsline {subsection}{\numberline {3.7}Comparison with results in classical formulation}{18}}
\@writefile{toc}{\contentsline {subsubsection}{\numberline {3.7.1}Cook problem}{18}}
\@writefile{lof}{\contentsline {figure}{\numberline {3.2}{\ignorespaces Cook beam problem. The different fields are evaluated at C \relax }}{18}}
\newlabel{Cook_beam}{{3.2}{18}}
\@writefile{lof}{\contentsline {figure}{\numberline {3.3}{\ignorespaces Contour plot for $\sigma _{xx}$ (34320 tetrahedra) \relax }}{18}}
\newlabel{Cook_stress}{{3.3}{18}}
\@writefile{lof}{\contentsline {figure}{\numberline {3.4}{\ignorespaces Influence of the viscosity parameter for a fixed mesh. The displacement is in the x-direction and measured at point C. \relax }}{19}}
\newlabel{viscosity_parameter}{{3.4}{19}}
\@writefile{lof}{\contentsline {figure}{\numberline {3.5}{\ignorespaces Influence of the density of the mesh on the stability for a fixed viscosity. \relax }}{20}}
\newlabel{Cook_meshsize}{{3.5}{20}}
\@writefile{toc}{\contentsline {subsubsection}{\numberline {3.7.2}Column Bending}{20}}
\newlabel{Column_Bending_a}{{3.6a}{21}}
\newlabel{sub@Column_Bending_a}{{a}{21}}
\newlabel{Column_bending_b}{{3.6b}{21}}
\newlabel{sub@Column_bending_b}{{b}{21}}
\@writefile{lof}{\contentsline {figure}{\numberline {3.6}{\ignorespaces Singularity in the contour plot for the displacement component $\sigma _{xx}$ in beam bending example. \relax }}{21}}
\@writefile{toc}{\contentsline {subsubsection}{\numberline {3.7.3}Torsion of a beam with a square cross section}{21}}
\newlabel{Column_Torsion_a}{{3.7a}{21}}
\newlabel{sub@Column_Torsion_a}{{a}{21}}
\newlabel{Column_Torsion_b}{{3.7b}{21}}
\newlabel{sub@Column_Torsion_b}{{b}{21}}
\@writefile{lof}{\contentsline {figure}{\numberline {3.7}{\ignorespaces Torsion problem\relax }}{21}}
\@writefile{lof}{\contentsline {figure}{\numberline {3.8}{\ignorespaces Influence of the density of the mesh on the stability for a fixed viscosity for the torasion problem. \relax }}{22}}
\newlabel{Torsion_meshsize}{{3.8}{22}}
\@writefile{toc}{\contentsline {subsection}{\numberline {3.8}Extension to plastic problems}{22}}
\@writefile{toc}{\contentsline {subsubsection}{\numberline {3.8.1}Equilibrium}{22}}
\newlabel{eq:rate_psi_e}{{3.47}{23}}
\newlabel{eq:rate_psi_p}{{3.48}{23}}
\@writefile{toc}{\contentsline {subsubsection}{\numberline {3.8.2}Constraints}{24}}
\newlabel{eq:max_disp_stationary_point}{{3.55}{24}}
\@writefile{toc}{\contentsline {subsubsection}{\numberline {3.8.3}Dissipation}{25}}
\@writefile{toc}{\contentsline {subsubsection}{\numberline {3.8.4}Equations in strong form}{26}}
\@writefile{toc}{\contentsline {section}{\numberline {4}Conclusion and Future Work}{26}}
\@writefile{toc}{\contentsline {subsection}{\numberline {4.1}Conclusion}{26}}
\@writefile{toc}{\contentsline {subsection}{\numberline {4.2}Future work}{27}}
\bibstyle{plain}
\bibdata{report}
\bibcite{Bathe1996}{{1}{1996}{{Bathe}}{{}}}
\bibcite{Douglas1985}{{2}{1985}{{Douglas and Roberts}}{{}}}
\bibcite{Falk1980}{{3}{1980}{{Falk and Osborn}}{{}}}
\bibcite{Gil}{{4}{2015}{{Gil et~al.}}{{Gil, Bonet, and Ortigosa}}}
\bibcite{Lovadina2006}{{5}{2006}{{Lovadina and Stenberg}}{{}}}
\@writefile{toc}{\contentsline {section}{\numberline {A}Schur complement}{28}}
\newlabel{Schur}{{A.1}{28}}
\newlabel{matrix_Schur}{{A.2}{28}}
\newlabel{Schur_X}{{A.3}{28}}
\bibcite{Morley1989}{{6}{1989}{{Morley}}{{}}}
\bibcite{Nedelec1980}{{7}{1980}{{Nedelec}}{{}}}
\bibcite{Stenberg1988}{{8}{1988}{{Stenberg}}{{}}}
\bibcite{Sussman1987}{{9}{1987}{{Sussman and Bathe}}{{}}}
\bibcite{Wriggers}{{10}{2011}{{Wriggers et~al.}}{{Wriggers, Schroder, and Balzani}}}
