\relax 
\providecommand\hyper@newdestlabel[2]{}
\bibstyle{abbrvnat}
\catcode `:\active 
\catcode `;\active 
\catcode `!\active 
\catcode `?\active 
\providecommand\HyperFirstAtBeginDocument{\AtBeginDocument}
\HyperFirstAtBeginDocument{\ifx\hyper@anchor\@undefined
\global\let\oldcontentsline\contentsline
\gdef\contentsline#1#2#3#4{\oldcontentsline{#1}{#2}{#3}}
\global\let\oldnewlabel\newlabel
\gdef\newlabel#1#2{\newlabelxx{#1}#2}
\gdef\newlabelxx#1#2#3#4#5#6{\oldnewlabel{#1}{{#2}{#3}}}
\AtEndDocument{\ifx\hyper@anchor\@undefined
\let\contentsline\oldcontentsline
\let\newlabel\oldnewlabel
\fi}
\fi}
\global\let\hyper@last\relax 
\gdef\HyperFirstAtBeginDocument#1{#1}
\providecommand\HyField@AuxAddToFields[1]{}
\providecommand\HyField@AuxAddToCoFields[2]{}
\providecommand \oddpage@label [2]{}
\babel@aux{english}{}
\babel@aux{english}{}
\gdef \LT@i {\LT@entry 
    {3}{81.80356pt}\LT@entry 
    {1}{12.0pt}\LT@entry 
    {3}{397.70464pt}}
\citation{Courant}
\citation{Argyris}
\citation{Turner}
\citation{Clough1}
\citation{Clough2}
\citation{Clough3}
\citation{zienkiewicz1965}
\citation{zienkiewicz1967finite}
\citation{zienkiewicz2000finite}
\citation{hughes1977}
\citation{Fraejis}
\citation{amara1979}
\citation{brezzi1984}
\citation{farhloul}
\citation{stenberglow}
\citation{Morley1989}
\citation{Stenberg1988}
\citation{mofemJoss2020}
\@writefile{toc}{\contentsline {chapter}{\numberline {1}Introduction}{8}{chapter.1}}
\@writefile{lof}{\addvspace {10\p@ }}
\@writefile{lot}{\addvspace {10\p@ }}
\@writefile{loa}{\addvspace {10\p@ }}
\citation{Allaire}
\citation{ErnSobolev}
\citation{TheoTop}
\citation{MunkresTop}
\citation{LeeTop}
\citation{NakaTop}
\citation{Rudin}
\citation{kantorovich}
\@writefile{toc}{\contentsline {chapter}{\numberline {2}Functional spaces}{10}{chapter.2}}
\@writefile{lof}{\addvspace {10\p@ }}
\@writefile{lot}{\addvspace {10\p@ }}
\@writefile{loa}{\addvspace {10\p@ }}
\@writefile{toc}{\contentsline {section}{\numberline {2.1}The $L^p(\Omega )$ spaces}{10}{section.2.1}}
\citation{Allaire}
\citation{ErnSobolev}
\@writefile{toc}{\contentsline {section}{\numberline {2.2}The Sobolev spaces $W^{m,p}(\Omega )$}{11}{section.2.2}}
\newlabel{Sobo_prop}{{2.2}{11}{The Sobolev spaces $W^{m,p}(\Omega )$}{section.2.2}{}}
\newlabel{norm_Sobolev}{{2.2.2}{11}{The Sobolev spaces $W^{m,p}(\Omega )$}{equation.2.2.2}{}}
\@writefile{toc}{\contentsline {section}{\numberline {2.3}The trace operator in Sobolev spaces}{11}{section.2.3}}
\newlabel{density_result}{{2.3.1}{11}{The trace operator in Sobolev spaces}{equation.2.3.1}{}}
\citation{mclean}
\citation{Brezisbook}
\citation{gagliardo}
\citation{Hitch}
\citation{Stein}
\citation{MeySer}
\citation{AdFour}
\citation{Evans}
\newlabel{frac_Sobolev}{{2.3.1}{13}{}{equation.2.3.8}{}}
\newlabel{density_test}{{2.3.10}{13}{The trace operator in Sobolev spaces}{equation.2.3.10}{}}
\@writefile{toc}{\contentsline {section}{\numberline {2.4}Porperties of Sobolev spaces}{13}{section.2.4}}
\citation{Stampa}
\citation{ErnG}
\citation{Brezisbook}
\newlabel{Stampa}{{2.4.2}{14}{Stampacchia}{theo.2.4.2}{}}
\@writefile{toc}{\contentsline {section}{\numberline {2.5}Sobolev spaces of negative order}{14}{section.2.5}}
\newlabel{neg_Sobo}{{2.5.1}{14}{Sobolev spaces of negative order}{equation.2.5.1}{}}
\citation{STOLZE}
\citation{markvorsen}
\citation{Tartar}
\citation{ErnLip}
\citation{Whitney}
\@writefile{toc}{\contentsline {section}{\numberline {2.6}The $\mathbf  {H}^{\mathrm  {div}}$ space and normal traces}{15}{section.2.6}}
\newlabel{Int_by_p}{{2.6.2}{15}{The $\Hdiv $ space and normal traces}{equation.2.6.2}{}}
\newlabel{def_tr_d}{{2.6.4}{15}{The $\Hdiv $ space and normal traces}{equation.2.6.4}{}}
\newlabel{div_tr}{{{{(i)}}}{15}{The $\Hdiv $ space and normal traces}{Item.1}{}}
\newlabel{surj}{{{{(ii)}}}{16}{The $\Hdiv $ space and normal traces}{Item.2}{}}
\newlabel{ker_tr}{{{{(iii)}}}{16}{The $\Hdiv $ space and normal traces}{Item.3}{}}
\@writefile{toc}{\contentsline {section}{\numberline {2.7}Conclusion}{16}{section.2.7}}
\citation{ThermoIntro}
\citation{SecondLaw}
\@writefile{toc}{\contentsline {chapter}{\numberline {3}Thermodynamics \& Continuum mechanics}{17}{chapter.3}}
\@writefile{lof}{\addvspace {10\p@ }}
\@writefile{lot}{\addvspace {10\p@ }}
\@writefile{loa}{\addvspace {10\p@ }}
\@writefile{toc}{\contentsline {section}{\numberline {3.1}Kinematics}{17}{section.3.1}}
\newlabel{Thermo_Principles}{{3.1}{17}{Kinematics}{section.3.1}{}}
\@writefile{toc}{\contentsline {subsection}{\numberline {3.1.1}Configurations}{17}{subsection.3.1.1}}
\newlabel{Configurations}{{3.1.1}{17}{Configurations}{subsection.3.1.1}{}}
\citation{holzap}
\citation{MATOLCSI}
\@writefile{lof}{\contentsline {figure}{\numberline {3.1.1}{\ignorespaces Large deformations: initial and current configurations.\relax }}{18}{figure.caption.3}}
\providecommand*\caption@xref[2]{\@setref\relax\@undefined{#1}}
\newlabel{two_bodies_1}{{3.1.1}{18}{Large deformations: initial and current configurations.\relax }{figure.caption.3}{}}
\newlabel{mat_grad}{{3.1.1}{18}{Configurations}{equation.3.1.1}{}}
\newlabel{div_def}{{3.1.4}{18}{Configurations}{equation.3.1.4}{}}
\citation{fortney}
\citation{Katz}
\@writefile{toc}{\contentsline {subsection}{\numberline {3.1.2}Volume in the deformed configuration}{19}{subsection.3.1.2}}
\newlabel{Deformed_volume}{{3.1.2}{19}{Volume in the deformed configuration}{subsection.3.1.2}{}}
\@writefile{toc}{\contentsline {subsection}{\numberline {3.1.3}Area in the deformed configuration}{19}{subsection.3.1.3}}
\citation{martinec2019}
\newlabel{Piola_transform}{{3.1.13}{20}{Area in the deformed configuration}{equation.3.1.13}{}}
\newlabel{Transform_piola}{{3.1.14}{20}{Area in the deformed configuration}{equation.3.1.14}{}}
\@writefile{toc}{\contentsline {subsection}{\numberline {3.1.4}Length in the deformed configuration}{20}{subsection.3.1.4}}
\@writefile{toc}{\contentsline {subsection}{\numberline {3.1.5}The polar decomposition}{21}{subsection.3.1.5}}
\citation{ChoIm}
\citation{atluri1995}
\@writefile{toc}{\contentsline {subsection}{\numberline {3.1.6}The exponential map}{22}{subsection.3.1.6}}
\newlabel{exp_def}{{3.1.25}{22}{The exponential map}{equation.3.1.25}{}}
\@writefile{toc}{\contentsline {subsection}{\numberline {3.1.7}Rotation and exponential map}{23}{subsection.3.1.7}}
\@writefile{lof}{\contentsline {figure}{\numberline {3.1.2}{\ignorespaces Spatial representation of rotation in 3D\relax }}{23}{figure.caption.4}}
\newlabel{rot_felipe}{{3.1.2}{23}{Spatial representation of rotation in 3D\relax }{figure.caption.4}{}}
\citation{Felippa}
\citation{HistRodrigues}
\citation{DeSouzaFunctions}
\citation{DeSouzaFunctions}
\@writefile{toc}{\contentsline {subsection}{\numberline {3.1.8}Exponential of a symmetric tensor}{25}{subsection.3.1.8}}
\@writefile{toc}{\contentsline {section}{\numberline {3.2}The Cauchy stress and the Piola-Kirchhoff stress tensors}{25}{section.3.2}}
\@writefile{toc}{\contentsline {subsection}{\numberline {3.2.1}The stress principle}{25}{subsection.3.2.1}}
\newlabel{axioms}{{3.2.1}{26}{The stress principle}{equation.3.2.1}{}}
\newlabel{equations_current}{{3.2.2}{26}{The stress principle}{equation.3.2.2}{}}
\@writefile{toc}{\contentsline {subsection}{\numberline {3.2.2}The Piola-Kirchhoff stress tensor}{26}{subsection.3.2.2}}
\newlabel{Piola_def}{{3.2.4}{26}{The Piola-Kirchhoff stress tensor}{equation.3.2.4}{}}
\@writefile{toc}{\contentsline {section}{\numberline {3.3}The first law of thermodynamics}{27}{section.3.3}}
\newlabel{law1}{{3.3.1}{27}{The first law of thermodynamics}{equation.3.3.1}{}}
\newlabel{energy}{{3.3.2}{27}{The first law of thermodynamics}{equation.3.3.2}{}}
\newlabel{ext_forces}{{3.3.3}{27}{The first law of thermodynamics}{equation.3.3.3}{}}
\newlabel{ext_load}{{3.3.6}{28}{The first law of thermodynamics}{equation.3.3.6}{}}
\newlabel{heat}{{3.3.7}{28}{The first law of thermodynamics}{equation.3.3.7}{}}
\newlabel{first_law}{{3.3.9}{28}{The first law of thermodynamics}{equation.3.3.9}{}}
\@writefile{toc}{\contentsline {section}{\numberline {3.4}The second law of thermodynamics}{28}{section.3.4}}
\newlabel{thermo_inequality}{{3.4.5}{29}{The second law of thermodynamics}{equation.3.4.5}{}}
\newlabel{Helmoltz}{{3.4.6}{29}{The second law of thermodynamics}{equation.3.4.6}{}}
\newlabel{Clausius_first}{{3.4.7}{29}{The second law of thermodynamics}{equation.3.4.7}{}}
\newlabel{Clausius-Duhem}{{3.4.8}{29}{The second law of thermodynamics}{equation.3.4.8}{}}
\@writefile{toc}{\contentsline {section}{\numberline {3.5}Conclusion}{29}{section.3.5}}
\@writefile{toc}{\contentsline {chapter}{\numberline {4}Elasticity in Large strains with classical formulation}{30}{chapter.4}}
\@writefile{lof}{\addvspace {10\p@ }}
\@writefile{lot}{\addvspace {10\p@ }}
\@writefile{loa}{\addvspace {10\p@ }}
\newlabel{Elasticity_in_Large_strains}{{4}{30}{Elasticity in Large strains with classical formulation}{chapter.4}{}}
\@writefile{toc}{\contentsline {section}{\numberline {4.1}Constitutive equations and polyconvexity}{30}{section.4.1}}
\newlabel{Equilibrium1}{{4.1.1}{30}{Constitutive equations and polyconvexity}{equation.4.1.1}{}}
\newlabel{Equilibrium2}{{4.1.2}{30}{Constitutive equations and polyconvexity}{equation.4.1.2}{}}
\@writefile{toc}{\contentsline {subsection}{\numberline {4.1.1}Definition of an elastic material}{31}{subsection.4.1.1}}
\@writefile{toc}{\contentsline {subsection}{\numberline {4.1.2} The material frame indifference}{31}{subsection.4.1.2}}
\@writefile{toc}{\contentsline {subsection}{\numberline {4.1.3}Hyperelasticity}{31}{subsection.4.1.3}}
\newlabel{const_Piola}{{4.1.9}{32}{Hyperelasticity}{equation.4.1.9}{}}
\newlabel{const_Kirchhoff}{{4.1.10}{32}{Hyperelasticity}{equation.4.1.10}{}}
\@writefile{toc}{\contentsline {subsection}{\numberline {4.1.4}Stored energy function and convexity}{33}{subsection.4.1.4}}
\newlabel{Opti2}{{4.1.19}{33}{Stored energy function and convexity}{equation.4.1.19}{}}
\newlabel{infinite_behav}{{4.1.20}{33}{Stored energy function and convexity}{equation.4.1.20}{}}
\citation{CiarletTheo}
\newlabel{bound}{{4.1.26}{34}{Stored energy function and convexity}{equation.4.1.26}{}}
\citation{CiarletTheo}
\citation{marsden1984}
\citation{silhavy2013}
\newlabel{frame_indif}{{4.1.29}{35}{Stored energy function and convexity}{equation.4.1.29}{}}
\newlabel{eq_constraint}{{4.1.32}{35}{Stored energy function and convexity}{equation.4.1.32}{}}
\citation{JBall}
\@writefile{toc}{\contentsline {subsection}{\numberline {4.1.5}Polyconvexity}{36}{subsection.4.1.5}}
\@writefile{toc}{\contentsline {subsection}{\numberline {4.1.6}Linearisation of an hyperelastic Mooney-Rivlin model}{37}{subsection.4.1.6}}
\newlabel{lin_hyp_MR}{{4.1.6}{37}{Linearisation of an hyperelastic Mooney-Rivlin model}{subsection.4.1.6}{}}
\newlabel{material}{{4.1.45}{37}{Linearisation of an hyperelastic Mooney-Rivlin model}{equation.4.1.45}{}}
\newlabel{First_law}{{4.1.48}{37}{Linearisation of an hyperelastic Mooney-Rivlin model}{equation.4.1.48}{}}
\@writefile{toc}{\contentsline {section}{\numberline {4.2}Conclusion}{39}{section.4.2}}
\@writefile{toc}{\contentsline {chapter}{\numberline {5}PDEs in mixed form for elliptic problems}{40}{chapter.5}}
\@writefile{lof}{\addvspace {10\p@ }}
\@writefile{lot}{\addvspace {10\p@ }}
\@writefile{loa}{\addvspace {10\p@ }}
\@writefile{toc}{\contentsline {section}{\numberline {5.1}Formulation and well-posedness in Hilbert spaces}{40}{section.5.1}}
\newlabel{mixed_op}{{5.1.1}{40}{Formulation and well-posedness in Hilbert spaces}{equation.5.1.1}{}}
\newlabel{coerA}{{5.1.2}{40}{Formulation and well-posedness in Hilbert spaces}{equation.5.1.2}{}}
\newlabel{surjB}{{5.1.3}{41}{Formulation and well-posedness in Hilbert spaces}{equation.5.1.3}{}}
\newlabel{mixed_prob_bil}{{5.1.4}{41}{Formulation and well-posedness in Hilbert spaces}{equation.5.1.4}{}}
\newlabel{coerA_infB}{{5.1.5}{41}{Formulation and well-posedness in Hilbert spaces}{equation.5.1.5}{}}
\newlabel{bil_form}{{5.1.6}{41}{Formulation and well-posedness in Hilbert spaces}{equation.5.1.6}{}}
\@writefile{toc}{\contentsline {section}{\numberline {5.2}A priori estimates}{41}{section.5.2}}
\newlabel{stability_1}{{5.2.1}{41}{A priori estimates}{equation.5.2.1}{}}
\newlabel{stability_2}{{5.2.2}{41}{A priori estimates}{equation.5.2.2}{}}
\@writefile{toc}{\contentsline {section}{\numberline {5.3}Saddle-point problems in Hilbert spaces}{42}{section.5.3}}
\@writefile{toc}{\contentsline {section}{\numberline {5.4}Babuska-Brezzi theorem}{42}{section.5.4}}
\newlabel{Babuska-Brezzi}{{5.4.2}{42}{Babuska-Brezzi}{equation.5.4.2}{}}
\@writefile{toc}{\contentsline {section}{\numberline {5.5}Conclusion}{43}{section.5.5}}
\citation{DattoliRicciCesarano}
\citation{Carrera}
\citation{Zappino}
\@writefile{toc}{\contentsline {chapter}{\numberline {6}Polynomial spaces and Discretisation}{44}{chapter.6}}
\@writefile{lof}{\addvspace {10\p@ }}
\@writefile{lot}{\addvspace {10\p@ }}
\@writefile{loa}{\addvspace {10\p@ }}
\newlabel{poly}{{6}{44}{Polynomial spaces and Discretisation}{chapter.6}{}}
\@writefile{toc}{\contentsline {section}{\numberline {6.1}Notations}{44}{section.6.1}}
\newlabel{dfn_poly}{{6.1.1}{44}{Polynomial space of total order p}{equation.6.1.2}{}}
\newlabel{dfn_hom_poly}{{6.1.2}{44}{Homogeneous polynomials}{equation.6.1.3}{}}
\newlabel{scaling}{{6.1.4}{44}{Scaling}{equation.6.1.4}{}}
\@writefile{toc}{\contentsline {section}{\numberline {6.2}Legendre polynomials}{45}{section.6.2}}
\newlabel{Bonnet}{{6.2.2}{45}{Legendre polynomials : recursion formula}{equation.6.2.2}{}}
\newlabel{dfn_Leg_poly}{{6.2.2}{45}{Legendre polynomials : recursion formula}{equation.6.2.2}{}}
\@writefile{toc}{\contentsline {section}{\numberline {6.3}Legendre polynomials: some properties}{45}{section.6.3}}
\newlabel{ortho_Leg}{{6.3.1}{45}{$L^2$ orthogonality}{equation.6.3.1}{}}
\citation{Delsarte}
\@writefile{toc}{\contentsline {section}{\numberline {6.4}Jacobi polynomials}{46}{section.6.4}}
\newlabel{Jac_rec}{{6.4.1}{47}{Jacobi polynomials}{equation.6.4.1}{}}
\@writefile{toc}{\contentsline {section}{\numberline {6.5}Homogenisation}{47}{section.6.5}}
\newlabel{two_hom}{{6.5.3}{47}{Homogenisation}{equation.6.5.3}{}}
\@writefile{toc}{\contentsline {section}{\numberline {6.6}Integrated Legendre polynomials}{48}{section.6.6}}
\newlabel{intLeg}{{6.6}{48}{Integrated Legendre polynomials}{section.6.6}{}}
\newlabel{interm}{{6.6.4}{48}{Integrated Legendre polynomials}{equation.6.6.4}{}}
\@writefile{toc}{\contentsline {section}{\numberline {6.7}Integrated Jacobi polynomials}{48}{section.6.7}}
\newlabel{intJac}{{6.7}{48}{Integrated Jacobi polynomials}{section.6.7}{}}
\newlabel{JacPol}{{6.7.1}{48}{Integrated Jacobi polynomials}{equation.6.7.1}{}}
\@writefile{toc}{\contentsline {section}{\numberline {6.8}Discretisation}{49}{section.6.8}}
\newlabel{linear_problem}{{6.8.2}{49}{Discretisation}{equation.6.8.2}{}}
\newlabel{discretized_problem}{{6.8.3}{49}{Discretisation}{equation.6.8.3}{}}
\@writefile{toc}{\contentsline {section}{\numberline {6.9}Description of the Finite Element}{50}{section.6.9}}
\@writefile{lof}{\contentsline {figure}{\numberline {6.9.1}{\ignorespaces Description of the geometry\relax }}{50}{figure.caption.5}}
\newlabel{tet_ains}{{6.9.1}{50}{Description of the geometry\relax }{figure.caption.5}{}}
\citation{AinsOrient}
\@writefile{toc}{\contentsline {subsection}{\numberline {6.9.1}Polynomial space}{51}{subsection.6.9.1}}
\@writefile{toc}{\contentsline {subsection}{\numberline {6.9.2}Degrees of freedom}{52}{subsection.6.9.2}}
\@writefile{toc}{\contentsline {section}{\numberline {6.10}Conclusion}{53}{section.6.10}}
\citation{Necas1962}
\citation{BABUSKA}
\@writefile{toc}{\contentsline {chapter}{\numberline {7}Mixed finite elements approximation}{54}{chapter.7}}
\@writefile{lof}{\addvspace {10\p@ }}
\@writefile{lot}{\addvspace {10\p@ }}
\@writefile{loa}{\addvspace {10\p@ }}
\@writefile{toc}{\contentsline {section}{\numberline {7.1}Well-posedness and error analysis in conforming Galerkin approximation}{54}{section.7.1}}
\newlabel{disc_prob_bil}{{7.1.1}{54}{Well-posedness and error analysis in conforming Galerkin approximation}{equation.7.1.1}{}}
\newlabel{discrete_mix_cond}{{7.1.2}{54}{Well-posedness and error analysis in conforming Galerkin approximation}{equation.7.1.2}{}}
\citation{ArtBrez}
\newlabel{err_mixed}{{7.1.6}{55}{Well-posedness and error analysis in conforming Galerkin approximation}{equation.7.1.6}{}}
\@writefile{toc}{\contentsline {section}{\numberline {7.2}Algebraic setting}{56}{section.7.2}}
\newlabel{Algebraic_view}{{7.2.2}{56}{Algebraic setting}{equation.7.2.2}{}}
\@writefile{toc}{\contentsline {section}{\numberline {7.3}Conclusion}{56}{section.7.3}}
\citation{DemkowiczShape}
\citation{Nedelec1980}
\citation{Stenberg1988}
\citation{Morley1989}
\citation{Sussman1987}
\citation{Bathe1996}
\citation{Falk1980}
\citation{Douglas1985}
\citation{Lovadina2006}
\@writefile{toc}{\contentsline {chapter}{\numberline {8}Elasticity in Large strains with mixed formulation }{57}{chapter.8}}
\@writefile{lof}{\addvspace {10\p@ }}
\@writefile{lot}{\addvspace {10\p@ }}
\@writefile{loa}{\addvspace {10\p@ }}
\@writefile{toc}{\contentsline {section}{\numberline {8.1}Mixed element in small strains with relaxed symmetry}{57}{section.8.1}}
\newlabel{strong_form_small_strain}{{8.1.1}{57}{Mixed element in small strains with relaxed symmetry}{equation.8.1.1}{}}
\newlabel{original_functional}{{8.1.2}{58}{Mixed element in small strains with relaxed symmetry}{equation.8.1.2}{}}
\newlabel{Original_weak}{{8.1.3}{58}{Mixed element in small strains with relaxed symmetry}{equation.8.1.3}{}}
\newlabel{modified_functional}{{8.1.4}{58}{Mixed element in small strains with relaxed symmetry}{equation.8.1.4}{}}
\citation{GuzmanArt}
\citation{CockburnArt}
\citation{Gopala}
\newlabel{modified_weak}{{8.1.5}{59}{Mixed element in small strains with relaxed symmetry}{equation.8.1.5}{}}
\newlabel{RT_def}{{8.1.7}{59}{Mixed element in small strains with relaxed symmetry}{equation.8.1.7}{}}
\@writefile{toc}{\contentsline {section}{\numberline {8.2}Extension to large strains}{59}{section.8.2}}
\@writefile{toc}{\contentsline {subsection}{\numberline {8.2.1}Equations in weak form: Spatial problem}{60}{subsection.8.2.1}}
\@writefile{toc}{\contentsline {paragraph}{Kinematics}{60}{paragraph*.6}}
\@writefile{toc}{\contentsline {paragraph}{Consistency equation}{60}{paragraph*.7}}
\@writefile{toc}{\contentsline {paragraph}{Physical equation}{61}{paragraph*.8}}
\@writefile{toc}{\contentsline {paragraph}{Angular momentum equation}{61}{paragraph*.9}}
\@writefile{toc}{\contentsline {paragraph}{Linear momentum equation}{61}{paragraph*.10}}
\@writefile{toc}{\contentsline {paragraph}{Element equations}{61}{paragraph*.11}}
\newlabel{element_equas}{{8.2.12}{61}{Element equations}{equation.8.2.12}{}}
\@writefile{toc}{\contentsline {subsection}{\numberline {8.2.2}Discretisation}{62}{subsection.8.2.2}}
\newlabel{disc_mixed}{{8.2.13}{62}{Discretisation}{equation.8.2.13}{}}
\newlabel{residuals}{{8.2.14}{62}{Discretisation}{equation.8.2.14}{}}
\newlabel{mixed_lin_eq}{{8.2.18}{63}{Discretisation}{equation.8.2.18}{}}
\@writefile{toc}{\contentsline {section}{\numberline {8.3}Schur optimisation}{63}{section.8.3}}
\newlabel{Schur}{{8.3}{63}{Schur optimisation}{section.8.3}{}}
\newlabel{Algebraic_view_2}{{8.3.1}{63}{Schur optimisation}{equation.8.3.1}{}}
\newlabel{U_elim}{{8.3.2}{63}{Schur optimisation}{equation.8.3.2}{}}
\citation{SchurDomain}
\citation{SchurStable}
\newlabel{Schur_subpro}{{8.3.3}{64}{Schur optimisation}{equation.8.3.3}{}}
\newlabel{schur_sub}{{8.3.5}{64}{Schur optimisation}{equation.8.3.5}{}}
\citation{KarolMultifield}
\@writefile{lot}{\contentsline {table}{\numberline {8.1}{\ignorespaces Wall-time for fieldsplit vs. no fieldsplit\relax }}{66}{table.caption.12}}
\newlabel{fieldsplit_vs_no_fieldsplit}{{8.1}{66}{Wall-time for fieldsplit vs. no fieldsplit\relax }{table.caption.12}{}}
\@writefile{toc}{\contentsline {subsection}{\numberline {8.3.1}Spaces}{67}{subsection.8.3.1}}
\@writefile{toc}{\contentsline {paragraph}{Approximation of logarithmic stretch}{67}{paragraph*.13}}
\newlabel{stretch_compute}{{8.3.14}{67}{Approximation of logarithmic stretch}{equation.8.3.14}{}}
\citation{DemkowiczShape}
\@writefile{toc}{\contentsline {section}{\numberline {8.4}Practical Construction of local polynomial base for $\mathbf  {H}^{\mathrm  {div}}$ space}{68}{section.8.4}}
\newlabel{Prac_construct}{{8.4}{68}{Practical Construction of local polynomial base for $\Hdiv $ space}{section.8.4}{}}
\citation{DemkowiczShape}
\newlabel{dim_hier}{{8.4.1}{69}{Practical Construction of local polynomial base for $\Hdiv $ space}{equation.8.4.1}{}}
\newlabel{Ned_spa}{{8.4.3}{69}{Practical Construction of local polynomial base for $\Hdiv $ space}{equation.8.4.3}{}}
\newlabel{Rav_spa}{{8.4.4}{69}{Practical Construction of local polynomial base for $\Hdiv $ space}{equation.8.4.4}{}}
\newlabel{shapeDiv}{{8.4.5}{69}{Practical Construction of local polynomial base for $\Hdiv $ space}{equation.8.4.5}{}}
\newlabel{divShapeDiv}{{8.4.6}{69}{Practical Construction of local polynomial base for $\Hdiv $ space}{equation.8.4.6}{}}
\citation{GuzmanArt}
\citation{GuzmanArt}
\newlabel{stress_disc_space}{{8.4.8}{70}{Practical Construction of local polynomial base for $\Hdiv $ space}{equation.8.4.8}{}}
\citation{Wriggers}
\citation{Gil}
\citation{Wriggers}
\citation{Gil}
\@writefile{toc}{\contentsline {section}{\numberline {8.5}Degrees of freedom for $\mathbf  {H}^{\mathrm  {div}}$ space }{71}{section.8.5}}
\@writefile{toc}{\contentsline {section}{\numberline {8.6}Comparison with results in classical formulation}{71}{section.8.6}}
\citation{ErnG}
\citation{Grisvard}
\newlabel{toy_scalar}{{8.6.1}{72}{Comparison with results in classical formulation}{equation.8.6.1}{}}
\@writefile{lof}{\contentsline {figure}{\numberline {8.6.1}{\ignorespaces Geometry for illustrative example. \relax }}{72}{figure.caption.14}}
\newlabel{dummy_example}{{8.6.1}{72}{Geometry for illustrative example. \relax }{figure.caption.14}{}}
\citation{Gil}
\@writefile{toc}{\contentsline {subsection}{\numberline {8.6.1}Geometry of the Cook beam and boundary conditions}{73}{subsection.8.6.1}}
\newlabel{Cook_problem}{{8.6.1}{73}{Geometry of the Cook beam and boundary conditions}{subsection.8.6.1}{}}
\@writefile{lof}{\contentsline {figure}{\numberline {8.6.2}{\ignorespaces Cook beam geometry. The different fields are evaluated at C \relax }}{73}{figure.caption.15}}
\newlabel{Cook_beam}{{8.6.2}{73}{Cook beam geometry. The different fields are evaluated at C \relax }{figure.caption.15}{}}
\@writefile{toc}{\contentsline {subsection}{\numberline {8.6.2}Cook benchmark problem}{73}{subsection.8.6.2}}
\citation{Gil}
\citation{Gil}
\citation{Gil}
\@writefile{lot}{\contentsline {table}{\numberline {8.2}{\ignorespaces Standard mixed element vs. Eshelbian element\relax }}{74}{table.caption.16}}
\newlabel{standard_vs_eshelbian}{{8.2}{74}{Standard mixed element vs. Eshelbian element\relax }{table.caption.16}{}}
\@writefile{toc}{\contentsline {subsection}{\numberline {8.6.3}Results comparison}{74}{subsection.8.6.3}}
\citation{Gil}
\citation{Wriggers}
\@writefile{lot}{\contentsline {table}{\numberline {8.3}{\ignorespaces Comparison of results for $W_p$ model\relax }}{75}{table.caption.17}}
\newlabel{result_Wp}{{8.3}{75}{Comparison of results for $W_p$ model\relax }{table.caption.17}{}}
\@writefile{lot}{\contentsline {table}{\numberline {8.4}{\ignorespaces Comparison of results for $W_q$ model\relax }}{75}{table.caption.18}}
\newlabel{result_Wq}{{8.4}{75}{Comparison of results for $W_q$ model\relax }{table.caption.18}{}}
\newlabel{stress_full_Cook}{{8.6.3a}{77}{\relax }{figure.caption.19}{}}
\newlabel{sub@stress_full_Cook}{{a}{77}{\relax }{figure.caption.19}{}}
\newlabel{sing_pert_stress}{{8.6.3b}{77}{\relax }{figure.caption.19}{}}
\newlabel{sub@sing_pert_stress}{{b}{77}{\relax }{figure.caption.19}{}}
\newlabel{disp_field}{{8.6.3c}{77}{\relax }{figure.caption.19}{}}
\newlabel{sub@disp_field}{{c}{77}{\relax }{figure.caption.19}{}}
\@writefile{lof}{\contentsline {figure}{\numberline {8.6.3}{\ignorespaces Stress field (magnitude) in the Cook beam for $W_p$ problem (a) and singular perturbation (b). The perturbations are not observed in the displacement field (c).\relax }}{77}{figure.caption.19}}
\newlabel{Cook_pert}{{8.6.3}{77}{Stress field (magnitude) in the Cook beam for $W_p$ problem (a) and singular perturbation (b). The perturbations are not observed in the displacement field (c).\relax }{figure.caption.19}{}}
\@writefile{lof}{\contentsline {figure}{\numberline {8.6.4}{\ignorespaces Displacement and stress field in Cook beam for the nearly incompressible model \relax }}{78}{figure.caption.20}}
\newlabel{good_result_lukasz}{{8.6.4}{78}{Displacement and stress field in Cook beam for the nearly incompressible model \relax }{figure.caption.20}{}}
\@writefile{toc}{\contentsline {subsection}{\numberline {8.6.4}Convergence speed}{79}{subsection.8.6.4}}
\@writefile{lof}{\contentsline {figure}{\numberline {8.6.5}{\ignorespaces Convergence speed with PETSc-SNES solver at different steps for the Cook beam $W_q$ model\relax }}{79}{figure.caption.21}}
\newlabel{Conv_speed}{{8.6.5}{79}{Convergence speed with PETSc-SNES solver at different steps for the Cook beam $W_q$ model\relax }{figure.caption.21}{}}
\@writefile{toc}{\contentsline {subsection}{\numberline {8.6.5}Convergence}{80}{subsection.8.6.5}}
\@writefile{lof}{\contentsline {figure}{\numberline {8.6.6}{\ignorespaces Convergence $\sigma _{xx}^B$ for $W_q$ model\relax }}{80}{figure.caption.22}}
\newlabel{sigma_B_conv}{{8.6.6}{80}{Convergence $\sigma _{xx}^B$ for $W_q$ model\relax }{figure.caption.22}{}}
\@writefile{lof}{\contentsline {figure}{\numberline {8.6.7}{\ignorespaces Convergence $\sigma _{xx}^A$ for $W_q$ model\relax }}{81}{figure.caption.23}}
\newlabel{sigma_A_conv}{{8.6.7}{81}{Convergence $\sigma _{xx}^A$ for $W_q$ model\relax }{figure.caption.23}{}}
\@writefile{lof}{\contentsline {figure}{\numberline {8.6.8}{\ignorespaces Convergence $u_{x}^C$ for $W_q$ model\relax }}{82}{figure.caption.24}}
\newlabel{disp_C_conv}{{8.6.8}{82}{Convergence $u_{x}^C$ for $W_q$ model\relax }{figure.caption.24}{}}
\@writefile{lof}{\contentsline {figure}{\numberline {8.6.9}{\ignorespaces Influence mesh density. The analysis for with the mesh with 34320 elements (green) stops at step 13 and the mesh with 23040 elements (purple) stops after 14 steps because of the poor quality of the mesh at those steps and lack of convergence.\relax }}{83}{figure.caption.25}}
\newlabel{Cook_meshsize}{{8.6.9}{83}{Influence mesh density. The analysis for with the mesh with 34320 elements (green) stops at step 13 and the mesh with 23040 elements (purple) stops after 14 steps because of the poor quality of the mesh at those steps and lack of convergence.\relax }{figure.caption.25}{}}
\@writefile{toc}{\contentsline {subsection}{\numberline {8.6.6}Compressible Column Bending}{83}{subsection.8.6.6}}
\@writefile{lof}{\contentsline {figure}{\numberline {8.6.10}{\ignorespaces Bending column: geometry \relax }}{84}{figure.caption.26}}
\newlabel{bending_column_geometry}{{8.6.10}{84}{Bending column: geometry \relax }{figure.caption.26}{}}
\newlabel{bending_MR}{{8.6.4}{84}{Compressible Column Bending}{equation.8.6.4}{}}
\citation{Gil}
\newlabel{bending_5pc}{{8.6.11a}{85}{\relax }{figure.caption.27}{}}
\newlabel{sub@bending_5pc}{{a}{85}{\relax }{figure.caption.27}{}}
\newlabel{bending_25pc}{{8.6.11b}{85}{\relax }{figure.caption.27}{}}
\newlabel{sub@bending_25pc}{{b}{85}{\relax }{figure.caption.27}{}}
\newlabel{bending_50pc}{{8.6.11c}{85}{\relax }{figure.caption.27}{}}
\newlabel{sub@bending_50pc}{{c}{85}{\relax }{figure.caption.27}{}}
\newlabel{bending_100pc}{{8.6.11d}{85}{\relax }{figure.caption.27}{}}
\newlabel{sub@bending_100pc}{{d}{85}{\relax }{figure.caption.27}{}}
\@writefile{lof}{\contentsline {figure}{\numberline {8.6.11}{\ignorespaces Stress distribution ($\sigma _{xx}$ component) during the bending of a compressible column at different stages of loading: (a) 5\% of $\tau _{max}$ (b) 25\% of $\tau _{max}$ (c) 50 \% of $\tau _{max}$ (d) 100\% of $\tau _{max}$ \relax }}{85}{figure.caption.27}}
\newlabel{bending_stress}{{8.6.11}{85}{Stress distribution ($\sigma _{xx}$ component) during the bending of a compressible column at different stages of loading: (a) 5\% of $\tau _{max}$ (b) 25\% of $\tau _{max}$ (c) 50 \% of $\tau _{max}$ (d) 100\% of $\tau _{max}$ \relax }{figure.caption.27}{}}
\@writefile{toc}{\contentsline {subsection}{\numberline {8.6.7}Torsion of a beam with a square cross section}{85}{subsection.8.6.7}}
\newlabel{torsion_MR}{{8.6.5}{85}{Torsion of a beam with a square cross section}{equation.8.6.5}{}}
\newlabel{torsion_F11}{{8.6.12a}{86}{\relax }{figure.caption.28}{}}
\newlabel{sub@torsion_F11}{{a}{86}{\relax }{figure.caption.28}{}}
\newlabel{legend_F11}{{\caption@xref {legend_F11}{ on input line 2796}}{86}{Torsion of a beam with a square cross section}{figure.caption.28}{}}
\newlabel{sub@legend_F11}{{a}{86}{Torsion of a beam with a square cross section}{figure.caption.28}{}}
\newlabel{torsion_F12}{{8.6.12b}{86}{\relax }{figure.caption.28}{}}
\newlabel{sub@torsion_F12}{{b}{86}{\relax }{figure.caption.28}{}}
\newlabel{legend_F12}{{\caption@xref {legend_F12}{ on input line 2809}}{86}{Torsion of a beam with a square cross section}{figure.caption.28}{}}
\newlabel{sub@legend_F12}{{b}{86}{Torsion of a beam with a square cross section}{figure.caption.28}{}}
\newlabel{torsion_F32}{{8.6.12c}{86}{\relax }{figure.caption.28}{}}
\newlabel{sub@torsion_F32}{{c}{86}{\relax }{figure.caption.28}{}}
\newlabel{legend_F32}{{\caption@xref {legend_F32}{ on input line 2822}}{86}{Torsion of a beam with a square cross section}{figure.caption.28}{}}
\newlabel{sub@legend_F32}{{c}{86}{Torsion of a beam with a square cross section}{figure.caption.28}{}}
\newlabel{torsion_detF}{{8.6.12d}{86}{\relax }{figure.caption.28}{}}
\newlabel{sub@torsion_detF}{{d}{86}{\relax }{figure.caption.28}{}}
\newlabel{legend_detF}{{\caption@xref {legend_detF}{ on input line 2835}}{86}{Torsion of a beam with a square cross section}{figure.caption.28}{}}
\newlabel{sub@legend_detF}{{d}{86}{Torsion of a beam with a square cross section}{figure.caption.28}{}}
\@writefile{lof}{\contentsline {figure}{\numberline {8.6.12}{\ignorespaces Torsion problem: tetrahedral mesh with 2304 elements. Visualization of different components of the deformation gradient $\mathbf  {F}$ (a) $\text  {F}_{11}$ (b) $\text  {F}_{12}$ (c) $\text  {F}_{32}$ (d) $ \text  {det}(\mathbf  {F})$\relax }}{86}{figure.caption.28}}
\newlabel{torsion_F}{{8.6.12}{86}{Torsion problem: tetrahedral mesh with 2304 elements. Visualization of different components of the deformation gradient $\mathbf {F}$ (a) $\text {F}_{11}$ (b) $\text {F}_{12}$ (c) $\text {F}_{32}$ (d) $ \text {det}(\mathbf {F})$\relax }{figure.caption.28}{}}
\@writefile{lof}{\contentsline {figure}{\numberline {8.6.13}{\ignorespaces Influence of the density of the mesh on the stability for a fixed viscosity for the torsion problem. \relax }}{87}{figure.caption.29}}
\newlabel{Torsion_meshsize}{{8.6.13}{87}{Influence of the density of the mesh on the stability for a fixed viscosity for the torsion problem. \relax }{figure.caption.29}{}}
\@writefile{lof}{\contentsline {figure}{\numberline {8.6.14}{\ignorespaces Influence of the density of the mesh on the stability for a fixed viscosity for the torsion problem. \relax }}{88}{figure.caption.30}}
\newlabel{stress_time_tors_ms}{{8.6.14}{88}{Influence of the density of the mesh on the stability for a fixed viscosity for the torsion problem. \relax }{figure.caption.30}{}}
\citation{KarolMultifield}
\newlabel{torsion_Cauchy_xy}{{8.6.15a}{89}{\relax }{figure.caption.31}{}}
\newlabel{sub@torsion_Cauchy_xy}{{a}{89}{\relax }{figure.caption.31}{}}
\newlabel{legend_Cauchy_xy}{{\caption@xref {legend_Cauchy_xy}{ on input line 2867}}{89}{Torsion of a beam with a square cross section}{figure.caption.31}{}}
\newlabel{sub@legend_Cauchy_xy}{{a}{89}{Torsion of a beam with a square cross section}{figure.caption.31}{}}
\newlabel{torsion_Cauchy_yy}{{8.6.15b}{89}{\relax }{figure.caption.31}{}}
\newlabel{sub@torsion_Cauchy_yy}{{b}{89}{\relax }{figure.caption.31}{}}
\newlabel{legend_Cauchy_yy}{{\caption@xref {legend_Cauchy_yy}{ on input line 2880}}{89}{Torsion of a beam with a square cross section}{figure.caption.31}{}}
\newlabel{sub@legend_Cauchy_yy}{{b}{89}{Torsion of a beam with a square cross section}{figure.caption.31}{}}
\@writefile{lof}{\contentsline {figure}{\numberline {8.6.15}{\ignorespaces Torsion problem: tetrahedral mesh with 2304 elements. Visualisation of different components of the stress tensor. (a) $\sigma _{xy}$ (b) $\sigma _{yy}$\relax }}{89}{figure.caption.31}}
\newlabel{torsion_Cauchy}{{8.6.15}{89}{Torsion problem: tetrahedral mesh with 2304 elements. Visualisation of different components of the stress tensor. (a) $\sigma _{xy}$ (b) $\sigma _{yy}$\relax }{figure.caption.31}{}}
\@writefile{toc}{\contentsline {section}{\numberline {8.7}Conclusion}{89}{section.8.7}}
\citation{jirasek2001}
\citation{lubliner1992}
\citation{duvautinequalities}
\citation{suquet1981equations}
\@writefile{toc}{\contentsline {chapter}{\numberline {9}Extension to plastic problems}{90}{chapter.9}}
\@writefile{lof}{\addvspace {10\p@ }}
\@writefile{lot}{\addvspace {10\p@ }}
\@writefile{loa}{\addvspace {10\p@ }}
\@writefile{toc}{\contentsline {section}{\numberline {9.1}Application to small strains plasticity}{90}{section.9.1}}
\@writefile{toc}{\contentsline {subsection}{\numberline {9.1.1}Thermodynamics with internal variables}{90}{subsection.9.1.1}}
\newlabel{set_var}{{9.1.1}{90}{Thermodynamics with internal variables}{equation.9.1.1}{}}
\newlabel{material_psi}{{9.1.3}{90}{Thermodynamics with internal variables}{equation.9.1.3}{}}
\newlabel{thermo_var1}{{9.1.6}{91}{Thermodynamics with internal variables}{equation.9.1.6}{}}
\citation{DeSouzaPlastTheo}
\citation{DeSouzaPlastAlgo}
\citation{SimoPlastTheo}
\citation{SimoPlastAlgo}
\newlabel{const_eq}{{9.1.10}{92}{Thermodynamics with internal variables}{equation.9.1.10}{}}
\@writefile{toc}{\contentsline {subsection}{\numberline {9.1.2}Plasticity in small strains}{92}{subsection.9.1.2}}
\newlabel{CD_small}{{9.1.13}{92}{Plasticity in small strains}{equation.9.1.13}{}}
\newlabel{A_def}{{9.1.14}{92}{Plasticity in small strains}{equation.9.1.14}{}}
\newlabel{adm_domain}{{9.1.17}{93}{Plasticity in small strains}{equation.9.1.17}{}}
\newlabel{symm_tens}{{9.1.18}{93}{Plasticity in small strains}{equation.9.1.18}{}}
\newlabel{const_pb}{{9.1.21}{93}{Plasticity in small strains}{equation.9.1.21}{}}
\newlabel{evo_equa1}{{9.1.23}{93}{Plasticity in small strains}{equation.9.1.23}{}}
\newlabel{evo_equa2}{{9.1.24}{93}{Plasticity in small strains}{equation.9.1.24}{}}
\newlabel{KKT}{{9.1.25}{94}{Plasticity in small strains}{equation.9.1.25}{}}
\newlabel{complement}{{9.1.27}{94}{Plasticity in small strains}{equation.9.1.27}{}}
\newlabel{dif_phi}{{9.1.28}{94}{Plasticity in small strains}{equation.9.1.28}{}}
\newlabel{dif_Cstress}{{9.1.29}{94}{Plasticity in small strains}{equation.9.1.29}{}}
\newlabel{dif_A}{{9.1.30}{94}{Plasticity in small strains}{equation.9.1.30}{}}
\@writefile{toc}{\contentsline {subsection}{\numberline {9.1.3}The Von-Mises model with isotropic linear hardening}{95}{subsection.9.1.3}}
\@writefile{toc}{\contentsline {section}{\numberline {9.2}Variational formulation of elasto-plastic problem}{96}{section.9.2}}
\@writefile{toc}{\contentsline {subsection}{\numberline {9.2.1}Functional spaces}{96}{subsection.9.2.1}}
\@writefile{toc}{\contentsline {subsection}{\numberline {9.2.2}Linear and bilinear forms}{96}{subsection.9.2.2}}
\newlabel{abs_j}{{9.2.8}{96}{Linear and bilinear forms}{equation.9.2.8}{}}
\citation{Reddy}
\@writefile{toc}{\contentsline {subsection}{\numberline {9.2.3}Discussion on the primal variational problem}{97}{subsection.9.2.3}}
\@writefile{toc}{\contentsline {section}{\numberline {9.3}Extension to plastic problems in large strains}{97}{section.9.3}}
\newlabel{Large_strains}{{9.3}{97}{Extension to plastic problems in large strains}{section.9.3}{}}
\@writefile{toc}{\contentsline {section}{\numberline {9.4}Body}{98}{section.9.4}}
\@writefile{toc}{\contentsline {section}{\numberline {9.5}Kinematics with three configurations}{99}{section.9.5}}
\@writefile{lof}{\contentsline {figure}{\numberline {9.5.1}{\ignorespaces The three configurations for the large strains mixed formulation framework\relax }}{99}{figure.caption.32}}
\newlabel{three_bodies}{{9.5.1}{99}{The three configurations for the large strains mixed formulation framework\relax }{figure.caption.32}{}}
\newlabel{eq:grad_def_direvative}{{9.5.10}{100}{Kinematics with three configurations}{equation.9.5.10}{}}
\@writefile{toc}{\contentsline {section}{\numberline {9.6}Equilibrium in large strains}{100}{section.9.6}}
\newlabel{eq:rate_psi_e}{{9.6.5}{101}{Equilibrium in large strains}{equation.9.6.5}{}}
\newlabel{eq:rate_psi_p}{{9.6.6}{101}{Equilibrium in large strains}{equation.9.6.6}{}}
\@writefile{toc}{\contentsline {section}{\numberline {9.7}Constraints}{102}{section.9.7}}
\newlabel{eq:max_disp_stationary_point}{{9.7.4}{102}{Constraints}{equation.9.7.4}{}}
\@writefile{toc}{\contentsline {section}{\numberline {9.8}Dissipation}{103}{section.9.8}}
\@writefile{toc}{\contentsline {section}{\numberline {9.9}Equations in strong form}{104}{section.9.9}}
\@writefile{toc}{\contentsline {chapter}{\numberline {10}Conclusion}{105}{chapter.10}}
\@writefile{lof}{\addvspace {10\p@ }}
\@writefile{lot}{\addvspace {10\p@ }}
\@writefile{loa}{\addvspace {10\p@ }}
\@writefile{toc}{\contentsline {chapter}{\numberline {11}Acknowledgement}{107}{chapter.11}}
\@writefile{lof}{\addvspace {10\p@ }}
\@writefile{lot}{\addvspace {10\p@ }}
\@writefile{loa}{\addvspace {10\p@ }}
\@writefile{toc}{\contentsline {chapter}{\numberline {12}Author's Declaration}{108}{chapter.12}}
\@writefile{lof}{\addvspace {10\p@ }}
\@writefile{lot}{\addvspace {10\p@ }}
\@writefile{loa}{\addvspace {10\p@ }}
\citation{PetscTS}
\citation{PetscTSsolver}
\citation{PetscParallel}
\citation{petsc-web-page}
\@writefile{toc}{\contentsline {chapter}{Appendices}{110}{section*.33}}
\@writefile{toc}{\contentsline {chapter}{\numberline {A}The return-mapping algorithm in small strains}{110}{appendix.A}}
\@writefile{lof}{\addvspace {10\p@ }}
\@writefile{lot}{\addvspace {10\p@ }}
\@writefile{loa}{\addvspace {10\p@ }}
\newlabel{returnmapping}{{A}{110}{The return-mapping algorithm in small strains}{appendix.A}{}}
\newlabel{Numerical_Implementation}{{A}{111}{The return-mapping algorithm in small strains}{appendix.A}{}}
\@writefile{lof}{\contentsline {figure}{\numberline {A.0.1}{\ignorespaces The return-mapping algorithm in small strains plasticity \relax }}{111}{figure.caption.34}}
\newlabel{MoFEM_implementation_2}{{A.0.1}{111}{The return-mapping algorithm in small strains plasticity \relax }{figure.caption.34}{}}
\@writefile{toc}{\contentsline {section}{\numberline {A.1}Initial phase}{112}{section.A.1}}
\@writefile{lof}{\contentsline {figure}{\numberline {A.1.1}{\ignorespaces Initial phase for plastic code in small strains \relax }}{112}{figure.caption.35}}
\newlabel{Initial_phase}{{A.1.1}{112}{Initial phase for plastic code in small strains \relax }{figure.caption.35}{}}
\@writefile{toc}{\contentsline {section}{\numberline {A.2}Elastic hypothesis}{112}{section.A.2}}
\@writefile{lof}{\contentsline {figure}{\numberline {A.2.1}{\ignorespaces Elastic hypothesis phase for plastic code in small strains \relax }}{113}{figure.caption.36}}
\newlabel{Elastic_hypothesis_phase}{{A.2.1}{113}{Elastic hypothesis phase for plastic code in small strains \relax }{figure.caption.36}{}}
\@writefile{toc}{\contentsline {section}{\numberline {A.3}Return-mapping algorithm}{113}{section.A.3}}
\@writefile{lof}{\contentsline {figure}{\numberline {A.3.1}{\ignorespaces Return to the yield surface\relax }}{114}{figure.caption.37}}
\newlabel{Return_map}{{A.3.1}{114}{Return to the yield surface\relax }{figure.caption.37}{}}
\@writefile{toc}{\contentsline {section}{\numberline {A.4}Local tangent modulus}{115}{section.A.4}}
\@writefile{lof}{\contentsline {figure}{\numberline {A.4.1}{\ignorespaces Update the local stresses and strains and compute the elasto-plastic tangent modulus\relax }}{115}{figure.caption.38}}
\newlabel{Elasto_plast_alg}{{A.4.1}{115}{Update the local stresses and strains and compute the elasto-plastic tangent modulus\relax }{figure.caption.38}{}}
\@writefile{toc}{\contentsline {section}{\numberline {A.5}Assembling and solving}{116}{section.A.5}}
\@writefile{lof}{\contentsline {figure}{\numberline {A.5.1}{\ignorespaces Assemble the stiffness matrix and solve for displacement\relax }}{116}{figure.caption.39}}
\newlabel{Assemble_solve}{{A.5.1}{116}{Assemble the stiffness matrix and solve for displacement\relax }{figure.caption.39}{}}
\@writefile{toc}{\contentsline {section}{\numberline {A.6}Check global convergence}{116}{section.A.6}}
\@writefile{lof}{\contentsline {figure}{\numberline {A.6.1}{\ignorespaces Check the convergence at the global level (if the residual is superior to some given tolerance value, do another iteration)\relax }}{116}{figure.caption.40}}
\newlabel{conv_check}{{A.6.1}{116}{Check the convergence at the global level (if the residual is superior to some given tolerance value, do another iteration)\relax }{figure.caption.40}{}}
\citation{DeSouzaPipe}
\@writefile{toc}{\contentsline {section}{\numberline {A.7}Update the plastic strains and post-process}{117}{section.A.7}}
\@writefile{lof}{\contentsline {figure}{\numberline {A.7.1}{\ignorespaces Update and post-process phase\relax }}{117}{figure.caption.41}}
\newlabel{Update_pp}{{A.7.1}{117}{Update and post-process phase\relax }{figure.caption.41}{}}
\@writefile{toc}{\contentsline {section}{\numberline {A.8}Results for small strains}{117}{section.A.8}}
\citation{HillPipe}
\@writefile{toc}{\contentsline {subsection}{\numberline {A.8.1}Internally pressurised cylinder}{118}{subsection.A.8.1}}
\@writefile{lof}{\contentsline {figure}{\numberline {A.8.1}{\ignorespaces Benchmark problem : internally pressurised cylinder\relax }}{118}{figure.caption.42}}
\newlabel{pres_cyl}{{A.8.1}{118}{Benchmark problem : internally pressurised cylinder\relax }{figure.caption.42}{}}
\newlabel{form_pipe}{{A.8.1}{118}{Internally pressurised cylinder}{equation.A.8.1}{}}
\@writefile{lof}{\contentsline {figure}{\numberline {A.8.2}{\ignorespaces Internally pressurised cylinder : pressure versus displacement diagram\relax }}{119}{figure.caption.43}}
\newlabel{graph_pres_cyl}{{A.8.2}{119}{Internally pressurised cylinder : pressure versus displacement diagram\relax }{figure.caption.43}{}}
\citation{HillPipe}
\citation{DeSouzaPipe}
\@writefile{lof}{\contentsline {figure}{\numberline {A.8.3}{\ignorespaces Internally pressurised cylinder : Hoop stress distribution at different levels of applied pressure\relax }}{120}{figure.caption.44}}
\newlabel{Hoop_stress}{{A.8.3}{120}{Internally pressurised cylinder : Hoop stress distribution at different levels of applied pressure\relax }{figure.caption.44}{}}
\citation{DeSouzaStretchSS}
\newlabel{pfront_130}{{A.8.4a}{121}{\relax }{figure.caption.45}{}}
\newlabel{sub@pfront_130}{{a}{121}{\relax }{figure.caption.45}{}}
\newlabel{pfront_139}{{A.8.4b}{121}{\relax }{figure.caption.45}{}}
\newlabel{sub@pfront_139}{{b}{121}{\relax }{figure.caption.45}{}}
\newlabel{pfront_179}{{A.8.4c}{121}{\relax }{figure.caption.45}{}}
\newlabel{sub@pfront_179}{{c}{121}{\relax }{figure.caption.45}{}}
\newlabel{pfront_191}{{A.8.4d}{121}{\relax }{figure.caption.45}{}}
\newlabel{sub@pfront_191}{{d}{121}{\relax }{figure.caption.45}{}}
\@writefile{lof}{\contentsline {figure}{\numberline {A.8.4}{\ignorespaces Internally pressurised cylinder: progress of the plastic front at different level of applied pressure (plastic zone: red, elastic zone: blue): (a) $P \approx 110 \text  { MPa}$, (b) $P \approx 139$ MPa (c) $P \approx 180 \text  { MPa}$ (d) $P \approx 191$ MPa.\relax }}{121}{figure.caption.45}}
\newlabel{pfront}{{A.8.4}{121}{Internally pressurised cylinder: progress of the plastic front at different level of applied pressure (plastic zone: red, elastic zone: blue): (a) $P \approx 110 \text { MPa}$, (b) $P \approx 139$ MPa (c) $P \approx 180 \text { MPa}$ (d) $P \approx 191$ MPa.\relax }{figure.caption.45}{}}
\@writefile{toc}{\contentsline {subsection}{\numberline {A.8.2}Stretching of a perforated rectangular plate}{121}{subsection.A.8.2}}
\@writefile{lof}{\contentsline {figure}{\numberline {A.8.5}{\ignorespaces Perforated rectangular plate : Geometry\relax }}{122}{figure.caption.46}}
\newlabel{rect_stretch}{{A.8.5}{122}{Perforated rectangular plate : Geometry\relax }{figure.caption.46}{}}
\newlabel{disp_0}{{A.8.6a}{123}{\relax }{figure.caption.47}{}}
\newlabel{sub@disp_0}{{a}{123}{\relax }{figure.caption.47}{}}
\newlabel{disp_25}{{A.8.6b}{123}{\relax }{figure.caption.47}{}}
\newlabel{sub@disp_25}{{b}{123}{\relax }{figure.caption.47}{}}
\newlabel{disp_40}{{A.8.6c}{123}{\relax }{figure.caption.47}{}}
\newlabel{sub@disp_40}{{c}{123}{\relax }{figure.caption.47}{}}
\newlabel{disp_78}{{A.8.6d}{123}{\relax }{figure.caption.47}{}}
\newlabel{sub@disp_78}{{d}{123}{\relax }{figure.caption.47}{}}
\newlabel{disp_995}{{A.8.6e}{123}{\relax }{figure.caption.47}{}}
\newlabel{sub@disp_995}{{e}{123}{\relax }{figure.caption.47}{}}
\newlabel{rect_legend}{{\caption@xref {rect_legend}{ on input line 3887}}{123}{Stretching of a perforated rectangular plate}{figure.caption.47}{}}
\newlabel{sub@rect_legend}{{e}{123}{Stretching of a perforated rectangular plate}{figure.caption.47}{}}
\@writefile{lof}{\contentsline {figure}{\numberline {A.8.6}{\ignorespaces Rectangular perforated plate: deformed state and z-component of the displacement field with prescribed displacement (a) $u_z = 0 \text  { mm}$, (b) $u_z = 0.25 \text  { mm}$, (c) $u_z = 0.40 \text  { mm}$, (d) $u_z = 0.78 \text  { mm}$, (e) $u_z = 0.995 \text  { mm}$.\relax }}{123}{figure.caption.47}}
\newlabel{disp_rect_stretch}{{A.8.6}{123}{Rectangular perforated plate: deformed state and z-component of the displacement field with prescribed displacement (a) $u_z = 0 \text { mm}$, (b) $u_z = 0.25 \text { mm}$, (c) $u_z = 0.40 \text { mm}$, (d) $u_z = 0.78 \text { mm}$, (e) $u_z = 0.995 \text { mm}$.\relax }{figure.caption.47}{}}
\newlabel{pstrain_0}{{A.8.7a}{124}{\relax }{figure.caption.48}{}}
\newlabel{sub@pstrain_0}{{a}{124}{\relax }{figure.caption.48}{}}
\newlabel{pstrain_25}{{A.8.7b}{124}{\relax }{figure.caption.48}{}}
\newlabel{sub@pstrain_25}{{b}{124}{\relax }{figure.caption.48}{}}
\newlabel{pstrain_40}{{A.8.7c}{124}{\relax }{figure.caption.48}{}}
\newlabel{sub@pstrain_40}{{c}{124}{\relax }{figure.caption.48}{}}
\newlabel{pstrain_78}{{A.8.7d}{124}{\relax }{figure.caption.48}{}}
\newlabel{sub@pstrain_78}{{d}{124}{\relax }{figure.caption.48}{}}
\newlabel{pstrain_995}{{A.8.7e}{124}{\relax }{figure.caption.48}{}}
\newlabel{sub@pstrain_995}{{e}{124}{\relax }{figure.caption.48}{}}
\newlabel{rect_pstrain_legend}{{\caption@xref {rect_pstrain_legend}{ on input line 3934}}{124}{Stretching of a perforated rectangular plate}{figure.caption.48}{}}
\newlabel{sub@rect_pstrain_legend}{{e}{124}{Stretching of a perforated rectangular plate}{figure.caption.48}{}}
\@writefile{lof}{\contentsline {figure}{\numberline {A.8.7}{\ignorespaces Rectangular perforated plate: progress of the plastic strains (magnitude) represented at integration points for different levels of prescribed displacement (a) $u_z = 0 \text  { mm}$, (b) $u_z = 0.25 \text  { mm}$, (c) $u_z = 0.40 \text  { mm}$, (d) $u_z = 0.78 \text  { mm}$, (e) $u_z = 0.995 \text  { mm}$.\relax }}{124}{figure.caption.48}}
\newlabel{pstrain_rect_stretch}{{A.8.7}{124}{Rectangular perforated plate: progress of the plastic strains (magnitude) represented at integration points for different levels of prescribed displacement (a) $u_z = 0 \text { mm}$, (b) $u_z = 0.25 \text { mm}$, (c) $u_z = 0.40 \text { mm}$, (d) $u_z = 0.78 \text { mm}$, (e) $u_z = 0.995 \text { mm}$.\relax }{figure.caption.48}{}}
\@writefile{lof}{\contentsline {figure}{\numberline {A.8.8}{\ignorespaces Stretching of a rectangular perforated plate: Reaction displacement diagram for cyclic loading\relax }}{125}{figure.caption.49}}
\newlabel{rect_disp_load}{{A.8.8}{125}{Stretching of a rectangular perforated plate: Reaction displacement diagram for cyclic loading\relax }{figure.caption.49}{}}
\@writefile{toc}{\contentsline {chapter}{\numberline {B}Results for large strains and classical formulation}{126}{appendix.B}}
\@writefile{lof}{\addvspace {10\p@ }}
\@writefile{lot}{\addvspace {10\p@ }}
\@writefile{loa}{\addvspace {10\p@ }}
\@writefile{toc}{\contentsline {section}{\numberline {B.1}Possible applications}{126}{section.B.1}}
\@writefile{toc}{\contentsline {section}{\numberline {B.2}Stretching of a square perforated rubber sheet}{126}{section.B.2}}
\@writefile{lof}{\contentsline {figure}{\numberline {B.2.1}{\ignorespaces Geometry for perforated plate in large strains\relax }}{127}{figure.caption.50}}
\newlabel{geo_square_stretch}{{B.2.1}{127}{Geometry for perforated plate in large strains\relax }{figure.caption.50}{}}
\newlabel{MR_comp_stretch}{{B.2.1}{127}{Stretching of a square perforated rubber sheet}{equation.B.2.1}{}}
\newlabel{large_stretch_0}{{B.2.2a}{128}{\relax }{figure.caption.51}{}}
\newlabel{sub@large_stretch_0}{{a}{128}{\relax }{figure.caption.51}{}}
\newlabel{large_stretch_10}{{B.2.2b}{128}{\relax }{figure.caption.51}{}}
\newlabel{sub@large_stretch_10}{{b}{128}{\relax }{figure.caption.51}{}}
\newlabel{large_stretch_25}{{B.2.2c}{128}{\relax }{figure.caption.51}{}}
\newlabel{sub@large_stretch_25}{{c}{128}{\relax }{figure.caption.51}{}}
\newlabel{large_stretch_50}{{B.2.2d}{128}{\relax }{figure.caption.51}{}}
\newlabel{sub@large_stretch_50}{{d}{128}{\relax }{figure.caption.51}{}}
\newlabel{large_stretch_100}{{B.2.2e}{128}{\relax }{figure.caption.51}{}}
\newlabel{sub@large_stretch_100}{{e}{128}{\relax }{figure.caption.51}{}}
\newlabel{large_stretch_legend}{{\caption@xref {large_stretch_legend}{ on input line 4005}}{128}{Stretching of a square perforated rubber sheet}{figure.caption.51}{}}
\newlabel{sub@large_stretch_legend}{{e}{128}{Stretching of a square perforated rubber sheet}{figure.caption.51}{}}
\@writefile{lof}{\contentsline {figure}{\numberline {B.2.2}{\ignorespaces Axial stretch of perforated square plate in the z-direction for large strains (a) zero displacement (b) 10\% of $u_{\text  {max}}$ (c) 25\% of $u_{\text  {max}}$ (d) 50\% of $u_{\text  {max}}$ (e) 100\% of $u_{\text  {max}}$.\relax }}{128}{figure.caption.51}}
\newlabel{large_rect_stretch}{{B.2.2}{128}{Axial stretch of perforated square plate in the z-direction for large strains (a) zero displacement (b) 10\% of $u_{\text {max}}$ (c) 25\% of $u_{\text {max}}$ (d) 50\% of $u_{\text {max}}$ (e) 100\% of $u_{\text {max}}$.\relax }{figure.caption.51}{}}
\newlabel{stress_stretch_0}{{B.2.3a}{129}{\relax }{figure.caption.52}{}}
\newlabel{sub@stress_stretch_0}{{a}{129}{\relax }{figure.caption.52}{}}
\newlabel{stress_stretch_10}{{B.2.3b}{129}{\relax }{figure.caption.52}{}}
\newlabel{sub@stress_stretch_10}{{b}{129}{\relax }{figure.caption.52}{}}
\newlabel{stress_stretch_25}{{B.2.3c}{129}{\relax }{figure.caption.52}{}}
\newlabel{sub@stress_stretch_25}{{c}{129}{\relax }{figure.caption.52}{}}
\newlabel{stress_stretch_50}{{B.2.3d}{129}{\relax }{figure.caption.52}{}}
\newlabel{sub@stress_stretch_50}{{d}{129}{\relax }{figure.caption.52}{}}
\newlabel{stress_stretch_75}{{B.2.3e}{129}{\relax }{figure.caption.52}{}}
\newlabel{sub@stress_stretch_75}{{e}{129}{\relax }{figure.caption.52}{}}
\newlabel{stress_stretch_100}{{B.2.3f}{129}{\relax }{figure.caption.52}{}}
\newlabel{sub@stress_stretch_100}{{f}{129}{\relax }{figure.caption.52}{}}
\newlabel{large_stretch_stress_legend}{{\caption@xref {large_stretch_stress_legend}{ on input line 4058}}{129}{Stretching of a square perforated rubber sheet}{figure.caption.52}{}}
\newlabel{sub@large_stretch_stress_legend}{{f}{129}{Stretching of a square perforated rubber sheet}{figure.caption.52}{}}
\@writefile{lof}{\contentsline {figure}{\numberline {B.2.3}{\ignorespaces Axial stretch of perforated square plate in the z-direction for large strains at Gauss points (a) zero displacement (b) 10\% of $u_{\text  {max}}$ (c) 25\% of $u_{\text  {max}}$ (d) 50\% of $u_{\text  {max}}$ (e) 100\% of $u_{\text  {max}}$.\relax }}{129}{figure.caption.52}}
\newlabel{large_rect_stretch_stress}{{B.2.3}{129}{Axial stretch of perforated square plate in the z-direction for large strains at Gauss points (a) zero displacement (b) 10\% of $u_{\text {max}}$ (c) 25\% of $u_{\text {max}}$ (d) 50\% of $u_{\text {max}}$ (e) 100\% of $u_{\text {max}}$.\relax }{figure.caption.52}{}}
\citation{Parisch}
\citation{Oden1972}
\@writefile{lot}{\contentsline {table}{\numberline {B.1}{\ignorespaces Convergence behaviour for perforated plate problem\relax }}{130}{table.caption.53}}
\newlabel{Conv_perf}{{B.1}{130}{Convergence behaviour for perforated plate problem\relax }{table.caption.53}{}}
\@writefile{lof}{\contentsline {figure}{\numberline {B.2.4}{\ignorespaces Reaction-displacement path for the perforated plate problem in large strains.\relax }}{130}{figure.caption.54}}
\newlabel{large_rect_disp_load_out}{{B.2.4}{130}{Reaction-displacement path for the perforated plate problem in large strains.\relax }{figure.caption.54}{}}
\@writefile{toc}{\contentsline {chapter}{\numberline {C}Eigenvalues of a 3 by 3 matrix}{132}{appendix.C}}
\@writefile{lof}{\addvspace {10\p@ }}
\@writefile{lot}{\addvspace {10\p@ }}
\@writefile{loa}{\addvspace {10\p@ }}
\@writefile{loa}{\contentsline {algocf}{\numberline {1}{\ignorespaces  algorithm for eigenvalues of 3 by 3 matrices\relax }}{133}{algocf.1}}
\@writefile{toc}{\contentsline {chapter}{\numberline {D}Algorithm for the eigenprojections of $\mathbf  {X}$}{134}{appendix.D}}
\@writefile{lof}{\addvspace {10\p@ }}
\@writefile{lot}{\addvspace {10\p@ }}
\@writefile{loa}{\addvspace {10\p@ }}
\@writefile{loa}{\contentsline {algocf}{\numberline {2}{\ignorespaces  algorithm for eigenprojections of 3 by 3 matrices\relax }}{134}{algocf.2}}
\citation{DeSouzaDerLogarithm}
\citation{MieheLog}
\@writefile{toc}{\contentsline {chapter}{\numberline {E}Derivative of tensor logarithm}{135}{appendix.E}}
\@writefile{lof}{\addvspace {10\p@ }}
\@writefile{lot}{\addvspace {10\p@ }}
\@writefile{loa}{\addvspace {10\p@ }}
\newlabel{der_log}{{E.0.1}{135}{Derivative of tensor logarithm}{equation.E.0.1}{}}
\bibstyle{plain}
\bibdata{report}
\bibcite{PetscTS}{{1}{2018}{{Abhyankar et~al.}}{{Abhyankar, Brown, Constantinescu, Ghosh, Smith, and Zhang}}}
\bibcite{AdFour}{{2}{2003}{{Adams and Fournier}}{{}}}
\bibcite{AinsOrient}{{3}{2003}{{Ainsworth and Coyle}}{{}}}
\bibcite{Allaire}{{4}{2012}{{Allaire}}{{}}}
\bibcite{amara1979}{{5}{1979}{{Amara and Thomas}}{{}}}
\bibcite{Argyris}{{6}{1954}{{Argyris}}{{}}}
\bibcite{ArtBrez}{{7}{1985}{{Arnold and Brezzi}}{{}}}
\bibcite{atluri1995}{{8}{1995}{{Atluri and Cazzani}}{{}}}
\bibcite{BABUSKA}{{9}{1970/71}{{Babushka}}{{}}}
\bibcite{petsc-web-page}{{10}{2022}{{Balay et~al.}}{{Balay, Abhyankar, Adams, Benson, Brown, Brune, Buschelman, Constantinescu, Dalcin, Dener, Eijkhout, Faibussowitsch, Gropp, Hapla, Isaac, Jolivet, Karpeev, Kaushik, Knepley, Kong, Kruger, May, McInnes, Mills, Mitchell, Munson, Roman, Rupp, Sanan, Sarich, Smith, Zampini, Zhang, Zhang, and Zhang}}}
\bibcite{JBall}{{11}{1976}{{Ball}}{{}}}
\bibcite{Bathe1996}{{12}{1996}{{Bathe}}{{}}}
\bibcite{SchurStable}{{13}{1999}{{Brenner}}{{}}}
\bibcite{Brezisbook}{{14}{2011}{{Brezis}}{{}}}
\bibcite{brezzi1984}{{15}{1984}{{Brezzi et~al.}}{{Brezzi, Douglas, and Marini}}}
\bibcite{Carrera}{{16}{2017}{{Carrera et~al.}}{{Carrera, {de Miguel}, and Pagani}}}
\bibcite{HistRodrigues}{{17}{1989}{{Cheng and Gupta}}{{}}}
\bibcite{CiarletTheo}{{18}{1988}{{Ciarlet}}{{}}}
\bibcite{Clough2}{{19}{1960}{{Clough}}{{}}}
\bibcite{Clough1}{{20}{1990}{{Clough}}{{}}}
\bibcite{Clough3}{{21}{1962}{{Clough and Wilson}}{{}}}
\bibcite{CockburnArt}{{22}{2010}{{Cockburn et~al.}}{{Cockburn, Gopalakrishnan, and Guzman}}}
\bibcite{Courant}{{23}{1942}{{Courant}}{{}}}
\bibcite{DattoliRicciCesarano}{{24}{2001}{{Dattoli et~al.}}{{Dattoli, Ricci, and Cesarano}}}
\bibcite{DeSouzaDerLogarithm}{{25}{2008{}}{{de~Souza et~al.}}{{de~Souza, Peric, and Owen}}}
\bibcite{DeSouzaFunctions}{{26}{2008{}}{{de~Souza et~al.}}{{de~Souza, Peric, and Owen}}}
\bibcite{DeSouzaPipe}{{27}{2008{}}{{de~Souza et~al.}}{{de~Souza, Peric, and Owen}}}
\bibcite{DeSouzaPlastAlgo}{{28}{2008{}}{{de~Souza et~al.}}{{de~Souza, Peric, and Owen}}}
\bibcite{DeSouzaPlastTheo}{{29}{2008{}}{{de~Souza et~al.}}{{de~Souza, Peric, and Owen}}}
\bibcite{DeSouzaStretchSS}{{30}{2008{}}{{de~Souza et~al.}}{{de~Souza, Peric, and Owen}}}
\bibcite{Fraejis}{{31}{1965}{{de~Veubeke}}{{}}}
\bibcite{Delsarte}{{32}{1991}{{Delsarte et~al.}}{{Delsarte, Goethals, and Seidel}}}
\bibcite{Hitch}{{33}{2012}{{Di~Nezza et~al.}}{{Di~Nezza, Palatucci, and Valdinoci}}}
\bibcite{Douglas1985}{{34}{1985}{{Douglas and Roberts}}{{}}}
\bibcite{duvautinequalities}{{35}{1976}{{Duvaut and Lions}}{{}}}
\bibcite{ErnLip}{{36}{2016}{{Ern and Guermond}}{{}}}
\bibcite{ErnG}{{37}{2021{}}{{Ern and Guermond}}{{}}}
\bibcite{ErnSobolev}{{38}{2021{}}{{Ern and Guermond}}{{}}}
\bibcite{Evans}{{39}{2003}{{Evans}}{{}}}
\bibcite{Falk1980}{{40}{1980}{{Falk and Osborn}}{{}}}
\bibcite{farhloul}{{41}{1997}{{Farhloul and Fortin}}{{}}}
\bibcite{Felippa}{{42}{2005}{{Felippa and Haugen}}{{}}}
\bibcite{fortney}{{43}{2018}{{Fortney}}{{}}}
\bibcite{DemkowiczShape}{{44}{2015}{{Fuentes et~al.}}{{Fuentes, Keith, Demkowicz, and Nagaraj}}}
\bibcite{gagliardo}{{45}{1957}{{Gagliardo}}{{}}}
\bibcite{TheoTop}{{46}{1999}{{Gamelin and Greene}}{{}}}
\bibcite{Gil}{{47}{2015}{{Gil et~al.}}{{Gil, Bonet, and Ortigosa}}}
\bibcite{Gopala}{{48}{2012}{{Gopalakrishnan and Guzman}}{{}}}
\bibcite{Grisvard}{{49}{1992}{{Grisvard}}{{}}}
\bibcite{GuzmanArt}{{50}{2010}{{Guzman}}{{}}}
\bibcite{SchurDomain}{{51}{2005}{{Hackbusch et~al.}}{{Hackbusch, Khoromskij, and Kriemann}}}
\bibcite{Reddy}{{52}{2012}{{Han and Reddy}}{{}}}
\bibcite{HillPipe}{{53}{1950}{{Hill}}{{}}}
\bibcite{holzap}{{54}{2000}{{Holzapfel}}{{}}}
\bibcite{hughes1977}{{55}{1977}{{Hughes et~al.}}{{Hughes, Taylor, and Kanoknukulchai}}}
\bibcite{ChoIm}{{56}{2020}{{Im et~al.}}{{Im, Cho, Kee, and Shin}}}
\bibcite{jirasek2001}{{57}{2001}{{Jirasek and Bazant}}{{}}}
\bibcite{mofemJoss2020}{{58}{2020}{{Kaczmarczyk et~al.}}{{Kaczmarczyk, Ullah, Lewandowski, Meng, Zhou, Athanasiadis, Nguyen, Chalons-Mouriesse, Richardson, Miur, Shvarts, Wakeni, and Pearce}}}
\bibcite{kantorovich}{{59}{2016}{{Kantorovich and Akilov}}{{}}}
\bibcite{Katz}{{60}{1982}{{Katz}}{{}}}
\bibcite{ThermoIntro}{{61}{2008}{{Kondepudi}}{{}}}
\bibcite{LeeTop}{{62}{2013}{{Lee}}{{}}}
\bibcite{KarolMultifield}{{63}{2023}{{Lewandowski et~al.}}{{Lewandowski, Barbera, Blackwell, Roohi, Athanasiadis, McBride, Steinmann, Pearce, and Kaczmarczyk}}}
\bibcite{SecondLaw}{{64}{1999}{{Lieb and Yngvason}}{{}}}
\bibcite{Lovadina2006}{{65}{2006}{{Lovadina and Stenberg}}{{}}}
\bibcite{lubliner1992}{{66}{1992}{{Lubliner and Moran}}{{}}}
\bibcite{markvorsen}{{67}{2006}{{Markvorsen}}{{}}}
\bibcite{marsden1984}{{68}{1984}{{Marsden et~al.}}{{Marsden, Hughes, and Carlson}}}
\bibcite{martinec2019}{{69}{2019}{{Martinec}}{{}}}
\bibcite{MATOLCSI}{{70}{2006}{{Matolcsi and V\IeC {\'a}n}}{{}}}
\bibcite{mclean}{{71}{2000}{{McLean}}{{}}}
\bibcite{MeySer}{{72}{1964}{{Meyers and Serrin}}{{}}}
\bibcite{MieheLog}{{73}{2014}{{Miehe et~al.}}{{Miehe, Welschinger, and Aldakheel}}}
\bibcite{Morley1989}{{74}{1989}{{Morley}}{{}}}
\bibcite{MunkresTop}{{75}{1974}{{Munkres}}{{}}}
\bibcite{NakaTop}{{76}{2003}{{Nakahara}}{{}}}
\bibcite{Necas1962}{{77}{1962}{{Necas}}{{}}}
\bibcite{Nedelec1980}{{78}{1980}{{Nedelec}}{{}}}
\bibcite{Oden1972}{{79}{1972}{{Oden}}{{}}}
\bibcite{Parisch}{{80}{1986}{{Parisch}}{{}}}
\bibcite{Rudin}{{81}{1987}{{Rudin}}{{}}}
\bibcite{silhavy2013}{{82}{2013}{{Silhavy}}{{}}}
\bibcite{SimoPlastAlgo}{{83}{1998{}}{{Simo and Hughes}}{{}}}
\bibcite{SimoPlastTheo}{{84}{1998{}}{{Simo and Hughes}}{{}}}
\bibcite{Stampa}{{85}{1963}{{Stampacchia}}{{}}}
\bibcite{Stein}{{86}{1970}{{Stein}}{{}}}
\bibcite{Stenberg1988}{{87}{1988}{{Stenberg}}{{}}}
\bibcite{stenberglow}{{88}{1997}{{Stenberg}}{{}}}
\bibcite{STOLZE}{{89}{1978}{{Stolze}}{{}}}
\bibcite{suquet1981equations}{{90}{1981}{{Suquet}}{{}}}
\bibcite{Sussman1987}{{91}{1987}{{Sussman and Bathe}}{{}}}
\bibcite{Tartar}{{92}{2007}{{Tartar}}{{}}}
\bibcite{Turner}{{93}{1956}{{Turner et~al.}}{{Turner, Clough, Martin, and Topp}}}
\bibcite{Whitney}{{94}{1957}{{Whitney}}{{}}}
\bibcite{Wriggers}{{95}{2011}{{Wriggers et~al.}}{{Wriggers, Schroder, and Balzani}}}
\bibcite{Zappino}{{96}{2018}{{Zappino et~al.}}{{Zappino, Li, Pagani, Carrera, and {de Miguel}}}}
\bibcite{PetscTSsolver}{{97}{2022{}}{{Zhang et~al.}}{{Zhang, Constantinescu, and Smith}}}
\bibcite{PetscParallel}{{98}{2022{}}{{Zhang et~al.}}{{Zhang, Brown, Balay, Faibussowitsch, Knepley, Marin, Mills, Munson, Smith, and Zampini}}}
\bibcite{zienkiewicz1965}{{99}{1965}{{Zienkiewicz and Cheung}}{{}}}
\bibcite{zienkiewicz1967finite}{{100}{1967}{{Zienkiewicz and Cheung}}{{}}}
\bibcite{zienkiewicz2000finite}{{101}{2000}{{Zienkiewicz and Taylor}}{{}}}
