0 0
0.0596429 0.27026
0.150441 0.522209
0.257058 0.748869
0.368962 0.947411
0.47915 1.11783
0.583146 1.26182
0.678246 1.38191
0.762989 1.48076
0.8368 1.56097
0.899618 1.62509
0.951559 1.67538
0.992746 1.71354
1.02275 1.74062
1.0404 1.75625
1.04573 1.75981
