0 0 0
20 0.270788 20
40 0.524732 40
60 0.754853 60
80 0.957791 80
100 1.13286 100
120 1.28121 120
140 1.40499 140
160 1.50679 160
180 1.58918 180
200 1.65472 200
220 1.70582 220
240 1.74452 240
260 1.77229 260
280 1.78986 280
300 1.79663 300
