0 0 0
20 0.27026 20
40 0.522209 40
60 0.748869 60
80 0.947411 80
100 1.11783 100
120 1.26182 120
140 1.38191 140
160 1.48076 160
180 1.56097 180
200 1.62509 200
220 1.67538 220
240 1.71354 240
260 1.74062 260
280 1.75625 280
300 1.75981 300
