\relax 
\providecommand\hyper@newdestlabel[2]{}
\providecommand\HyperFirstAtBeginDocument{\AtBeginDocument}
\HyperFirstAtBeginDocument{\ifx\hyper@anchor\@undefined
\global\let\oldcontentsline\contentsline
\gdef\contentsline#1#2#3#4{\oldcontentsline{#1}{#2}{#3}}
\global\let\oldnewlabel\newlabel
\gdef\newlabel#1#2{\newlabelxx{#1}#2}
\gdef\newlabelxx#1#2#3#4#5#6{\oldnewlabel{#1}{{#2}{#3}}}
\AtEndDocument{\ifx\hyper@anchor\@undefined
\let\contentsline\oldcontentsline
\let\newlabel\oldnewlabel
\fi}
\fi}
\global\let\hyper@last\relax 
\gdef\HyperFirstAtBeginDocument#1{#1}
\providecommand\HyField@AuxAddToFields[1]{}
\providecommand\HyField@AuxAddToCoFields[2]{}
\bibstyle{biblatex}
\bibdata{Mixed_Finite_Element_Method-blx,Citation_Mixed}
\citation{biblatex-control}
\abx@aux@refcontext{nyt/global//global/global}
\@writefile{toc}{\boolfalse {citerequest}\boolfalse {citetracker}\boolfalse {pagetracker}\boolfalse {backtracker}\relax }
\@writefile{lof}{\boolfalse {citerequest}\boolfalse {citetracker}\boolfalse {pagetracker}\boolfalse {backtracker}\relax }
\@writefile{lot}{\boolfalse {citerequest}\boolfalse {citetracker}\boolfalse {pagetracker}\boolfalse {backtracker}\relax }
\babel@aux{english}{}
\@writefile{toc}{\contentsline {chapter}{Declaration of Authorship}{iii}{section*.1}}
\@writefile{toc}{\contentsline {chapter}{Abstract}{vii}{section*.2}}
\@writefile{toc}{\contentsline {chapter}{Acknowledgements}{ix}{section*.3}}
\gdef \LT@i {\LT@entry 
    {1}{39.7285pt}\LT@entry 
    {1}{129.90208pt}}
\gdef \LT@ii {\LT@entry 
    {1}{81.41339pt}\LT@entry 
    {1}{30.08867pt}\LT@entry 
    {1}{156.7001pt}}
\gdef \LT@iii {\LT@entry 
    {1}{20.5509pt}\LT@entry 
    {1}{96.99112pt}\LT@entry 
    {1}{58.63933pt}}
\@input{Chapters/Chapter1.aux}
\citation{Guzman2010}
\abx@aux@cite{Guzman2010}
\abx@aux@segm{0}{0}{Guzman2010}
\abx@aux@page{1}{1}
\citation{Cockburn2010}
\abx@aux@cite{Cockburn2010}
\abx@aux@segm{0}{0}{Cockburn2010}
\citation{Douglas2007}
\abx@aux@cite{Douglas2007}
\abx@aux@segm{0}{0}{Douglas2007}
\citation{bubbleMat}
\abx@aux@cite{bubbleMat}
\abx@aux@segm{0}{0}{bubbleMat}
\abx@aux@page{2}{8}
\abx@aux@page{3}{8}
\abx@aux@page{4}{8}
\abx@aux@refcontextdefaultsdone
\abx@aux@defaultrefcontext{0}{Douglas2007}{nyt/global//global/global}
\abx@aux@defaultrefcontext{0}{Cockburn2010}{nyt/global//global/global}
\abx@aux@defaultrefcontext{0}{bubbleMat}{nyt/global//global/global}
\abx@aux@defaultrefcontext{0}{Guzman2010}{nyt/global//global/global}
\@writefile{toc}{\contentsline {chapter}{References}{11}{appendix*.111}}
\abx@aux@page{5}{11}
\abx@aux@page{6}{11}
\abx@aux@page{7}{11}
\abx@aux@page{8}{11}
