0 0
-0.408363 -0.374127
-0.997494 -0.699877
-1.65895 -0.967018
-2.33633 -1.17409
-3.00176 -1.32451
-3.64306 -1.42417
-4.25733 -1.47987
-4.85063 -1.49799
-5.43638 -1.48369
-6.02776 -1.44159
-6.02776 -1.44159
