0 0
0.0501175 0.270782
0.128719 0.525955
0.224244 0.758682
0.327905 0.965252
0.433206 1.14444
0.535504 1.29683
0.631627 1.42423
0.71954 1.52904
0.798054 1.61396
0.86653 1.68164
0.924552 1.73451
0.971818 1.77434
1.00806 1.80239
1.03283 1.81936
1.04601 1.82529
