0 0 0
20 0.270782 20
40 0.525955 40
60 0.758682 60
80 0.965252 80
100 1.14444 100
120 1.29683 120
140 1.42423 140
160 1.52904 160
180 1.61396 180
200 1.68164 200
220 1.73451 220
240 1.77434 240
260 1.80239 260
280 1.81936 280
300 1.82529 300
