0 0
-0.312434 -0.377988
-0.79979 -0.71561
-1.38493 -1.00021
-2.01699 -1.22663
-2.66297 -1.39511
-3.30248 -1.50955
-3.924 -1.57606
-4.52232 -1.60171
-5.09837 -1.59343
-5.65742 -1.55741
-6.20782 -1.49883
-6.76031 -1.42187
-6.76031 -1.42187
