\relax 
\providecommand\hyper@newdestlabel[2]{}
\@writefile{toc}{\contentsline {chapter}{\numberline {1}Elasticity in Large strains with classical formulation}{1}{chapter.14}}
\@writefile{lof}{\addvspace {10\p@ }}
\@writefile{lot}{\addvspace {10\p@ }}
\newlabel{Chapter1}{{1}{1}{Elasticity in Large strains with classical formulation}{chapter.14}{}}
\newlabel{Chapter1@cref}{{[chapter][1][]1}{[1][1][]1}}
\@writefile{toc}{\contentsline {section}{\numberline {1.1}Laws of thermodynamics}{1}{section.15}}
\@writefile{toc}{\contentsline {section}{\numberline {1.2}Laws of Thermodynamics}{1}{section.16}}
\@writefile{toc}{\contentsline {subsection}{\numberline {1.2.1}Thermodynamics Principles}{1}{subsection.17}}
\newlabel{Thermo_Principles}{{1.2.1}{1}{Thermodynamics Principles}{subsection.17}{}}
\newlabel{Thermo_Principles@cref}{{[subsection][1][1,2]1.2.1}{[1][1][]1}}
\@writefile{toc}{\contentsline {subsubsection}{The first law of thermodynamics}{1}{section*.18}}
\newlabel{law1}{{1.1}{1}{The first law of thermodynamics}{equation.19}{}}
\newlabel{law1@cref}{{[equation][1][1]1.1}{[1][1][]1}}
\newlabel{energy}{{1.2}{1}{The first law of thermodynamics}{equation.20}{}}
\newlabel{energy@cref}{{[equation][2][1]1.2}{[1][1][]1}}
\newlabel{ext_forces}{{1.3}{1}{The first law of thermodynamics}{equation.22}{}}
\newlabel{ext_forces@cref}{{[equation][3][1]1.3}{[1][1][]1}}
\newlabel{ext_load}{{1.6}{2}{The first law of thermodynamics}{equation.26}{}}
\newlabel{ext_load@cref}{{[equation][6][1]1.6}{[1][2][]2}}
\newlabel{heat}{{1.7}{2}{The first law of thermodynamics}{equation.27}{}}
\newlabel{heat@cref}{{[equation][7][1]1.7}{[1][2][]2}}
\newlabel{first_law}{{1.9}{2}{The first law of thermodynamics}{equation.29}{}}
\newlabel{first_law@cref}{{[equation][9][1]1.9}{[1][2][]2}}
\@writefile{toc}{\contentsline {subsubsection}{The second law of thermodynamics}{2}{section*.32}}
\newlabel{thermo_inequality}{{1.15}{3}{The second law of thermodynamics}{equation.37}{}}
\newlabel{thermo_inequality@cref}{{[equation][15][1]1.15}{[1][3][]3}}
\newlabel{Helmoltz}{{1.16}{3}{The second law of thermodynamics}{equation.38}{}}
\newlabel{Helmoltz@cref}{{[equation][16][1]1.16}{[1][3][]3}}
\newlabel{Clausius_first}{{1.17}{3}{The second law of thermodynamics}{equation.39}{}}
\newlabel{Clausius_first@cref}{{[equation][17][1]1.17}{[1][3][]3}}
\newlabel{Clausius-Duhem}{{1.18}{3}{The second law of thermodynamics}{equation.40}{}}
\newlabel{Clausius-Duhem@cref}{{[equation][18][1]1.18}{[1][3][]3}}
\@writefile{toc}{\contentsline {subsection}{\numberline {1.2.2}Thermodynamics with internal variables}{3}{subsection.41}}
\newlabel{set_var}{{1.19}{3}{Thermodynamics with internal variables}{equation.42}{}}
\newlabel{set_var@cref}{{[equation][19][1]1.19}{[1][3][]3}}
\newlabel{material_psi}{{1.21}{3}{Thermodynamics with internal variables}{equation.44}{}}
\newlabel{material_psi@cref}{{[equation][21][1]1.21}{[1][3][]3}}
\newlabel{thermo_var1}{{1.24}{4}{Thermodynamics with internal variables}{equation.47}{}}
\newlabel{thermo_var1@cref}{{[equation][24][1]1.24}{[1][4][]4}}
\newlabel{const_eq}{{1.28}{4}{Thermodynamics with internal variables}{equation.51}{}}
\newlabel{const_eq@cref}{{[equation][28][1]1.28}{[1][4][]4}}
\@writefile{toc}{\contentsline {subsection}{\numberline {1.2.3}Theory of hyperelasticity}{5}{subsection.52}}
\@writefile{toc}{\contentsline {subsubsection}{Overview}{5}{section*.53}}
\newlabel{const_Piola}{{1.30}{5}{Overview}{equation.55}{}}
\newlabel{const_Piola@cref}{{[equation][30][1]1.30}{[1][5][]5}}
\newlabel{const_Kirchhoff}{{1.31}{5}{Overview}{equation.56}{}}
\newlabel{const_Kirchhoff@cref}{{[equation][31][1]1.31}{[1][5][]5}}
\newlabel{material}{{1.41}{6}{Overview}{equation.66}{}}
\newlabel{material@cref}{{[equation][41][1]1.41}{[1][6][]6}}
\newlabel{First_law}{{1.44}{6}{Overview}{equation.69}{}}
\newlabel{First_law@cref}{{[equation][44][1]1.44}{[1][6][]6}}
\@writefile{toc}{\contentsline {subsubsection}{Different type of functionals}{8}{section*.82}}
\@writefile{toc}{\contentsline {subsection}{\numberline {1.2.4}Possible applications}{8}{subsection.83}}
\@setckpt{Chapters/Chapter1}{
\setcounter{page}{9}
\setcounter{equation}{56}
\setcounter{enumi}{0}
\setcounter{enumii}{0}
\setcounter{enumiii}{0}
\setcounter{enumiv}{0}
\setcounter{footnote}{3}
\setcounter{mpfootnote}{0}
\setcounter{part}{0}
\setcounter{chapter}{1}
\setcounter{section}{2}
\setcounter{subsection}{4}
\setcounter{subsubsection}{0}
\setcounter{paragraph}{0}
\setcounter{subparagraph}{0}
\setcounter{figure}{0}
\setcounter{table}{0}
\setcounter{LT@tables}{3}
\setcounter{LT@chunks}{1}
\setcounter{ContinuedFloat}{0}
\setcounter{Item}{0}
\setcounter{Hfootnote}{3}
\setcounter{bookmark@seq@number}{14}
\setcounter{endNonectr}{2}
\setcounter{currNonectr}{0}
\setcounter{proof}{0}
\setcounter{currproofctr}{0}
\setcounter{endproofctr}{0}
\setcounter{parentequation}{0}
\setcounter{subfigure}{0}
\setcounter{subtable}{0}
\setcounter{currtheoctr}{0}
\setcounter{endtheoctr}{0}
\setcounter{theo}{0}
\setcounter{currdfnctr}{0}
\setcounter{enddfnctr}{0}
\setcounter{dfn}{0}
\setcounter{currcoroctr}{0}
\setcounter{endcoroctr}{0}
\setcounter{coro}{0}
\setcounter{currprimctr}{0}
\setcounter{endprimctr}{0}
\setcounter{prim}{0}
\setcounter{currproctr}{0}
\setcounter{endproctr}{0}
\setcounter{pro}{0}
\setcounter{currlemctr}{0}
\setcounter{endlemctr}{0}
\setcounter{lem}{0}
\setcounter{tabx@nest}{0}
\setcounter{listtotal}{0}
\setcounter{listcount}{0}
\setcounter{liststart}{0}
\setcounter{liststop}{0}
\setcounter{citecount}{0}
\setcounter{citetotal}{0}
\setcounter{multicitecount}{0}
\setcounter{multicitetotal}{0}
\setcounter{instcount}{0}
\setcounter{maxnames}{1}
\setcounter{minnames}{1}
\setcounter{maxitems}{3}
\setcounter{minitems}{1}
\setcounter{citecounter}{0}
\setcounter{savedcitecounter}{0}
\setcounter{uniquelist}{0}
\setcounter{uniquename}{0}
\setcounter{refsection}{0}
\setcounter{refsegment}{0}
\setcounter{maxextratitle}{0}
\setcounter{maxextratitleyear}{0}
\setcounter{maxextradate}{0}
\setcounter{maxextraalpha}{0}
\setcounter{abbrvpenalty}{50}
\setcounter{highnamepenalty}{50}
\setcounter{lownamepenalty}{25}
\setcounter{maxparens}{3}
\setcounter{parenlevel}{0}
\setcounter{mincomprange}{10}
\setcounter{maxcomprange}{100000}
\setcounter{mincompwidth}{1}
\setcounter{afterword}{0}
\setcounter{savedafterword}{0}
\setcounter{annotator}{0}
\setcounter{savedannotator}{0}
\setcounter{author}{0}
\setcounter{savedauthor}{0}
\setcounter{bookauthor}{0}
\setcounter{savedbookauthor}{0}
\setcounter{commentator}{0}
\setcounter{savedcommentator}{0}
\setcounter{editor}{0}
\setcounter{savededitor}{0}
\setcounter{editora}{0}
\setcounter{savededitora}{0}
\setcounter{editorb}{0}
\setcounter{savededitorb}{0}
\setcounter{editorc}{0}
\setcounter{savededitorc}{0}
\setcounter{foreword}{0}
\setcounter{savedforeword}{0}
\setcounter{holder}{0}
\setcounter{savedholder}{0}
\setcounter{introduction}{0}
\setcounter{savedintroduction}{0}
\setcounter{namea}{0}
\setcounter{savednamea}{0}
\setcounter{nameb}{0}
\setcounter{savednameb}{0}
\setcounter{namec}{0}
\setcounter{savednamec}{0}
\setcounter{translator}{0}
\setcounter{savedtranslator}{0}
\setcounter{shortauthor}{0}
\setcounter{savedshortauthor}{0}
\setcounter{shorteditor}{0}
\setcounter{savedshorteditor}{0}
\setcounter{labelname}{0}
\setcounter{savedlabelname}{0}
\setcounter{institution}{0}
\setcounter{savedinstitution}{0}
\setcounter{lista}{0}
\setcounter{savedlista}{0}
\setcounter{listb}{0}
\setcounter{savedlistb}{0}
\setcounter{listc}{0}
\setcounter{savedlistc}{0}
\setcounter{listd}{0}
\setcounter{savedlistd}{0}
\setcounter{liste}{0}
\setcounter{savedliste}{0}
\setcounter{listf}{0}
\setcounter{savedlistf}{0}
\setcounter{location}{0}
\setcounter{savedlocation}{0}
\setcounter{organization}{0}
\setcounter{savedorganization}{0}
\setcounter{origlocation}{0}
\setcounter{savedoriglocation}{0}
\setcounter{origpublisher}{0}
\setcounter{savedorigpublisher}{0}
\setcounter{publisher}{0}
\setcounter{savedpublisher}{0}
\setcounter{language}{0}
\setcounter{savedlanguage}{0}
\setcounter{origlanguage}{0}
\setcounter{savedoriglanguage}{0}
\setcounter{pageref}{0}
\setcounter{savedpageref}{0}
\setcounter{textcitecount}{0}
\setcounter{textcitetotal}{0}
\setcounter{textcitemaxnames}{0}
\setcounter{biburlnumpenalty}{0}
\setcounter{biburlucpenalty}{0}
\setcounter{biburllcpenalty}{0}
\setcounter{smartand}{1}
\setcounter{bbx:relatedcount}{0}
\setcounter{bbx:relatedtotal}{0}
\setcounter{section@level}{2}
}
