0 0 0
20 0.27132 20
40 0.527037 40
60 0.760278 60
80 0.967317 80
100 1.14692 100
120 1.29968 120
140 1.42737 140
160 1.53237 160
180 1.61718 180
200 1.68432 200
220 1.73627 220
240 1.77531 240
260 1.80328 260
280 1.82113 280
300 1.82828 300
