0 0
0.0546089 0.270995
0.139175 0.525139
0.240382 0.755445
0.348546 0.958545
0.456824 1.13374
0.560552 1.28216
0.656693 1.40596
0.743396 1.50774
0.819676 1.59009
0.885181 1.6555
0.939905 1.70638
0.983887 1.74498
1.017 1.77257
1.03844 1.78886
1.04785 1.79281
