0 0 0
20 0.271425 20
40 0.527241 40
60 0.760574 60
80 0.967694 80
100 1.14736 100
120 1.30016 120
140 1.42788 140
160 1.53289 160
180 1.61777 180
200 1.68499 200
220 1.73698 220
240 1.77606 240
260 1.80411 260
280 1.82191 280
300 1.82893 300
