\relax 
\catcode `:\active 
\catcode `;\active 
\catcode `!\active 
\catcode `?\active 
\babel@aux{english}{}
\babel@aux{english}{}
\citation{ConservationLaws2001}
\citation{SteinmannConfigurational}
\citation{Soper}
\citation{mofem}
\citation{DeSouzaMathematical}
\citation{Simo1998Numerics1}
\citation{Simo1998Numerics2}
\citation{Simo1998Theory}
\citation{Simo19981D}
\@writefile{toc}{\contentsline {chapter}{\numberline {1}Small Strain Plasticity Theory}{5}}
\@writefile{lof}{\addvspace {10\p@ }}
\@writefile{lot}{\addvspace {10\p@ }}
\@writefile{toc}{\contentsline {section}{\numberline {1.1}A physical model for small strain plasticity}{5}}
\newlabel{Kuhn}{{1.1.11}{6}}
\newlabel{Plastic_Dissipation}{{1.1.17}{7}}
\@writefile{toc}{\contentsline {section}{\numberline {1.2}Deriving the plastic multiplier}{7}}
\@writefile{toc}{\contentsline {section}{\numberline {1.3}Some plastic models}{8}}
\@writefile{toc}{\contentsline {subsection}{\numberline {1.3.1}Von Mises Plastic model}{8}}
\@writefile{toc}{\contentsline {subsection}{\numberline {1.3.2}Tresca Plastic model}{8}}
\newlabel{Tresca}{{1.3.2}{8}}
\@writefile{toc}{\contentsline {subsection}{\numberline {1.3.3}Mohr Coulomb Plastic model}{9}}
\@writefile{lof}{\contentsline {figure}{\numberline {1.31}{\ignorespaces The Mohr-Coulomb criterion. Mohr plane representation\relax }}{9}}
\providecommand*\caption@xref[2]{\@setref\relax\@undefined{#1}}
\newlabel{Mohr_Coulomb}{{1.31}{9}}
\@writefile{toc}{\contentsline {subsection}{\numberline {1.3.4}Drucker-Prager Plastic model}{9}}
\@writefile{toc}{\contentsline {section}{\numberline {1.4}Flow rules}{9}}
\@writefile{toc}{\contentsline {subsection}{\numberline {1.4.1}Associative Von Mises}{9}}
\@writefile{toc}{\contentsline {subsection}{\numberline {1.4.2}Associative and non-associative Tresca}{10}}
\@writefile{lof}{\contentsline {figure}{\numberline {1.41}{\ignorespaces The associative Tresca flow rule\relax }}{10}}
\newlabel{Right_Corner}{{1.41}{10}}
\@writefile{toc}{\contentsline {subsection}{\numberline {1.4.3}Associative and non-associative Mohr-Coulomb}{11}}
\@writefile{lof}{\contentsline {figure}{\numberline {1.42}{\ignorespaces The Mohr\IeC {\textendash }Coulomb flow rule; (a) faces and edges, and (b) apex.\relax }}{11}}
\newlabel{Mohr_Right_Corner}{{1.42}{11}}
\@writefile{toc}{\contentsline {subsection}{\numberline {1.4.4}Associative and non associative Drucker-Prager}{12}}
\citation{DeSouzaMathematical}
\@writefile{toc}{\contentsline {section}{\numberline {1.5}Principle of maximum plastic Dissipation}{13}}
\@writefile{toc}{\contentsline {section}{\numberline {1.6}Hardening}{13}}
\@writefile{toc}{\contentsline {subsection}{\numberline {1.6.1}Perfect Plasticity}{13}}
\@writefile{lof}{\contentsline {figure}{\numberline {1.61}{\ignorespaces Perfect plasticity. Uniaxial test and $\pi $-plane representation.\relax }}{13}}
\newlabel{Perfect_Plasticity}{{1.61}{13}}
\@writefile{toc}{\contentsline {subsection}{\numberline {1.6.2}Isotropic Hardening}{14}}
\@writefile{lof}{\contentsline {figure}{\numberline {1.62}{\ignorespaces Isotropic Hardening. Uniaxial test and $\pi $-plane representation.\relax }}{14}}
\newlabel{Isotropic_Hardening}{{1.62}{14}}
\citation{Simo1998Numerics1}
\citation{Simo1998Numerics2}
\citation{Taylor&Zien1}
\citation{Taylor&Zien2}
\@writefile{toc}{\contentsline {chapter}{\numberline {2}Small Strain Plasticity : Numerical Implementation }{16}}
\@writefile{lof}{\addvspace {10\p@ }}
\@writefile{lot}{\addvspace {10\p@ }}
\@writefile{toc}{\contentsline {section}{\numberline {2.1}Elasto-Plastic beam in 1D using Matlab}{16}}
\@writefile{lof}{\contentsline {figure}{\numberline {2.11}{\ignorespaces Return-mapping algorithm for Rate-Independent, 1-D plasticity. Isotropic hardening\relax }}{17}}
\newlabel{Algorithm1}{{2.11}{17}}
\@writefile{lof}{\contentsline {figure}{\numberline {2.12}{\ignorespaces Linear isotropic hardening simulation in a 1D-beam in traction\relax }}{18}}
\newlabel{matlab_1D}{{2.12}{18}}
\citation{mofem}
\@writefile{lof}{\contentsline {figure}{\numberline {2.13}{\ignorespaces Loading and unloading of an elasto-plastic 1D-beam with linear isotropic hardening \relax }}{19}}
\newlabel{matlab_1D_full_path}{{2.13}{19}}
\@writefile{toc}{\contentsline {section}{\numberline {2.2}A 3D elastoplastic beam in MoFEM}{19}}
\@writefile{lof}{\contentsline {figure}{\numberline {2.21}{\ignorespaces Return-mapping algorithm for Rate-Independent, 3-D perfect plasticity. $\mu $ is the Lame coefficient and $\kappa $ is a material parameter that can be deduced from $\mu $ and $\nu $, the Poisson ratio.\relax }}{20}}
\newlabel{Algorithm2}{{2.21}{20}}
\@writefile{lof}{\contentsline {figure}{\numberline {2.22}{\ignorespaces Deformation and displacement field at different steps of the analysis. \relax }}{21}}
\newlabel{Different_phases}{{2.22}{21}}
\@writefile{toc}{\contentsline {chapter}{\numberline {3}Configurational Mechanics}{22}}
\@writefile{lof}{\addvspace {10\p@ }}
\@writefile{lot}{\addvspace {10\p@ }}
\@writefile{toc}{\contentsline {section}{\numberline {3.1}Elements of field theory}{22}}
\@writefile{toc}{\contentsline {subsection}{\numberline {3.1.1}Euler-Lagrange expressions}{22}}
\citation{Soper}
\citation{Lovelock}
\@writefile{toc}{\contentsline {subsection}{\numberline {3.1.2}Conservation Laws}{23}}
\@writefile{toc}{\contentsline {subsection}{\numberline {3.1.3}Application to the case of hyperelasticity}{23}}
\newlabel{physical}{{3.1.18}{24}}
\newlabel{energy}{{3.1.19}{24}}
\newlabel{material}{{3.1.20}{24}}
\@writefile{toc}{\contentsline {subsection}{\numberline {3.1.4}Example: continuously layered material}{24}}
\citation{Griffith}
\citation{Griffith}
\citation{Inglis}
\citation{Inglis}
\citation{Griffith}
\@writefile{toc}{\contentsline {chapter}{\numberline {4}Linear Elastic Fracture Mechanics : A brief overview}{25}}
\@writefile{lof}{\addvspace {10\p@ }}
\@writefile{lot}{\addvspace {10\p@ }}
\citation{Griffith}
\citation{Irwin48}
\citation{Orowan}
\@writefile{lof}{\contentsline {figure}{\numberline {4.01}{\ignorespaces Elliptical hole in a flat plate.\relax }}{26}}
\newlabel{Hole_plate}{{4.01}{26}}
\citation{FractureBook}
\citation{Irwin}
\citation{Griffith}
\citation{Lukasz2017}
\citation{Fischer}
\@writefile{toc}{\contentsline {chapter}{\numberline {5}Numerical implementation using MoFEM}{28}}
\@writefile{lof}{\addvspace {10\p@ }}
\@writefile{lot}{\addvspace {10\p@ }}
\@writefile{toc}{\contentsline {section}{\numberline {5.1}Overview of the organisation of the code for the problem of the perfectly plastic bar}{29}}
\newlabel{MoFEM}{{5.1}{29}}
\@writefile{lof}{\contentsline {figure}{\numberline {5.11}{\ignorespaces Representation of the organisation of the code the 3D elastic-plastic beam problem\relax }}{29}}
\newlabel{MoFEM_implementation}{{5.11}{29}}
\citation{Lukasz2017}
\bibstyle{plainnat}
\bibdata{temp}
\@writefile{lof}{\contentsline {figure}{\numberline {5.12}{\ignorespaces \relax }}{31}}
\newlabel{Planned_project}{{5.12}{31}}
\bibcite{FractureBook}{{1}{2005}{{Anderson}}{{}}}
\bibcite{DeSouzaMathematical}{{2}{2008}{{E.A~de Souza~Neto}}{{}}}
\bibcite{Fischer}{{3}{2017}{{Fischer et~al.}}{{Fischer, Kolednik, Predan, Razi, and Fratzl}}}
\bibcite{Griffith}{{4}{1921}{{Griffith}}{{}}}
\bibcite{ConservationLaws2001}{{5}{2001}{{Herrmann and Kienzler}}{{}}}
\bibcite{Inglis}{{6}{1913}{{Inglis}}{{}}}
\bibcite{Irwin48}{{7}{1948}{{Irwin}}{{}}}
\bibcite{Irwin}{{8}{1956}{{Irwin}}{{}}}
\bibcite{mofem}{{9}{2017}{{Kaczmarczyk et~al.}}{{Kaczmarczyk, Z., K., Meng, Zhou, and C.}}}
\bibcite{Lukasz2017}{{10}{2013}{{Kaczmarczyk et~al.}}{{Kaczmarczyk, Nezhad, and Pearce}}}
\bibcite{Lovelock}{{11}{1989}{{Lovelock and Rund}}{{}}}
\bibcite{SteinmannConfigurational}{{12}{2005}{{Maugin and Steinmann}}{{}}}
\bibcite{Orowan}{{13}{1948}{{Orowan}}{{}}}
\bibcite{Simo19981D}{{14}{1998{a}}{{Simo and Hughes}}{{}}}
\bibcite{Simo1998Numerics1}{{15}{1998{b}}{{Simo and Hughes}}{{}}}
\bibcite{Simo1998Numerics2}{{16}{1998{c}}{{Simo and Hughes}}{{}}}
\bibcite{Simo1998Theory}{{17}{1998{d}}{{Simo and Hughes}}{{}}}
\bibcite{Soper}{{18}{2008}{{Soper}}{{}}}
\bibcite{Taylor&Zien1}{{19}{2000{a}}{{Taylor and Zienkiewicz}}{{}}}
\bibcite{Taylor&Zien2}{{20}{2000{b}}{{Taylor and Zienkiewicz}}{{}}}
