0 0
0.0504073 0.271526
0.129479 0.527438
0.225594 0.760857
0.329918 0.968051
0.435912 1.14778
0.538897 1.30063
0.635661 1.42839
0.724122 1.53351
0.803038 1.61861
0.871791 1.68621
0.930228 1.73862
0.978465 1.77799
1.01664 1.80619
1.04479 1.82458
1.06246 1.8338
