0 0 0
20 0.271526 20
40 0.527438 40
60 0.760857 60
80 0.968051 80
100 1.14778 100
120 1.30063 120
140 1.42839 140
160 1.53351 160
180 1.61861 180
200 1.68621 200
220 1.73862 220
240 1.77799 240
260 1.80619 260
280 1.82458 280
300 1.8338 300
