0 0 0
20 0.271754 20
40 0.527824 40
60 0.761315 60
80 0.968491 80
100 1.14812 100
120 1.3008 120
140 1.42832 140
160 1.53312 160
180 1.61788 180
200 1.68517 200
220 1.73726 220
240 1.77626 240
260 1.80408 260
280 1.82178 280
300 1.82915 300
