0 0 0
20 0.270792 20
40 0.523178 40
60 0.750151 60
80 0.948878 80
100 1.11935 100
120 1.26325 120
140 1.38315 140
160 1.48185 160
180 1.56205 180
200 1.62607 200
220 1.67608 220
240 1.71405 240
260 1.74041 260
280 1.75437 280
300 1.75533 300
