0 0
0.0593468 0.270128
0.149662 0.521899
0.255666 0.748345
0.366869 0.946645
0.476306 1.11679
0.579555 1.26049
0.673965 1.38027
0.758105 1.47893
0.831352 1.55913
0.893479 1.6234
0.944202 1.67383
0.983085 1.71172
1.00943 1.73726
1.02277 1.7501
1.02325 1.75062
