0 0 0
20 0.27074 20
40 0.523144 40
60 0.750218 60
80 0.949113 80
100 1.1198 100
120 1.26394 120
140 1.38408 140
160 1.48299 160
180 1.5633 180
200 1.6274 200
220 1.67769 220
240 1.7156 240
260 1.74094 260
280 1.75325 280
300 1.75228 300
