0 0
0.059954 0.27074
0.151239 0.523144
0.25844 0.750218
0.370963 0.949113
0.481761 1.1198
0.586339 1.26394
0.681988 1.38408
0.767195 1.48299
0.84122 1.5633
0.903851 1.6274
0.955147 1.67769
0.995035 1.7156
1.02309 1.74094
1.03835 1.75325
1.04049 1.75228
