\relax 
\providecommand\hyper@newdestlabel[2]{}
\@writefile{toc}{\contentsline {chapter}{\numberline {A}Small strains}{21}{appendix.187}}
\@writefile{lof}{\addvspace {10\p@ }}
\@writefile{lot}{\addvspace {10\p@ }}
\newlabel{AppendixA}{{A}{21}{Small strains}{appendix.187}{}}
\newlabel{AppendixA@cref}{{[appendix][1][2147483647]A}{[1][21][]21}}
\@writefile{toc}{\contentsline {section}{\numberline {A.1}Elements of classical (small strains) plasticity}{21}{section.188}}
\@writefile{toc}{\contentsline {subsection}{\numberline {A.1.1}Plasticity in small strains}{21}{subsection.189}}
\newlabel{CD_small}{{A.3}{21}{Plasticity in small strains}{equation.192}{}}
\newlabel{CD_small@cref}{{[equation][3][2147483647,1]A.3}{[1][21][]21}}
\newlabel{adm_domain}{{A.6}{21}{Plasticity in small strains}{equation.195}{}}
\newlabel{adm_domain@cref}{{[equation][6][2147483647,1]A.6}{[1][21][]21}}
\newlabel{symm_tens}{{A.7}{22}{Plasticity in small strains}{equation.196}{}}
\newlabel{symm_tens@cref}{{[equation][7][2147483647,1]A.7}{[1][21][]22}}
\newlabel{const_pb}{{A.10}{22}{Plasticity in small strains}{equation.199}{}}
\newlabel{const_pb@cref}{{[equation][10][2147483647,1]A.10}{[1][22][]22}}
\newlabel{evo_equa1}{{A.12}{22}{Plasticity in small strains}{equation.201}{}}
\newlabel{evo_equa1@cref}{{[equation][12][2147483647,1]A.12}{[1][22][]22}}
\newlabel{evo_equa2}{{A.13}{22}{Plasticity in small strains}{equation.202}{}}
\newlabel{evo_equa2@cref}{{[equation][13][2147483647,1]A.13}{[1][22][]22}}
\newlabel{KKT}{{A.14}{22}{Plasticity in small strains}{equation.203}{}}
\newlabel{KKT@cref}{{[equation][14][2147483647,1]A.14}{[1][22][]22}}
\@writefile{toc}{\contentsline {subsubsection}{The Von-Mises model with isotropic linear hardening}{22}{section*.204}}
\@writefile{toc}{\contentsline {subsection}{\numberline {A.1.2}The return-mapping algorithm in small strains}{23}{subsection.210}}
\newlabel{Numerical_Implementation}{{A.1.2}{24}{The return-mapping algorithm in small strains}{subsection.210}{}}
\newlabel{Numerical_Implementation@cref}{{[subsubappendix][2][2147483647,1,1]A.1.2}{[1][24][]24}}
\@writefile{lof}{\contentsline {figure}{\numberline {A.1}{\ignorespaces The return-mapping algorithm in small strains plasticity \relax }}{24}{figure.caption.211}}
\providecommand*\caption@xref[2]{\@setref\relax\@undefined{#1}}
\newlabel{MoFEM_implementation_2}{{A.1}{24}{The return-mapping algorithm in small strains plasticity \relax }{figure.caption.211}{}}
\newlabel{MoFEM_implementation_2@cref}{{[figure][1][2147483647,1]A.1}{[1][24][]24}}
\@writefile{toc}{\contentsline {section}{\numberline {A.2}Numerical implementation for some problems}{24}{section.212}}
\@writefile{toc}{\contentsline {subsection}{\numberline {A.2.1}1D problem : beam in traction}{24}{subsection.213}}
\@writefile{toc}{\contentsline {subsection}{\numberline {A.2.2}3D problem : Plate with circular hole in traction}{24}{subsection.217}}
\@writefile{lof}{\contentsline {figure}{\numberline {A.2}{\ignorespaces 3D beam problem. \relax }}{25}{figure.caption.214}}
\newlabel{MoFEM_implementation}{{A.2}{25}{3D beam problem. \relax }{figure.caption.214}{}}
\newlabel{MoFEM_implementation@cref}{{[figure][2][2147483647,1]A.2}{[1][24][]25}}
\newlabel{M6}{{A.3a}{25}{Meshsize 6\relax }{figure.caption.215}{}}
\newlabel{M6@cref}{{[subfigure][1][2147483647,1,3]A.3a}{[1][24][]25}}
\newlabel{sub@M6}{{a}{25}{Meshsize 6\relax }{figure.caption.215}{}}
\newlabel{sub@M6@cref}{{[subfigure][1][2147483647,1,3]A.3a}{[1][24][]25}}
\newlabel{M7}{{A.3b}{25}{Meshsize 7\relax }{figure.caption.215}{}}
\newlabel{M7@cref}{{[subfigure][2][2147483647,1,3]A.3b}{[1][24][]25}}
\newlabel{sub@M7}{{b}{25}{Meshsize 7\relax }{figure.caption.215}{}}
\newlabel{sub@M7@cref}{{[subfigure][2][2147483647,1,3]A.3b}{[1][24][]25}}
\newlabel{M8}{{A.3c}{25}{Meshsize 8\relax }{figure.caption.215}{}}
\newlabel{M8@cref}{{[subfigure][3][2147483647,1,3]A.3c}{[1][24][]25}}
\newlabel{sub@M8}{{c}{25}{Meshsize 8\relax }{figure.caption.215}{}}
\newlabel{sub@M8@cref}{{[subfigure][3][2147483647,1,3]A.3c}{[1][24][]25}}
\@writefile{lof}{\contentsline {figure}{\numberline {A.3}{\ignorespaces Mesh with \ref  {M6}) 1472 elements \ref  {M7}) 302 elements \ref  {M8}) 143 elements\relax }}{25}{figure.caption.215}}
\@writefile{lof}{\contentsline {figure}{\numberline {A.4}{\ignorespaces Load-Displacement path for bar stretching for different mesh sizes (perfect plasticity, displacement control)\relax }}{26}{figure.caption.216}}
\newlabel{1D_problem}{{A.4}{26}{Load-Displacement path for bar stretching for different mesh sizes (perfect plasticity, displacement control)\relax }{figure.caption.216}{}}
\newlabel{1D_problem@cref}{{[figure][4][2147483647,1]A.4}{[1][24][]26}}
\@writefile{lof}{\contentsline {figure}{\numberline {A.5}{\ignorespaces Problem the stretched hollow plate for displacement control\relax }}{27}{figure.caption.218}}
\newlabel{stretch_plate}{{A.5}{27}{Problem the stretched hollow plate for displacement control\relax }{figure.caption.218}{}}
\newlabel{stretch_plate@cref}{{[figure][5][2147483647,1]A.5}{[1][24][]27}}
\@writefile{lof}{\contentsline {figure}{\numberline {A.6}{\ignorespaces Representation of the mesh for the 3D problem\relax }}{28}{figure.caption.219}}
\newlabel{MoFEM_implementation}{{A.6}{28}{Representation of the mesh for the 3D problem\relax }{figure.caption.219}{}}
\newlabel{MoFEM_implementation@cref}{{[figure][6][2147483647,1]A.6}{[1][24][]28}}
\@writefile{lof}{\contentsline {figure}{\numberline {A.7}{\ignorespaces $\boldsymbol  {\sigma }_{zz}$ in the hollow plate (pure traction). Young's. modulus : 1, poisson ratio : 0.1, isotropic hardening factor : 0.01, kinematic hardening : 0. , viscosity factor : 1. , yield stress : 1. \relax }}{29}{figure.caption.220}}
\newlabel{MoFEM_implementation}{{A.7}{29}{$\Cstress _{zz}$ in the hollow plate (pure traction). Young's. modulus : 1, poisson ratio : 0.1, isotropic hardening factor : 0.01, kinematic hardening : 0. , viscosity factor : 1. , yield stress : 1. \relax }{figure.caption.220}{}}
\newlabel{MoFEM_implementation@cref}{{[figure][7][2147483647,1]A.7}{[1][24][]29}}
\@writefile{lof}{\contentsline {figure}{\numberline {A.8}{\ignorespaces Load-Displacement path for inhomogeneous problem : hollow plate (perfect plasticity, displacement control) for different element sizes\relax }}{30}{figure.caption.221}}
\newlabel{Inhomogeneous_problem_mesh}{{A.8}{30}{Load-Displacement path for inhomogeneous problem : hollow plate (perfect plasticity, displacement control) for different element sizes\relax }{figure.caption.221}{}}
\newlabel{Inhomogeneous_problem_mesh@cref}{{[figure][8][2147483647,1]A.8}{[1][24][]30}}
\@writefile{lof}{\contentsline {figure}{\numberline {A.9}{\ignorespaces Load-Displacement path for inhomogeneous problem : hollow plate (perfect plasticity, displacement control) for different order of approximation \relax }}{31}{figure.caption.222}}
\newlabel{Inhomogeneous_problem_order}{{A.9}{31}{Load-Displacement path for inhomogeneous problem : hollow plate (perfect plasticity, displacement control) for different order of approximation \relax }{figure.caption.222}{}}
\newlabel{Inhomogeneous_problem_order@cref}{{[figure][9][2147483647,1]A.9}{[1][24][]31}}
\@setckpt{Appendices/AppendixA}{
\setcounter{page}{32}
\setcounter{equation}{19}
\setcounter{enumi}{2}
\setcounter{enumii}{0}
\setcounter{enumiii}{0}
\setcounter{enumiv}{0}
\setcounter{footnote}{0}
\setcounter{mpfootnote}{0}
\setcounter{part}{0}
\setcounter{chapter}{1}
\setcounter{section}{2}
\setcounter{subsection}{2}
\setcounter{subsubsection}{0}
\setcounter{paragraph}{0}
\setcounter{subparagraph}{0}
\setcounter{figure}{9}
\setcounter{table}{0}
\setcounter{LT@tables}{3}
\setcounter{LT@chunks}{1}
\setcounter{ContinuedFloat}{0}
\setcounter{Item}{12}
\setcounter{Hfootnote}{3}
\setcounter{bookmark@seq@number}{45}
\setcounter{endNonectr}{35}
\setcounter{currNonectr}{0}
\setcounter{proof}{0}
\setcounter{currproofctr}{0}
\setcounter{endproofctr}{0}
\setcounter{parentequation}{0}
\setcounter{subfigure}{0}
\setcounter{subtable}{0}
\setcounter{currtheoctr}{12}
\setcounter{endtheoctr}{0}
\setcounter{theo}{0}
\setcounter{currdfnctr}{11}
\setcounter{enddfnctr}{0}
\setcounter{dfn}{0}
\setcounter{currcoroctr}{0}
\setcounter{endcoroctr}{0}
\setcounter{coro}{0}
\setcounter{currprimctr}{0}
\setcounter{endprimctr}{0}
\setcounter{prim}{0}
\setcounter{currproctr}{2}
\setcounter{endproctr}{0}
\setcounter{pro}{0}
\setcounter{currlemctr}{8}
\setcounter{endlemctr}{0}
\setcounter{lem}{0}
\setcounter{tabx@nest}{0}
\setcounter{listtotal}{0}
\setcounter{listcount}{0}
\setcounter{liststart}{0}
\setcounter{liststop}{0}
\setcounter{citecount}{0}
\setcounter{citetotal}{0}
\setcounter{multicitecount}{0}
\setcounter{multicitetotal}{0}
\setcounter{instcount}{4}
\setcounter{maxnames}{1}
\setcounter{minnames}{1}
\setcounter{maxitems}{3}
\setcounter{minitems}{1}
\setcounter{citecounter}{0}
\setcounter{savedcitecounter}{0}
\setcounter{uniquelist}{0}
\setcounter{uniquename}{0}
\setcounter{refsection}{0}
\setcounter{refsegment}{0}
\setcounter{maxextratitle}{0}
\setcounter{maxextratitleyear}{0}
\setcounter{maxextradate}{0}
\setcounter{maxextraalpha}{0}
\setcounter{abbrvpenalty}{50}
\setcounter{highnamepenalty}{50}
\setcounter{lownamepenalty}{25}
\setcounter{maxparens}{3}
\setcounter{parenlevel}{0}
\setcounter{mincomprange}{10}
\setcounter{maxcomprange}{100000}
\setcounter{mincompwidth}{1}
\setcounter{afterword}{0}
\setcounter{savedafterword}{0}
\setcounter{annotator}{0}
\setcounter{savedannotator}{0}
\setcounter{author}{0}
\setcounter{savedauthor}{0}
\setcounter{bookauthor}{0}
\setcounter{savedbookauthor}{0}
\setcounter{commentator}{0}
\setcounter{savedcommentator}{0}
\setcounter{editor}{0}
\setcounter{savededitor}{0}
\setcounter{editora}{0}
\setcounter{savededitora}{0}
\setcounter{editorb}{0}
\setcounter{savededitorb}{0}
\setcounter{editorc}{0}
\setcounter{savededitorc}{0}
\setcounter{foreword}{0}
\setcounter{savedforeword}{0}
\setcounter{holder}{0}
\setcounter{savedholder}{0}
\setcounter{introduction}{0}
\setcounter{savedintroduction}{0}
\setcounter{namea}{0}
\setcounter{savednamea}{0}
\setcounter{nameb}{0}
\setcounter{savednameb}{0}
\setcounter{namec}{0}
\setcounter{savednamec}{0}
\setcounter{translator}{0}
\setcounter{savedtranslator}{0}
\setcounter{shortauthor}{0}
\setcounter{savedshortauthor}{0}
\setcounter{shorteditor}{0}
\setcounter{savedshorteditor}{0}
\setcounter{labelname}{0}
\setcounter{savedlabelname}{0}
\setcounter{institution}{0}
\setcounter{savedinstitution}{0}
\setcounter{lista}{0}
\setcounter{savedlista}{0}
\setcounter{listb}{0}
\setcounter{savedlistb}{0}
\setcounter{listc}{0}
\setcounter{savedlistc}{0}
\setcounter{listd}{0}
\setcounter{savedlistd}{0}
\setcounter{liste}{0}
\setcounter{savedliste}{0}
\setcounter{listf}{0}
\setcounter{savedlistf}{0}
\setcounter{location}{0}
\setcounter{savedlocation}{0}
\setcounter{organization}{0}
\setcounter{savedorganization}{0}
\setcounter{origlocation}{0}
\setcounter{savedoriglocation}{0}
\setcounter{origpublisher}{0}
\setcounter{savedorigpublisher}{0}
\setcounter{publisher}{0}
\setcounter{savedpublisher}{0}
\setcounter{language}{0}
\setcounter{savedlanguage}{0}
\setcounter{origlanguage}{0}
\setcounter{savedoriglanguage}{0}
\setcounter{pageref}{0}
\setcounter{savedpageref}{0}
\setcounter{textcitecount}{0}
\setcounter{textcitetotal}{0}
\setcounter{textcitemaxnames}{0}
\setcounter{biburlnumpenalty}{0}
\setcounter{biburlucpenalty}{0}
\setcounter{biburllcpenalty}{0}
\setcounter{smartand}{1}
\setcounter{bbx:relatedcount}{0}
\setcounter{bbx:relatedtotal}{0}
\setcounter{section@level}{2}
}
