\relax 
\providecommand\hyper@newdestlabel[2]{}
\@writefile{toc}{\contentsline {chapter}{\numberline {3}Discretisation for Mixed Formulation}{13}{chapter.125}}
\@writefile{lof}{\addvspace {10\p@ }}
\@writefile{lot}{\addvspace {10\p@ }}
\newlabel{Chapter3}{{3}{13}{Discretisation for Mixed Formulation}{chapter.125}{}}
\newlabel{Chapter3@cref}{{[chapter][3][]3}{[1][13][]13}}
\@writefile{toc}{\contentsline {section}{\numberline {3.1}Galerkin scheme}{13}{section.126}}
\newlabel{discrete_mixed}{{3.1}{13}{Galerkin scheme}{equation.127}{}}
\newlabel{discrete_mixed@cref}{{[equation][1][3]3.1}{[1][13][]13}}
\@writefile{thm}{\contentsline {theo}{{Theorem}{3.{1}}{}}{13}{theo.128}}
\global\def\markviiitheoi{\ensuremath {\square }}
\@writefile{thm}{\contentsline {theo}{{Theorem}{3.{2}}{Cea's estimate}}{13}{theo.132}}
\global\def\markixtheo{\ensuremath {\square }}
\@writefile{thm}{\contentsline {theo}{{Theorem}{3.{3}}{Fortin's lemma}}{13}{theo.134}}
\@writefile{toc}{\contentsline {section}{\numberline {3.2}Spaces of polynomials}{14}{section.135}}
\@writefile{thm}{\contentsline {dfn}{{Definition}{3.{1}}{}}{14}{dfn.136}}
\global\def\markiidfn{\ensuremath {\square }}
\@writefile{thm}{\contentsline {dfn}{{Definition}{3.{2}}{Raviart-Thomas spaces}}{14}{dfn.139}}
\global\def\markiiidfn{\ensuremath {\square }}
\@writefile{toc}{\contentsline {section}{\numberline {3.3}Local and Global Interpolation Operators}{14}{section.140}}
\@writefile{thm}{\contentsline {theo}{{Theorem}{3.{4}}{}}{14}{theo.141}}
\global\def\markxitheo{\ensuremath {\square }}
\@writefile{thm}{\contentsline {lem}{{Lemma}{3.{1}}{}}{14}{lem.142}}
\global\def\markiilemi{\ensuremath {\square }}
\@writefile{thm}{\contentsline {dfn}{{Definition}{3.{3}}{Global Raviart-Thomas spaces}}{14}{dfn.145}}
\global\def\markivdfn{\ensuremath {\square }}
\@writefile{thm}{\contentsline {dfn}{{Definition}{3.{4}}{F-moments}}{15}{dfn.146}}
\@writefile{thm}{\contentsline {dfn}{{Definition}{3.{5}}{K-moments}}{15}{dfn.147}}
\@writefile{thm}{\contentsline {dfn}{{Definition}{3.{6}}{interpolating function}}{15}{dfn.148}}
\global\def\markviidfn{\ensuremath {\square }}
\@writefile{thm}{\contentsline {dfn}{{Definition}{3.{7}}{Global interpolation operator}}{15}{dfn.149}}
\global\def\markviiidfn{\ensuremath {\square }}
\@writefile{thm}{\contentsline {dfn}{{Definition}{3.{8}}{Local moments}}{15}{dfn.150}}
\@writefile{thm}{\contentsline {dfn}{{Definition}{3.{9}}{Local interpolation operator}}{15}{dfn.151}}
\global\def\markxdfn{\ensuremath {\square }}
\@writefile{thm}{\contentsline {dfn}{{Definition}{3.{10}}{Orthogonal Projector}}{15}{dfn.152}}
\@writefile{thm}{\contentsline {lem}{{Lemma}{3.{2}}{}}{15}{lem.153}}
\global\def\markiiilem{\ensuremath {\square }}
\@writefile{toc}{\contentsline {section}{\numberline {3.4}Global interpolation error and local estimates}{16}{section.157}}
\@writefile{thm}{\contentsline {lem}{{Lemma}{3.{3}}{}}{16}{lem.158}}
\global\def\markivlem{\ensuremath {\square }}
\@writefile{thm}{\contentsline {lem}{{Lemma}{3.{4}}{Local Interpolation Error}}{16}{lem.160}}
\global\def\markvlem{\ensuremath {\square }}
\@writefile{thm}{\contentsline {lem}{{Lemma}{3.{5}}{Local Interpolation Error}}{16}{lem.162}}
\global\def\markvilem{\ensuremath {\square }}
\@writefile{thm}{\contentsline {theo}{{Theorem}{3.{5}}{Global Interpolation Error}}{16}{theo.165}}
\@writefile{thm}{\contentsline {lem}{{Lemma}{3.{6}}{Local interpolation error for normal components}}{16}{lem.167}}
\global\def\markviilem{\ensuremath {\square }}
\@writefile{thm}{\contentsline {lem}{{Lemma}{3.{7}}{Local Interpolation Error with Fractional Order}}{16}{lem.169}}
\global\def\markviiilem{\ensuremath {\square }}
\@writefile{toc}{\contentsline {section}{\numberline {3.5}Application to Small Strains Elasticity}{17}{section.171}}
\@writefile{toc}{\contentsline {subsection}{\numberline {3.5.1}Strong form}{17}{subsection.172}}
\newlabel{Strong_form_elasticity_small}{{3.16}{17}{Strong form}{equation.173}{}}
\newlabel{Strong_form_elasticity_small@cref}{{[equation][16][3]3.16}{[1][17][]17}}
\newlabel{Alternative_strong_small}{{3.17}{17}{Strong form}{equation.174}{}}
\newlabel{Alternative_strong_small@cref}{{[equation][17][3]3.17}{[1][17][]17}}
\newlabel{eqn:weakformulation}{{3.18}{17}{Strong form}{equation.175}{}}
\newlabel{eqn:weakformulation@cref}{{[equation][18][3]3.18}{[1][17][]17}}
\newlabel{discretized_weak}{{3.19}{17}{Strong form}{equation.176}{}}
\newlabel{discretized_weak@cref}{{[equation][19][3]3.19}{[1][17][]17}}
\newlabel{eqn:weakformulation}{{3.20}{17}{Strong form}{equation.177}{}}
\newlabel{eqn:weakformulation@cref}{{[equation][20][3]3.20}{[1][17][]17}}
\newlabel{local_spaces}{{3.21}{17}{Strong form}{equation.178}{}}
\newlabel{local_spaces@cref}{{[equation][21][3]3.21}{[1][17][]17}}
\@writefile{toc}{\contentsline {subsection}{\numberline {3.5.2}Mixed Formulation}{18}{subsection.179}}
\@writefile{toc}{\contentsline {section}{\numberline {3.6}Discretisation and link with deRham cohomology}{18}{section.180}}
\@writefile{toc}{\contentsline {section}{\numberline {3.7}Schur Complement}{18}{section.181}}
\@writefile{toc}{\contentsline {section}{\numberline {3.8}Results obtained with MoFEM}{18}{section.182}}
\@setckpt{Chapters/Chapter3/Chapter3}{
\setcounter{page}{19}
\setcounter{equation}{21}
\setcounter{enumi}{2}
\setcounter{enumii}{0}
\setcounter{enumiii}{0}
\setcounter{enumiv}{0}
\setcounter{footnote}{0}
\setcounter{mpfootnote}{0}
\setcounter{part}{0}
\setcounter{chapter}{3}
\setcounter{section}{8}
\setcounter{subsection}{0}
\setcounter{subsubsection}{0}
\setcounter{paragraph}{0}
\setcounter{subparagraph}{0}
\setcounter{figure}{0}
\setcounter{table}{0}
\setcounter{LT@tables}{3}
\setcounter{LT@chunks}{1}
\setcounter{ContinuedFloat}{0}
\setcounter{Item}{12}
\setcounter{Hfootnote}{3}
\setcounter{bookmark@seq@number}{33}
\setcounter{endNonectr}{35}
\setcounter{currNonectr}{0}
\setcounter{proof}{0}
\setcounter{currproofctr}{0}
\setcounter{endproofctr}{0}
\setcounter{parentequation}{0}
\setcounter{subfigure}{0}
\setcounter{subtable}{0}
\setcounter{currtheoctr}{12}
\setcounter{endtheoctr}{0}
\setcounter{theo}{5}
\setcounter{currdfnctr}{11}
\setcounter{enddfnctr}{0}
\setcounter{dfn}{10}
\setcounter{currcoroctr}{0}
\setcounter{endcoroctr}{0}
\setcounter{coro}{0}
\setcounter{currprimctr}{0}
\setcounter{endprimctr}{0}
\setcounter{prim}{0}
\setcounter{currproctr}{2}
\setcounter{endproctr}{0}
\setcounter{pro}{0}
\setcounter{currlemctr}{8}
\setcounter{endlemctr}{0}
\setcounter{lem}{7}
\setcounter{tabx@nest}{0}
\setcounter{listtotal}{0}
\setcounter{listcount}{0}
\setcounter{liststart}{0}
\setcounter{liststop}{0}
\setcounter{citecount}{0}
\setcounter{citetotal}{0}
\setcounter{multicitecount}{0}
\setcounter{multicitetotal}{0}
\setcounter{instcount}{4}
\setcounter{maxnames}{1}
\setcounter{minnames}{1}
\setcounter{maxitems}{3}
\setcounter{minitems}{1}
\setcounter{citecounter}{0}
\setcounter{savedcitecounter}{0}
\setcounter{uniquelist}{0}
\setcounter{uniquename}{0}
\setcounter{refsection}{0}
\setcounter{refsegment}{0}
\setcounter{maxextratitle}{0}
\setcounter{maxextratitleyear}{0}
\setcounter{maxextradate}{0}
\setcounter{maxextraalpha}{0}
\setcounter{abbrvpenalty}{50}
\setcounter{highnamepenalty}{50}
\setcounter{lownamepenalty}{25}
\setcounter{maxparens}{3}
\setcounter{parenlevel}{0}
\setcounter{mincomprange}{10}
\setcounter{maxcomprange}{100000}
\setcounter{mincompwidth}{1}
\setcounter{afterword}{0}
\setcounter{savedafterword}{0}
\setcounter{annotator}{0}
\setcounter{savedannotator}{0}
\setcounter{author}{0}
\setcounter{savedauthor}{0}
\setcounter{bookauthor}{0}
\setcounter{savedbookauthor}{0}
\setcounter{commentator}{0}
\setcounter{savedcommentator}{0}
\setcounter{editor}{0}
\setcounter{savededitor}{0}
\setcounter{editora}{0}
\setcounter{savededitora}{0}
\setcounter{editorb}{0}
\setcounter{savededitorb}{0}
\setcounter{editorc}{0}
\setcounter{savededitorc}{0}
\setcounter{foreword}{0}
\setcounter{savedforeword}{0}
\setcounter{holder}{0}
\setcounter{savedholder}{0}
\setcounter{introduction}{0}
\setcounter{savedintroduction}{0}
\setcounter{namea}{0}
\setcounter{savednamea}{0}
\setcounter{nameb}{0}
\setcounter{savednameb}{0}
\setcounter{namec}{0}
\setcounter{savednamec}{0}
\setcounter{translator}{0}
\setcounter{savedtranslator}{0}
\setcounter{shortauthor}{0}
\setcounter{savedshortauthor}{0}
\setcounter{shorteditor}{0}
\setcounter{savedshorteditor}{0}
\setcounter{labelname}{0}
\setcounter{savedlabelname}{0}
\setcounter{institution}{0}
\setcounter{savedinstitution}{0}
\setcounter{lista}{0}
\setcounter{savedlista}{0}
\setcounter{listb}{0}
\setcounter{savedlistb}{0}
\setcounter{listc}{0}
\setcounter{savedlistc}{0}
\setcounter{listd}{0}
\setcounter{savedlistd}{0}
\setcounter{liste}{0}
\setcounter{savedliste}{0}
\setcounter{listf}{0}
\setcounter{savedlistf}{0}
\setcounter{location}{0}
\setcounter{savedlocation}{0}
\setcounter{organization}{0}
\setcounter{savedorganization}{0}
\setcounter{origlocation}{0}
\setcounter{savedoriglocation}{0}
\setcounter{origpublisher}{0}
\setcounter{savedorigpublisher}{0}
\setcounter{publisher}{0}
\setcounter{savedpublisher}{0}
\setcounter{language}{0}
\setcounter{savedlanguage}{0}
\setcounter{origlanguage}{0}
\setcounter{savedoriglanguage}{0}
\setcounter{pageref}{0}
\setcounter{savedpageref}{0}
\setcounter{textcitecount}{0}
\setcounter{textcitetotal}{0}
\setcounter{textcitemaxnames}{0}
\setcounter{biburlnumpenalty}{0}
\setcounter{biburlucpenalty}{0}
\setcounter{biburllcpenalty}{0}
\setcounter{smartand}{1}
\setcounter{bbx:relatedcount}{0}
\setcounter{bbx:relatedtotal}{0}
\setcounter{section@level}{1}
}
