\relax 
\bibstyle{abbrvnat}
\catcode `:\active 
\catcode `;\active 
\catcode `!\active 
\catcode `?\active 
\babel@aux{english}{}
\babel@aux{english}{}
\@writefile{toc}{\contentsline {section}{\numberline {1}Elements of classical (small strains) plasticity}{3}}
\@writefile{toc}{\contentsline {subsection}{\numberline {1.1}Thermodynamics Principles}{3}}
\newlabel{Thermo_Principles}{{1.1}{3}}
\@writefile{toc}{\contentsline {subsubsection}{\numberline {1.1.1}The first law of thermodynamics}{3}}
\newlabel{law1}{{1.1}{3}}
\newlabel{energy}{{1.2}{3}}
\newlabel{ext_forces}{{1.3}{3}}
\newlabel{ext_load}{{1.6}{4}}
\newlabel{heat}{{1.7}{4}}
\newlabel{first_law}{{1.9}{4}}
\@writefile{toc}{\contentsline {subsubsection}{\numberline {1.1.2}The second law of thermodynamics}{4}}
\newlabel{thermo_inequality}{{1.15}{5}}
\newlabel{Helmoltz}{{1.16}{5}}
\newlabel{Clausius_first}{{1.17}{5}}
\newlabel{Clausius-Duhem}{{1.18}{5}}
\@writefile{toc}{\contentsline {subsection}{\numberline {1.2}Application to small strains plasticity}{5}}
\@writefile{toc}{\contentsline {subsubsection}{\numberline {1.2.1}Thermodynamics with internal variables}{5}}
\newlabel{set_var}{{1.19}{5}}
\newlabel{material_psi}{{1.21}{6}}
\newlabel{thermo_var1}{{1.24}{6}}
\citation{DeSouzaMathematical}
\citation{DeSouzaNumerics}
\citation{Simo1998Theory}
\citation{Simo1998Numerics1}
\newlabel{const_eq}{{1.28}{7}}
\@writefile{toc}{\contentsline {subsubsection}{\numberline {1.2.2}Plasticity in small strains}{7}}
\newlabel{CD_small}{{1.31}{7}}
\newlabel{adm_domain}{{1.34}{8}}
\newlabel{symm_tens}{{1.35}{8}}
\newlabel{const_pb}{{1.38}{8}}
\newlabel{evo_equa1}{{1.40}{8}}
\newlabel{evo_equa2}{{1.41}{8}}
\newlabel{KKT}{{1.42}{9}}
\@writefile{toc}{\contentsline {subsubsection}{\numberline {1.2.3}The Von-Mises model with isotropic linear hardening}{9}}
\@writefile{toc}{\contentsline {subsection}{\numberline {1.3}Variational formulation of elasto-plastic problem}{9}}
\@writefile{toc}{\contentsline {subsubsection}{\numberline {1.3.1}Functional spaces}{9}}
\citation{Reddy}
\@writefile{toc}{\contentsline {subsubsection}{\numberline {1.3.2}Linear and bilinear forms}{10}}
\@writefile{toc}{\contentsline {subsubsection}{\numberline {1.3.3}Discussion on the primal variational problem}{10}}
\citation{abhyankar2018petsc}
\citation{petsc-web-page}
\citation{petsc-user-ref}
\citation{petsc-efficient}
\@writefile{toc}{\contentsline {subsection}{\numberline {1.4}The return-mapping algorithm in small strains}{11}}
\newlabel{Numerical_Implementation}{{1.4}{12}}
\@writefile{lof}{\contentsline {figure}{\numberline {1.1}{\ignorespaces The return-mapping algorithm in small strains plasticity \relax }}{12}}
\providecommand*\caption@xref[2]{\@setref\relax\@undefined{#1}}
\newlabel{MoFEM_implementation_2}{{1.1}{12}}
\@writefile{toc}{\contentsline {section}{\numberline {2}Eshelbian plasticity}{13}}
\@writefile{toc}{\contentsline {subsection}{\numberline {2.1}Kinematics}{13}}
\@writefile{toc}{\contentsline {subsection}{\numberline {2.2}Consistency equation}{14}}
\@writefile{toc}{\contentsline {subsection}{\numberline {2.3}Physical equation}{14}}
\@writefile{toc}{\contentsline {subsection}{\numberline {2.4}Angular momentum equation}{14}}
\@writefile{toc}{\contentsline {subsection}{\numberline {2.5}Linear momentum equation}{14}}
\@writefile{toc}{\contentsline {section}{\numberline {3}Numerical implementation for some problems}{15}}
\@writefile{toc}{\contentsline {subsection}{\numberline {3.1}1D problem : beam in traction}{15}}
\@writefile{lof}{\contentsline {figure}{\numberline {3.1}{\ignorespaces 3D beam problem. \relax }}{15}}
\newlabel{MoFEM_implementation}{{3.1}{15}}
\newlabel{M6}{{3.2a}{15}}
\newlabel{sub@M6}{{a}{15}}
\newlabel{M7}{{3.2b}{15}}
\newlabel{sub@M7}{{b}{15}}
\newlabel{M8}{{3.2c}{15}}
\newlabel{sub@M8}{{c}{15}}
\@writefile{lof}{\contentsline {figure}{\numberline {3.2}{\ignorespaces Mesh with \ref  {M6}) 1472 elements \ref  {M7}) 302 elements \ref  {M8}) 143 elements\relax }}{15}}
\@writefile{lof}{\contentsline {figure}{\numberline {3.3}{\ignorespaces Load-Displacement path for bar stretching for different mesh sizes (perfect plasticity, displacement control)\relax }}{16}}
\newlabel{1D_problem}{{3.3}{16}}
\@writefile{toc}{\contentsline {subsection}{\numberline {3.2}3D problem : Plate with circular hole in traction}{17}}
\@writefile{lof}{\contentsline {figure}{\numberline {3.4}{\ignorespaces Problem the stretched hollow plate for displacement control\relax }}{17}}
\newlabel{stretch_plate}{{3.4}{17}}
\@writefile{lof}{\contentsline {figure}{\numberline {3.5}{\ignorespaces Representation of the mesh for the 3D problem\relax }}{18}}
\newlabel{MoFEM_implementation}{{3.5}{18}}
\@writefile{lof}{\contentsline {figure}{\numberline {3.6}{\ignorespaces $\boldsymbol  {\sigma }_{zz}$ in the hollow plate (pure traction). Young's. modulus : 1, poisson ratio : 0.1, isotropic hardening factor : 0.01, kinematic hardening : 0. , viscosity factor : 1. , yield stress : 1. \relax }}{19}}
\newlabel{MoFEM_implementation}{{3.6}{19}}
\@writefile{lof}{\contentsline {figure}{\numberline {3.7}{\ignorespaces Load-Displacement path for inhomogeneous problem : hollow plate (perfect plasticity, displacement control) for different element sizes\relax }}{20}}
\newlabel{Inhomogeneous_problem}{{3.7}{20}}
\citation{mofem}
\@writefile{lof}{\contentsline {figure}{\numberline {3.8}{\ignorespaces Load-Displacement path for inhomogeneous problem : hollow plate (perfect plasticity, displacement control) for different order of approximation \relax }}{21}}
\newlabel{Inhomogeneous_problem}{{3.8}{21}}
\@writefile{toc}{\contentsline {section}{\numberline {4}Future Work}{21}}
\bibdata{Citation_Mixed}
\@writefile{toc}{\contentsline {section}{\numberline {5}Conclusion}{22}}
\bibcite{abhyankar2018petsc}{{1}{2018}{{Abhyankar et~al.}}{{Abhyankar, Brown, Constantinescu, Ghosh, Smith, and Zhang}}}
\bibcite{petsc-efficient}{{2}{1997}{{Balay et~al.}}{{Balay, Gropp, McInnes, and Smith}}}
\bibcite{petsc-web-page}{{3}{2019{}}{{Balay et~al.}}{{Balay, Abhyankar, Adams, Brown, Brune, Buschelman, Dalcin, Dener, Eijkhout, Gropp, Karpeyev, Kaushik, Knepley, May, McInnes, Mills, Munson, Rupp, Sanan, Smith, Zampini, Zhang, and Zhang}}}
\@writefile{toc}{\contentsline {section}{\numberline {6}Gantt chart}{23}}
\@writefile{lof}{\contentsline {figure}{\numberline {6.1}{\ignorespaces \relax }}{23}}
\newlabel{Gantt Chart}{{6.1}{23}}
\bibcite{petsc-user-ref}{{4}{2019{}}{{Balay et~al.}}{{Balay, Abhyankar, Adams, Brown, Brune, Buschelman, Dalcin, Dener, Eijkhout, Gropp, Karpeyev, Kaushik, Knepley, May, McInnes, Mills, Munson, Rupp, Sanan, Smith, Zampini, Zhang, and Zhang}}}
\bibcite{DeSouzaMathematical}{{5}{2008{}}{{E.A~de Souza~Neto}}{{}}}
\bibcite{DeSouzaNumerics}{{6}{2008{}}{{E.A~de Souza~Neto}}{{}}}
\bibcite{Reddy}{{7}{2012}{{Han and Reddy}}{{}}}
\bibcite{mofem}{{8}{2017}{{Kaczmarczyk et~al.}}{{Kaczmarczyk, Z., K., Meng, Zhou, and C.}}}
\bibcite{Simo1998Numerics1}{{9}{1998{}}{{Simo and Hughes}}{{}}}
\bibcite{Simo1998Theory}{{10}{1998{}}{{Simo and Hughes}}{{}}}
\@writefile{toc}{\contentsline {section}{\numberline {A}Convex setting }{25}}
\@writefile{toc}{\contentsline {subsection}{\numberline {A.1}Basic definitions for convex analysis}{25}}
\newlabel{convex_func}{{A.5}{25}}
\@writefile{toc}{\contentsline {subsection}{\numberline {A.2}Vector space additional definitions}{25}}
\@writefile{toc}{\contentsline {section}{\numberline {B}Functional analysis}{27}}
\@writefile{toc}{\contentsline {subsection}{\numberline {B.1}Definitions and lemmas}{27}}
\@writefile{toc}{\contentsline {subsection}{\numberline {B.2}Functional spaces : Predefinition}{28}}
\newlabel{norm_bound}{{B.6}{28}}
\@writefile{toc}{\contentsline {subsection}{\numberline {B.3}Hilbert spaces : Definition and properties}{31}}
\@writefile{toc}{\contentsline {subsection}{\numberline {B.4}Function Spaces}{32}}
\@writefile{toc}{\contentsline {subsection}{\numberline {B.5}Sobolev spaces}{34}}
