This is BibTeX, Version 0.99d (TeX Live 2018)
Capacity: max_strings=100000, hash_size=100000, hash_prime=85009
The top-level auxiliary file: Mathematical_foundation.aux
The style file: abbrvnat.bst
Database file #1: Citation_Mixed.bib
You've used 10 entries,
            2773 wiz_defined-function locations,
            655 strings with 6565 characters,
and the built_in function-call counts, 7322 in all, are:
= -- 587
> -- 667
< -- 14
+ -- 226
- -- 213
* -- 651
:= -- 1148
add.period$ -- 33
call.type$ -- 10
change.case$ -- 95
chr.to.int$ -- 7
cite$ -- 20
duplicate$ -- 252
empty$ -- 419
format.name$ -- 229
if$ -- 1515
int.to.chr$ -- 4
int.to.str$ -- 1
missing$ -- 12
newline$ -- 60
num.names$ -- 42
pop$ -- 234
preamble$ -- 1
purify$ -- 90
quote$ -- 0
skip$ -- 239
stack$ -- 0
substring$ -- 199
swap$ -- 72
text.length$ -- 9
text.prefix$ -- 0
top$ -- 0
type$ -- 85
warning$ -- 0
while$ -- 47
width$ -- 0
write$ -- 141
